\relax 
\providecommand\hyper@newdestlabel[2]{}
\catcode `"\active 
\catcode `-\active 
\providecommand\HyperFirstAtBeginDocument{\AtBeginDocument}
\HyperFirstAtBeginDocument{\ifx\hyper@anchor\@undefined
\global\let\oldcontentsline\contentsline
\gdef\contentsline#1#2#3#4{\oldcontentsline{#1}{#2}{#3}}
\global\let\oldnewlabel\newlabel
\gdef\newlabel#1#2{\newlabelxx{#1}#2}
\gdef\newlabelxx#1#2#3#4#5#6{\oldnewlabel{#1}{{#2}{#3}}}
\AtEndDocument{\ifx\hyper@anchor\@undefined
\let\contentsline\oldcontentsline
\let\newlabel\oldnewlabel
\fi}
\fi}
\global\let\hyper@last\relax 
\gdef\HyperFirstAtBeginDocument#1{#1}
\providecommand\HyField@AuxAddToFields[1]{}
\providecommand\HyField@AuxAddToCoFields[2]{}
\babel@aux{czech}{}
\@writefile{toc}{\contentsline {chapter}{\numberline {1}\IeC {\'U}vod}{12}{chapter.1}}
\@writefile{lof}{\addvspace {10\p@ }}
\@writefile{lot}{\addvspace {10\p@ }}
\newlabel{ch:uvod}{{1}{12}{Úvod}{chapter.1}{}}
\@writefile{toc}{\contentsline {section}{\numberline {1.1}C\IeC {\'\i }le pr\IeC {\'a}ce}{13}{section.1.1}}
\@writefile{toc}{\contentsline {chapter}{\numberline {2}Struktura navr\IeC {\v z}en\IeC {\'e} multiplatformn\IeC {\'\i } aplikace}{14}{chapter.2}}
\@writefile{lof}{\addvspace {10\p@ }}
\@writefile{lot}{\addvspace {10\p@ }}
\newlabel{ch:struktura}{{2}{14}{Struktura navržené multiplatformní aplikace}{chapter.2}{}}
\@writefile{lof}{\contentsline {figure}{\numberline {2.1}{\ignorespaces Struktura multiplatformn\IeC {\'\i } aplikace\relax }}{14}{figure.caption.4}}
\providecommand*\caption@xref[2]{\@setref\relax\@undefined{#1}}
\newlabel{fig:structure}{{2.1}{14}{Struktura multiplatformní aplikace\relax }{figure.caption.4}{}}
\@writefile{toc}{\contentsline {chapter}{\numberline {3}Vyvinut\IeC {\'e} moduly}{16}{chapter.3}}
\@writefile{lof}{\addvspace {10\p@ }}
\@writefile{lot}{\addvspace {10\p@ }}
\newlabel{ch:moduly}{{3}{16}{Vyvinuté moduly}{chapter.3}{}}
\@writefile{toc}{\contentsline {section}{\numberline {3.1}Parametrizace}{16}{section.3.1}}
\newlabel{ch:parametrizace}{{3.1}{16}{Parametrizace}{section.3.1}{}}
\@writefile{lof}{\contentsline {figure}{\numberline {3.1}{\ignorespaces Uk\IeC {\'a}zka Melovy stupnice\relax }}{16}{figure.caption.5}}
\newlabel{fig:hz2mel}{{3.1}{16}{Ukázka Melovy stupnice\relax }{figure.caption.5}{}}
\citation{node}
\@writefile{toc}{\contentsline {subsection}{\numberline {3.1.1}P\IeC {\v r}\IeC {\'\i }prava sign\IeC {\'a}lu}{17}{subsection.3.1.1}}
\newlabel{ch:priprava}{{3.1.1}{17}{Příprava signálu}{subsection.3.1.1}{}}
\@writefile{lof}{\contentsline {figure}{\numberline {3.2}{\ignorespaces Postup u\IeC {\v z}it\IeC {\'\i } vybran\IeC {\'e} knihovny\relax }}{17}{figure.caption.6}}
\newlabel{fig:microphone-stream}{{3.2}{17}{Postup užití vybrané knihovny\relax }{figure.caption.6}{}}
\@writefile{lof}{\contentsline {figure}{\numberline {3.3}{\ignorespaces Z\IeC {\'a}kladn\IeC {\'\i } kask\IeC {\'a}da p\IeC {\v r}evzorkov\IeC {\'a}n\IeC {\'\i }\relax }}{18}{figure.caption.7}}
\newlabel{fig:resample-basic}{{3.3}{18}{Základní kaskáda převzorkování\relax }{figure.caption.7}{}}
\citation{javascript}
\@writefile{lof}{\contentsline {figure}{\numberline {3.4}{\ignorespaces Zjednodu\IeC {\v s}en\IeC {\'a} kask\IeC {\'a}da p\IeC {\v r}evzorkov\IeC {\'a}n\IeC {\'\i }\relax }}{19}{figure.caption.8}}
\newlabel{fig:resample-simple}{{3.4}{19}{Zjednodušená kaskáda převzorkování\relax }{figure.caption.8}{}}
\@writefile{lof}{\contentsline {figure}{\numberline {3.5}{\ignorespaces P\IeC {\v r}evzorkov\IeC {\'a}n\IeC {\'\i } pomoc\IeC {\'\i } objektu OfflineAudioContext\relax }}{19}{figure.caption.9}}
\newlabel{fig:js-resample}{{3.5}{19}{Převzorkování pomocí objektu OfflineAudioContext\relax }{figure.caption.9}{}}
\citation{recordrtc}
\@writefile{lof}{\contentsline {figure}{\numberline {3.6}{\ignorespaces Porovn\IeC {\'a}n\IeC {\'\i } pam\IeC {\v e}\IeC {\v t}ov\IeC {\'y}ch n\IeC {\'a}rok\IeC {\r u}\relax }}{21}{figure.caption.10}}
\newlabel{fig:memory}{{3.6}{21}{Porovnání paměťových nároků\relax }{figure.caption.10}{}}
\@writefile{toc}{\contentsline {subsection}{\numberline {3.1.2}MelFBank p\IeC {\v r}\IeC {\'\i }znaky}{21}{subsection.3.1.2}}
\newlabel{eq:HP_SS}{{{Vzorec 1}}{21}{MelFBank příznaky}{equation.3.1.1}{}}
\@writefile{equ}{\contentsline {myequations}{\numberline {}\ref  {eq:HP_SS} - Hornopropustn\IeC {\'\i } filtr pro odstran\IeC {\v e}n\IeC {\'\i } stejnosm\IeC {\v e}rn\IeC {\'e} slo\IeC {\v z}ky}{21}{equation.3.1.1}}
\@writefile{lof}{\contentsline {figure}{\numberline {3.7}{\ignorespaces Algoritmus funkce \uv  {addData}\relax }}{22}{figure.caption.11}}
\newlabel{fig:addData}{{3.7}{22}{Algoritmus funkce \uv {addData}\relax }{figure.caption.11}{}}
\@writefile{lof}{\contentsline {figure}{\numberline {3.8}{\ignorespaces Uk\IeC {\'a}zka Hammingova ok\IeC {\'e}nka\relax }}{23}{figure.caption.12}}
\newlabel{fig:hamming}{{3.8}{23}{Ukázka Hammingova okénka\relax }{figure.caption.12}{}}
\newlabel{eq:hz2mel}{{{Vzorec 2}}{23}{MelFBank příznaky}{equation.3.1.1}{}}
\@writefile{equ}{\contentsline {myequations}{\numberline {}\ref  {eq:hz2mel} - P\IeC {\v r}evodn\IeC {\'\i } vztah z Hertzovy stupnice do Melovy stupnice}{23}{equation.3.1.1}}
\newlabel{eq:mel2hz}{{{Vzorec 3}}{24}{MelFBank příznaky}{equation.3.1.1}{}}
\@writefile{equ}{\contentsline {myequations}{\numberline {}\ref  {eq:mel2hz} - P\IeC {\v r}evodn\IeC {\'\i } vztah z Melovy stupnice do Hertzovy stupnice}{24}{equation.3.1.1}}
\@writefile{lof}{\contentsline {figure}{\numberline {3.9}{\ignorespaces Uk\IeC {\'a}zka 10 troj\IeC {\'u}heln\IeC {\'\i }kov\IeC {\'y}ch filtr\IeC {\r u} pro vzorkovac\IeC {\'\i } frekvenci o hodnot\IeC {\v e} 16 kHz\relax }}{24}{figure.caption.13}}
\newlabel{fig:melfbank10}{{3.9}{24}{Ukázka 10 trojúhelníkových filtrů pro vzorkovací frekvenci o hodnotě 16 kHz\relax }{figure.caption.13}{}}
\@writefile{toc}{\contentsline {section}{\numberline {3.2}Detekce \IeC {\v r}e\IeC {\v c}ov\IeC {\'y}ch segment\IeC {\r u}}{26}{section.3.2}}
\newlabel{ch:detekce}{{3.2}{26}{Detekce řečových segmentů}{section.3.2}{}}
\@writefile{toc}{\contentsline {subsection}{\numberline {3.2.1}Pou\IeC {\v z}it\IeC {\'a} neuronov\IeC {\'a} s\IeC {\'\i }\IeC {\v t}}{26}{subsection.3.2.1}}
\@writefile{lof}{\contentsline {figure}{\numberline {3.10}{\ignorespaces Uk\IeC {\'a}zka pln\IeC {\v e} propojen\IeC {\'e} vrstvy\relax }}{26}{figure.caption.14}}
\newlabel{fig:nnet}{{3.10}{26}{Ukázka plně propojené vrstvy\relax }{figure.caption.14}{}}
\@writefile{lof}{\contentsline {figure}{\numberline {3.11}{\ignorespaces tanh\relax }}{27}{figure.caption.15}}
\newlabel{fig:tanh}{{3.11}{27}{tanh\relax }{figure.caption.15}{}}
\@writefile{lof}{\contentsline {figure}{\numberline {3.12}{\ignorespaces SoftMax\relax }}{27}{figure.caption.15}}
\newlabel{fig:SoftMax}{{3.12}{27}{SoftMax\relax }{figure.caption.15}{}}
\@writefile{lof}{\contentsline {figure}{\numberline {3.13}{\ignorespaces hard tanh\relax }}{27}{figure.caption.15}}
\newlabel{fig:hardtanh}{{3.13}{27}{hard tanh\relax }{figure.caption.15}{}}
\@writefile{toc}{\contentsline {subsection}{\numberline {3.2.2}Vyhlazen\IeC {\'\i } v\IeC {\'y}stupu neuronov\IeC {\'e} s\IeC {\'\i }t\IeC {\v e}}{27}{subsection.3.2.2}}
\newlabel{ch:vyhlazeni}{{3.2.2}{27}{Vyhlazení výstupu neuronové sítě}{subsection.3.2.2}{}}
\@writefile{lof}{\contentsline {figure}{\numberline {3.14}{\ignorespaces Z\IeC {\'a}kladn\IeC {\'\i } model automatu\relax }}{28}{figure.caption.16}}
\newlabel{fig:basic_fsm}{{3.14}{28}{Základní model automatu\relax }{figure.caption.16}{}}
\@writefile{lof}{\contentsline {figure}{\numberline {3.15}{\ignorespaces Model automatu s klouzav\IeC {\'y}m pr\IeC {\r u}m\IeC {\v e}rem\relax }}{29}{figure.caption.17}}
\newlabel{fig:better_fsm}{{3.15}{29}{Model automatu s klouzavým průměrem\relax }{figure.caption.17}{}}
\@writefile{lof}{\contentsline {figure}{\numberline {3.16}{\ignorespaces Model automatu s klouzav\IeC {\'y}m pr\IeC {\r u}m\IeC {\v e}rem a filtrac\IeC {\'\i }\relax }}{30}{figure.caption.18}}
\newlabel{fig:filter_fsm}{{3.16}{30}{Model automatu s klouzavým průměrem a filtrací\relax }{figure.caption.18}{}}
\@writefile{lof}{\contentsline {figure}{\numberline {3.17}{\ignorespaces Uk\IeC {\'a}zka vyhlazen\IeC {\'\i } v\IeC {\'y}stupu neuronov\IeC {\'e} s\IeC {\'\i }t\IeC {\v e} kone\IeC {\v c}n\IeC {\'y}m automatem\relax }}{31}{figure.caption.19}}
\newlabel{fig:fsmFilter}{{3.17}{31}{Ukázka vyhlazení výstupu neuronové sítě konečným automatem\relax }{figure.caption.19}{}}
\citation{nanogrid}
\@writefile{lof}{\contentsline {figure}{\numberline {3.18}{\ignorespaces Model automatu detekuj\IeC {\'\i }c\IeC {\'\i } konec \IeC {\v r}e\IeC {\v c}i pomoc\IeC {\'\i } t\IeC {\v r}\IeC {\'\i } ne\IeC {\v r}e\IeC {\v c}ov\IeC {\'y}ch \IeC {\'u}sek\IeC {\r u}\relax }}{32}{figure.caption.20}}
\newlabel{fig:stopper}{{3.18}{32}{Model automatu detekující konec řeči pomocí tří neřečových úseků\relax }{figure.caption.20}{}}
\@writefile{toc}{\contentsline {section}{\numberline {3.3}Odes\IeC {\'\i }latel a rozpozn\IeC {\'a}n\IeC {\'\i } hlasov\IeC {\'e}ho povelu}{32}{section.3.3}}
\newlabel{ch:rozpoznani}{{3.3}{32}{Odesílatel a rozpoznání hlasového povelu}{section.3.3}{}}
\citation{wav-encoder}
\@writefile{toc}{\contentsline {subsection}{\numberline {3.3.1}Nekorektn\IeC {\'\i } rozpozn\IeC {\'a}n\IeC {\'\i }}{33}{subsection.3.3.1}}
\@writefile{lof}{\contentsline {figure}{\numberline {3.19}{\ignorespaces Audio nahr\IeC {\'a}vka s ukon\IeC {\v c}en\IeC {\'\i }m p\IeC {\v r}enosu\relax }}{34}{figure.caption.21}}
\newlabel{fig:sending1}{{3.19}{34}{Audio nahrávka s ukončením přenosu\relax }{figure.caption.21}{}}
\@writefile{lof}{\contentsline {figure}{\numberline {3.20}{\ignorespaces Audio nahr\IeC {\'a}vka s ukon\IeC {\v c}en\IeC {\'\i }m p\IeC {\v r}enosu po \IeC {\'u}prav\IeC {\v e} modulu\relax }}{35}{figure.caption.22}}
\newlabel{fig:sending2}{{3.20}{35}{Audio nahrávka s ukončením přenosu po úpravě modulu\relax }{figure.caption.22}{}}
\citation{robotjs}
\@writefile{toc}{\contentsline {section}{\numberline {3.4}Vykonavatel hlasov\IeC {\'e}ho povelu}{36}{section.3.4}}
\newlabel{ch:vykonani}{{3.4}{36}{Vykonavatel hlasového povelu}{section.3.4}{}}
\@writefile{toc}{\contentsline {subsection}{\numberline {3.4.1}Knihovna RobotJS}{36}{subsection.3.4.1}}
\citation{recAPocitac}
\@writefile{toc}{\contentsline {subsection}{\numberline {3.4.2}Struktura povel\IeC {\r u}}{37}{subsection.3.4.2}}
\@writefile{toc}{\contentsline {chapter}{\numberline {4}Popis vytvo\IeC {\v r}en\IeC {\'e}ho u\IeC {\v z}ivatelsk\IeC {\'e}ho rozhran\IeC {\'\i }}{38}{chapter.4}}
\@writefile{lof}{\addvspace {10\p@ }}
\@writefile{lot}{\addvspace {10\p@ }}
\newlabel{ch:aplikace}{{4}{38}{Popis vytvořeného uživatelského rozhraní}{chapter.4}{}}
\@writefile{toc}{\contentsline {section}{\numberline {4.1}Angular}{38}{section.4.1}}
\citation{electron}
\@writefile{toc}{\contentsline {section}{\numberline {4.2}Electron}{39}{section.4.2}}
\@writefile{toc}{\contentsline {section}{\numberline {4.3}Vytvo\IeC {\v r}en\IeC {\'\i } aplikace pomoc\IeC {\'\i } knihovny Electron}{39}{section.4.3}}
\newlabel{ch:vytvoreni}{{4.3}{39}{Vytvoření aplikace pomocí knihovny Electron}{section.4.3}{}}
\@writefile{lof}{\contentsline {figure}{\numberline {4.1}{\ignorespaces Z\IeC {\'a}kladn\IeC {\'\i } vzhled aplikace\relax }}{40}{figure.caption.23}}
\newlabel{fig:app}{{4.1}{40}{Základní vzhled aplikace\relax }{figure.caption.23}{}}
\@writefile{lof}{\contentsline {figure}{\numberline {4.2}{\ignorespaces Signalizace detektoru \IeC {\v r}e\IeC {\v c}i\relax }}{41}{figure.caption.24}}
\newlabel{fig:detekce}{{4.2}{41}{Signalizace detektoru řeči\relax }{figure.caption.24}{}}
\citation{store}
\@writefile{lof}{\contentsline {figure}{\numberline {4.3}{\ignorespaces Z\IeC {\'a}kladn\IeC {\'\i } okno aplikace\relax }}{42}{figure.caption.25}}
\newlabel{fig:appBefore}{{4.3}{42}{Základní okno aplikace\relax }{figure.caption.25}{}}
\@writefile{lof}{\contentsline {figure}{\numberline {4.4}{\ignorespaces Aktualizovan\IeC {\'e} okno aplikace\relax }}{42}{figure.caption.25}}
\newlabel{fig:appAfter}{{4.4}{42}{Aktualizované okno aplikace\relax }{figure.caption.25}{}}
\@writefile{lof}{\contentsline {figure}{\numberline {4.5}{\ignorespaces Okno u\IeC {\v z}ivatelsk\IeC {\'e}ho nastaven\IeC {\'\i }\relax }}{43}{figure.caption.26}}
\newlabel{fig:userSettings}{{4.5}{43}{Okno uživatelského nastavení\relax }{figure.caption.26}{}}
\@writefile{lof}{\contentsline {figure}{\numberline {4.6}{\ignorespaces Uk\IeC {\'a}zka p\IeC {\v r}ihl\IeC {\'a}\IeC {\v s}en\IeC {\'\i } u\IeC {\v z}ivatele\relax }}{44}{figure.caption.27}}
\newlabel{fig:login}{{4.6}{44}{Ukázka přihlášení uživatele\relax }{figure.caption.27}{}}
\citation{packager}
\@writefile{toc}{\contentsline {section}{\numberline {4.4}Distribuce aplikace}{45}{section.4.4}}
\@writefile{toc}{\contentsline {subsection}{\numberline {4.4.1}Zabalen\IeC {\'\i } aplikace}{45}{subsection.4.4.1}}
\citation{winstaller}
\citation{dmg}
\@writefile{toc}{\contentsline {subsection}{\numberline {4.4.2}Vytvo\IeC {\v r}en\IeC {\'\i } instal\IeC {\'a}toru}{46}{subsection.4.4.2}}
\citation{debian}
\@writefile{toc}{\contentsline {chapter}{\numberline {5}Experiment\IeC {\'a}ln\IeC {\'\i } vyhodnocen\IeC {\'\i }}{48}{chapter.5}}
\@writefile{lof}{\addvspace {10\p@ }}
\@writefile{lot}{\addvspace {10\p@ }}
\newlabel{ch:funkcnost}{{5}{48}{Experimentální vyhodnocení}{chapter.5}{}}
\@writefile{toc}{\contentsline {section}{\numberline {5.1}Vyhodnocen\IeC {\'\i } detektoru}{48}{section.5.1}}
\newlabel{eq:fer}{{{Vzorec 4}}{48}{Vyhodnocení detektoru}{equation.5.1.1}{}}
\@writefile{equ}{\contentsline {myequations}{\numberline {}\ref  {eq:fer} - Procentu\IeC {\'a}ln\IeC {\'\i } ne\IeC {\'u}sp\IeC {\v e}\IeC {\v s}nost rozpozn\IeC {\'a}va\IeC {\v c}e}{48}{equation.5.1.1}}
\newlabel{eq:mr}{{{Vzorec 5}}{48}{Vyhodnocení detektoru}{equation.5.1.1}{}}
\@writefile{equ}{\contentsline {myequations}{\numberline {}\ref  {eq:mr} - Procentu\IeC {\'a}ln\IeC {\'\i } ne\IeC {\'u}sp\IeC {\v e}\IeC {\v s}nost detekce \IeC {\v r}e\IeC {\v c}i}{48}{equation.5.1.1}}
\newlabel{eq:far}{{{Vzorec 6}}{48}{Vyhodnocení detektoru}{equation.5.1.1}{}}
\@writefile{equ}{\contentsline {myequations}{\numberline {}\ref  {eq:far} - Procentu\IeC {\'a}ln\IeC {\'\i } vyj\IeC {\'a}d\IeC {\v r}en\IeC {\'\i } detekce klidov\IeC {\'e}ho \IeC {\'u}seku jako \IeC {\v r}e\IeC {\v c}ov\IeC {\'e}ho}{49}{equation.5.1.1}}
\@writefile{toc}{\contentsline {section}{\numberline {5.2}Vyhodnocen\IeC {\'\i } rozpozn\IeC {\'a}va\IeC {\v c}e}{49}{section.5.2}}
\@writefile{toc}{\contentsline {chapter}{\numberline {6}Z\IeC {\'a}v\IeC {\v e}r}{51}{chapter.6}}
\@writefile{lof}{\addvspace {10\p@ }}
\@writefile{lot}{\addvspace {10\p@ }}
\newlabel{ch:end}{{6}{51}{Závěr}{chapter.6}{}}
\@writefile{toc}{\contentsline {section}{\numberline {6.1}P\IeC {\v r}\IeC {\'\i }nosy pr\IeC {\'a}ce}{52}{section.6.1}}
\@writefile{toc}{\contentsline {section}{\numberline {6.2}Dal\IeC {\v s}\IeC {\'\i } rozvoj aplikace}{53}{section.6.2}}
\bibcite{recAPocitac}{1}
\bibcite{oreileyJS}{2}
\bibcite{electron}{3}
\bibcite{nanogrid}{4}
\bibcite{store}{5}
\bibcite{got}{6}
\bibcite{recordrtc}{7}
\bibcite{robotjs}{8}
\bibcite{wav-encoder}{9}
\@writefile{toc}{\contentsline {chapter}{Literatura}{54}{chapter*.28}}
\bibcite{javascript}{10}
\bibcite{packager}{11}
\bibcite{winstaller}{12}
\bibcite{debian}{13}
\bibcite{dmg}{14}
\bibcite{node}{15}
\bibcite{dnn}{16}
\bibcite{myvoice}{17}
\@writefile{toc}{\contentsline {chapter}{P\IeC {\v r}\IeC {\'\i }lohy}{57}{chapter*.28}}
\@writefile{toc}{\contentsline {section}{P\IeC {\v r}\IeC {\'\i }loha A: Obsah p\IeC {\v r}ilo\IeC {\v z}en\IeC {\'e}ho CD}{57}{appendix*.29}}
\newlabel{appA}{{6.2}{57}{}{appendix*.29}{}}
