%!PS-Adobe-3.0 EPSF-3.0
%%Creator: (MATLAB, The Mathworks, Inc. Version 9.0.0.341360 \(R2016a\). Operating System: Windows 8)
%%Title: E:/Documents/git/tul_dpdoc_2017-2018/obr/fsmFilter.eps
%%CreationDate: 2018-04-26T11:15:38
%%Pages: (atend)
%%BoundingBox: 0 0 420 315
%%LanguageLevel: 3
%%EndComments
%%BeginProlog
%%BeginResource: procset (Apache XML Graphics Std ProcSet) 1.2 0
%%Version: 1.2 0
%%Copyright: (Copyright 2001-2003,2010 The Apache Software Foundation. License terms: http://www.apache.org/licenses/LICENSE-2.0)
/bd{bind def}bind def
/ld{load def}bd
/GR/grestore ld
/M/moveto ld
/LJ/setlinejoin ld
/C/curveto ld
/f/fill ld
/LW/setlinewidth ld
/GC/setgray ld
/t/show ld
/N/newpath ld
/CT/concat ld
/cp/closepath ld
/S/stroke ld
/L/lineto ld
/CC/setcmykcolor ld
/A/ashow ld
/GS/gsave ld
/RC/setrgbcolor ld
/RM/rmoveto ld
/ML/setmiterlimit ld
/re {4 2 roll M
1 index 0 rlineto
0 exch rlineto
neg 0 rlineto
cp } bd
/_ctm matrix def
/_tm matrix def
/BT { _ctm currentmatrix pop matrix _tm copy pop 0 0 moveto } bd
/ET { _ctm setmatrix } bd
/iTm { _ctm setmatrix _tm concat } bd
/Tm { _tm astore pop iTm 0 0 moveto } bd
/ux 0.0 def
/uy 0.0 def
/F {
  /Tp exch def
  /Tf exch def
  Tf findfont Tp scalefont setfont
  /cf Tf def  /cs Tp def
} bd
/ULS {currentpoint /uy exch def /ux exch def} bd
/ULE {
  /Tcx currentpoint pop def
  gsave
  newpath
  cf findfont cs scalefont dup
  /FontMatrix get 0 get /Ts exch def /FontInfo get dup
  /UnderlinePosition get Ts mul /To exch def
  /UnderlineThickness get Ts mul /Tt exch def
  ux uy To add moveto  Tcx uy To add lineto
  Tt setlinewidth stroke
  grestore
} bd
/OLE {
  /Tcx currentpoint pop def
  gsave
  newpath
  cf findfont cs scalefont dup
  /FontMatrix get 0 get /Ts exch def /FontInfo get dup
  /UnderlinePosition get Ts mul /To exch def
  /UnderlineThickness get Ts mul /Tt exch def
  ux uy To add cs add moveto Tcx uy To add cs add lineto
  Tt setlinewidth stroke
  grestore
} bd
/SOE {
  /Tcx currentpoint pop def
  gsave
  newpath
  cf findfont cs scalefont dup
  /FontMatrix get 0 get /Ts exch def /FontInfo get dup
  /UnderlinePosition get Ts mul /To exch def
  /UnderlineThickness get Ts mul /Tt exch def
  ux uy To add cs 10 mul 26 idiv add moveto Tcx uy To add cs 10 mul 26 idiv add lineto
  Tt setlinewidth stroke
  grestore
} bd
/QT {
/Y22 exch store
/X22 exch store
/Y21 exch store
/X21 exch store
currentpoint
/Y21 load 2 mul add 3 div exch
/X21 load 2 mul add 3 div exch
/X21 load 2 mul /X22 load add 3 div
/Y21 load 2 mul /Y22 load add 3 div
/X22 load /Y22 load curveto
} bd
/SSPD {
dup length /d exch dict def
{
/v exch def
/k exch def
currentpagedevice k known {
/cpdv currentpagedevice k get def
v cpdv ne {
/upd false def
/nullv v type /nulltype eq def
/nullcpdv cpdv type /nulltype eq def
nullv nullcpdv or
{
/upd true def
} {
/sametype v type cpdv type eq def
sametype {
v type /arraytype eq {
/vlen v length def
/cpdvlen cpdv length def
vlen cpdvlen eq {
0 1 vlen 1 sub {
/i exch def
/obj v i get def
/cpdobj cpdv i get def
obj cpdobj ne {
/upd true def
exit
} if
} for
} {
/upd true def
} ifelse
} {
v type /dicttype eq {
v {
/dv exch def
/dk exch def
/cpddv cpdv dk get def
dv cpddv ne {
/upd true def
exit
} if
} forall
} {
/upd true def
} ifelse
} ifelse
} if
} ifelse
upd true eq {
d k v put
} if
} if
} if
} forall
d length 0 gt {
d setpagedevice
} if
} bd
%%EndResource
%%BeginResource: procset (Apache XML Graphics EPS ProcSet) 1.0 0
%%Version: 1.0 0
%%Copyright: (Copyright 2002-2003 The Apache Software Foundation. License terms: http://www.apache.org/licenses/LICENSE-2.0)
/BeginEPSF { %def
/b4_Inc_state save def         % Save state for cleanup
/dict_count countdictstack def % Count objects on dict stack
/op_count count 1 sub def      % Count objects on operand stack
userdict begin                 % Push userdict on dict stack
/showpage { } def              % Redefine showpage, { } = null proc
0 setgray 0 setlinecap         % Prepare graphics state
1 setlinewidth 0 setlinejoin
10 setmiterlimit [ ] 0 setdash newpath
/languagelevel where           % If level not equal to 1 then
{pop languagelevel             % set strokeadjust and
1 ne                           % overprint to their defaults.
{false setstrokeadjust false setoverprint
} if
} if
} bd
/EndEPSF { %def
count op_count sub {pop} repeat            % Clean up stacks
countdictstack dict_count sub {end} repeat
b4_Inc_state restore
} bd
%%EndResource
%FOPBeginFontDict
%%IncludeResource: font Courier-Bold
%%IncludeResource: font Helvetica
%%IncludeResource: font Courier-BoldOblique
%%IncludeResource: font Courier-Oblique
%%IncludeResource: font Times-Roman
%%IncludeResource: font Helvetica-BoldOblique
%%IncludeResource: font Helvetica-Bold
%%IncludeResource: font Helvetica-Oblique
%%IncludeResource: font Times-BoldItalic
%%IncludeResource: font Courier
%%IncludeResource: font Times-Italic
%%IncludeResource: font Times-Bold
%%IncludeResource: font Symbol
%%IncludeResource: font ZapfDingbats
%FOPEndFontDict
%%BeginResource: encoding WinAnsiEncoding
/WinAnsiEncoding [
/.notdef /.notdef /.notdef /.notdef /.notdef
/.notdef /.notdef /.notdef /.notdef /.notdef
/.notdef /.notdef /.notdef /.notdef /.notdef
/.notdef /.notdef /.notdef /.notdef /.notdef
/.notdef /.notdef /.notdef /.notdef /.notdef
/.notdef /.notdef /.notdef /.notdef /.notdef
/.notdef /.notdef /space /exclam /quotedbl
/numbersign /dollar /percent /ampersand /quotesingle
/parenleft /parenright /asterisk /plus /comma
/hyphen /period /slash /zero /one
/two /three /four /five /six
/seven /eight /nine /colon /semicolon
/less /equal /greater /question /at
/A /B /C /D /E
/F /G /H /I /J
/K /L /M /N /O
/P /Q /R /S /T
/U /V /W /X /Y
/Z /bracketleft /backslash /bracketright /asciicircum
/underscore /quoteleft /a /b /c
/d /e /f /g /h
/i /j /k /l /m
/n /o /p /q /r
/s /t /u /v /w
/x /y /z /braceleft /bar
/braceright /asciitilde /bullet /Euro /bullet
/quotesinglbase /florin /quotedblbase /ellipsis /dagger
/daggerdbl /circumflex /perthousand /Scaron /guilsinglleft
/OE /bullet /Zcaron /bullet /bullet
/quoteleft /quoteright /quotedblleft /quotedblright /bullet
/endash /emdash /asciitilde /trademark /scaron
/guilsinglright /oe /bullet /zcaron /Ydieresis
/space /exclamdown /cent /sterling /currency
/yen /brokenbar /section /dieresis /copyright
/ordfeminine /guillemotleft /logicalnot /sfthyphen /registered
/macron /degree /plusminus /twosuperior /threesuperior
/acute /mu /paragraph /middot /cedilla
/onesuperior /ordmasculine /guillemotright /onequarter /onehalf
/threequarters /questiondown /Agrave /Aacute /Acircumflex
/Atilde /Adieresis /Aring /AE /Ccedilla
/Egrave /Eacute /Ecircumflex /Edieresis /Igrave
/Iacute /Icircumflex /Idieresis /Eth /Ntilde
/Ograve /Oacute /Ocircumflex /Otilde /Odieresis
/multiply /Oslash /Ugrave /Uacute /Ucircumflex
/Udieresis /Yacute /Thorn /germandbls /agrave
/aacute /acircumflex /atilde /adieresis /aring
/ae /ccedilla /egrave /eacute /ecircumflex
/edieresis /igrave /iacute /icircumflex /idieresis
/eth /ntilde /ograve /oacute /ocircumflex
/otilde /odieresis /divide /oslash /ugrave
/uacute /ucircumflex /udieresis /yacute /thorn
/ydieresis
] def
%%EndResource
%FOPBeginFontReencode
/Courier-Bold findfont
dup length dict begin
  {1 index /FID ne {def} {pop pop} ifelse} forall
  /Encoding WinAnsiEncoding def
  currentdict
end
/Courier-Bold exch definefont pop
/Helvetica findfont
dup length dict begin
  {1 index /FID ne {def} {pop pop} ifelse} forall
  /Encoding WinAnsiEncoding def
  currentdict
end
/Helvetica exch definefont pop
/Courier-BoldOblique findfont
dup length dict begin
  {1 index /FID ne {def} {pop pop} ifelse} forall
  /Encoding WinAnsiEncoding def
  currentdict
end
/Courier-BoldOblique exch definefont pop
/Courier-Oblique findfont
dup length dict begin
  {1 index /FID ne {def} {pop pop} ifelse} forall
  /Encoding WinAnsiEncoding def
  currentdict
end
/Courier-Oblique exch definefont pop
/Times-Roman findfont
dup length dict begin
  {1 index /FID ne {def} {pop pop} ifelse} forall
  /Encoding WinAnsiEncoding def
  currentdict
end
/Times-Roman exch definefont pop
/Helvetica-BoldOblique findfont
dup length dict begin
  {1 index /FID ne {def} {pop pop} ifelse} forall
  /Encoding WinAnsiEncoding def
  currentdict
end
/Helvetica-BoldOblique exch definefont pop
/Helvetica-Bold findfont
dup length dict begin
  {1 index /FID ne {def} {pop pop} ifelse} forall
  /Encoding WinAnsiEncoding def
  currentdict
end
/Helvetica-Bold exch definefont pop
/Helvetica-Oblique findfont
dup length dict begin
  {1 index /FID ne {def} {pop pop} ifelse} forall
  /Encoding WinAnsiEncoding def
  currentdict
end
/Helvetica-Oblique exch definefont pop
/Times-BoldItalic findfont
dup length dict begin
  {1 index /FID ne {def} {pop pop} ifelse} forall
  /Encoding WinAnsiEncoding def
  currentdict
end
/Times-BoldItalic exch definefont pop
/Courier findfont
dup length dict begin
  {1 index /FID ne {def} {pop pop} ifelse} forall
  /Encoding WinAnsiEncoding def
  currentdict
end
/Courier exch definefont pop
/Times-Italic findfont
dup length dict begin
  {1 index /FID ne {def} {pop pop} ifelse} forall
  /Encoding WinAnsiEncoding def
  currentdict
end
/Times-Italic exch definefont pop
/Times-Bold findfont
dup length dict begin
  {1 index /FID ne {def} {pop pop} ifelse} forall
  /Encoding WinAnsiEncoding def
  currentdict
end
/Times-Bold exch definefont pop
%FOPEndFontReencode
%%EndProlog
%%Page: 1 1
%%PageBoundingBox: 0 0 420 315
%%BeginPageSetup
[1 0 0 -1 0 315] CT
%%EndPageSetup
GS
[0.375 0 0 0.375 0 0] CT
1 GC
N
0 0 1120 840 re
f
GR
GS
[0.375 0 0 0.375 0 0] CT
1 GC
N
0 0 1120 840 re
f
GR
GS
[0.375 0 0 0.375 0 0] CT
1 GC
N
146 748 M
1014 748 L
1014 63 L
146 63 L
cp
f
GR
GS
[0.375 0 0 0.375 0 0] CT
0.149 GC
2 setlinecap
1 LJ
1.333 LW
N
146 748 M
1014 748 L
S
GR
GS
[0.375 0 0 0.375 0 0] CT
0.149 GC
2 setlinecap
1 LJ
1.333 LW
N
146 63 M
1014 63 L
S
GR
GS
[0.375 0 0 0.375 0 0] CT
0.149 GC
2 setlinecap
1 LJ
1.333 LW
N
146 748 M
146 739.32 L
S
GR
GS
[0.375 0 0 0.375 0 0] CT
0.149 GC
2 setlinecap
1 LJ
1.333 LW
N
290.667 748 M
290.667 739.32 L
S
GR
GS
[0.375 0 0 0.375 0 0] CT
0.149 GC
2 setlinecap
1 LJ
1.333 LW
N
435.333 748 M
435.333 739.32 L
S
GR
GS
[0.375 0 0 0.375 0 0] CT
0.149 GC
2 setlinecap
1 LJ
1.333 LW
N
580 748 M
580 739.32 L
S
GR
GS
[0.375 0 0 0.375 0 0] CT
0.149 GC
2 setlinecap
1 LJ
1.333 LW
N
724.667 748 M
724.667 739.32 L
S
GR
GS
[0.375 0 0 0.375 0 0] CT
0.149 GC
2 setlinecap
1 LJ
1.333 LW
N
869.333 748 M
869.333 739.32 L
S
GR
GS
[0.375 0 0 0.375 0 0] CT
0.149 GC
2 setlinecap
1 LJ
1.333 LW
N
1014 748 M
1014 739.32 L
S
GR
GS
[0.375 0 0 0.375 0 0] CT
0.149 GC
2 setlinecap
1 LJ
1.333 LW
N
146 63 M
146 71.68 L
S
GR
GS
[0.375 0 0 0.375 0 0] CT
0.149 GC
2 setlinecap
1 LJ
1.333 LW
N
290.667 63 M
290.667 71.68 L
S
GR
GS
[0.375 0 0 0.375 0 0] CT
0.149 GC
2 setlinecap
1 LJ
1.333 LW
N
435.333 63 M
435.333 71.68 L
S
GR
GS
[0.375 0 0 0.375 0 0] CT
0.149 GC
2 setlinecap
1 LJ
1.333 LW
N
580 63 M
580 71.68 L
S
GR
GS
[0.375 0 0 0.375 0 0] CT
0.149 GC
2 setlinecap
1 LJ
1.333 LW
N
724.667 63 M
724.667 71.68 L
S
GR
GS
[0.375 0 0 0.375 0 0] CT
0.149 GC
2 setlinecap
1 LJ
1.333 LW
N
869.333 63 M
869.333 71.68 L
S
GR
GS
[0.375 0 0 0.375 0 0] CT
0.149 GC
2 setlinecap
1 LJ
1.333 LW
N
1014 63 M
1014 71.68 L
S
GR
GS
[0.375 0 0 0.375 54.75 284.50001] CT
0.149 GC
/Helvetica 26.667 F
GS
[1 0 0 1 0 0] CT
-8 28 moveto 
1 -1 scale
(0) t 
GR
GR
GS
[0.375 0 0 0.375 109 284.50001] CT
0.149 GC
/Helvetica 26.667 F
GS
[1 0 0 1 0 0] CT
-23 28 moveto 
1 -1 scale
(100) t 
GR
GR
GS
[0.375 0 0 0.375 163.25 284.50001] CT
0.149 GC
/Helvetica 26.667 F
GS
[1 0 0 1 0 0] CT
-23 28 moveto 
1 -1 scale
(200) t 
GR
GR
GS
[0.375 0 0 0.375 217.5 284.50001] CT
0.149 GC
/Helvetica 26.667 F
GS
[1 0 0 1 0 0] CT
-23 28 moveto 
1 -1 scale
(300) t 
GR
GR
GS
[0.375 0 0 0.375 271.75001 284.50001] CT
0.149 GC
/Helvetica 26.667 F
GS
[1 0 0 1 0 0] CT
-23 28 moveto 
1 -1 scale
(400) t 
GR
GR
GS
[0.375 0 0 0.375 325.99999 284.50001] CT
0.149 GC
/Helvetica 26.667 F
GS
[1 0 0 1 0 0] CT
-23 28 moveto 
1 -1 scale
(500) t 
GR
GR
GS
[0.375 0 0 0.375 380.25 284.50001] CT
0.149 GC
/Helvetica 26.667 F
GS
[1 0 0 1 0 0] CT
-23 28 moveto 
1 -1 scale
(600) t 
GR
GR
GS
[0.375 0 0 0.375 0 0] CT
0.149 GC
2 setlinecap
1 LJ
1.333 LW
N
146 748 M
146 63 L
S
GR
GS
[0.375 0 0 0.375 0 0] CT
0.149 GC
2 setlinecap
1 LJ
1.333 LW
N
1014 748 M
1014 63 L
S
GR
GS
[0.375 0 0 0.375 0 0] CT
0.149 GC
2 setlinecap
1 LJ
1.333 LW
N
146 690.917 M
154.68 690.917 L
S
GR
GS
[0.375 0 0 0.375 0 0] CT
0.149 GC
2 setlinecap
1 LJ
1.333 LW
N
146 576.75 M
154.68 576.75 L
S
GR
GS
[0.375 0 0 0.375 0 0] CT
0.149 GC
2 setlinecap
1 LJ
1.333 LW
N
146 462.583 M
154.68 462.583 L
S
GR
GS
[0.375 0 0 0.375 0 0] CT
0.149 GC
2 setlinecap
1 LJ
1.333 LW
N
146 348.417 M
154.68 348.417 L
S
GR
GS
[0.375 0 0 0.375 0 0] CT
0.149 GC
2 setlinecap
1 LJ
1.333 LW
N
146 234.25 M
154.68 234.25 L
S
GR
GS
[0.375 0 0 0.375 0 0] CT
0.149 GC
2 setlinecap
1 LJ
1.333 LW
N
146 120.083 M
154.68 120.083 L
S
GR
GS
[0.375 0 0 0.375 0 0] CT
0.149 GC
2 setlinecap
1 LJ
1.333 LW
N
1014 690.917 M
1005.32 690.917 L
S
GR
GS
[0.375 0 0 0.375 0 0] CT
0.149 GC
2 setlinecap
1 LJ
1.333 LW
N
1014 576.75 M
1005.32 576.75 L
S
GR
GS
[0.375 0 0 0.375 0 0] CT
0.149 GC
2 setlinecap
1 LJ
1.333 LW
N
1014 462.583 M
1005.32 462.583 L
S
GR
GS
[0.375 0 0 0.375 0 0] CT
0.149 GC
2 setlinecap
1 LJ
1.333 LW
N
1014 348.417 M
1005.32 348.417 L
S
GR
GS
[0.375 0 0 0.375 0 0] CT
0.149 GC
2 setlinecap
1 LJ
1.333 LW
N
1014 234.25 M
1005.32 234.25 L
S
GR
GS
[0.375 0 0 0.375 0 0] CT
0.149 GC
2 setlinecap
1 LJ
1.333 LW
N
1014 120.083 M
1005.32 120.083 L
S
GR
GS
[0.375 0 0 0.375 50.75 259.09376] CT
0.149 GC
/Helvetica 26.667 F
GS
[1 0 0 1 0 0] CT
-16 11 moveto 
1 -1 scale
(0) t 
GR
GR
GS
[0.375 0 0 0.375 50.75 216.28125] CT
0.149 GC
/Helvetica 26.667 F
GS
[1 0 0 1 0 0] CT
-38 11 moveto 
1 -1 scale
(0.2) t 
GR
GR
GS
[0.375 0 0 0.375 50.75 173.46875] CT
0.149 GC
/Helvetica 26.667 F
GS
[1 0 0 1 0 0] CT
-38 11 moveto 
1 -1 scale
(0.4) t 
GR
GR
GS
[0.375 0 0 0.375 50.75 130.65625] CT
0.149 GC
/Helvetica 26.667 F
GS
[1 0 0 1 0 0] CT
-38 11 moveto 
1 -1 scale
(0.6) t 
GR
GR
GS
[0.375 0 0 0.375 50.75 87.84375] CT
0.149 GC
/Helvetica 26.667 F
GS
[1 0 0 1 0 0] CT
-38 11 moveto 
1 -1 scale
(0.8) t 
GR
GR
GS
[0.375 0 0 0.375 50.75 45.03125] CT
0.149 GC
/Helvetica 26.667 F
GS
[1 0 0 1 0 0] CT
-16 11 moveto 
1 -1 scale
(1) t 
GR
GR
GS
[0.375 0 0 0.375 0 0] CT
0 0.447 0.741 RC
1 LJ
1.333 LW
N
147.447 120.083 M
148.893 120.083 L
150.34 120.083 L
151.787 120.083 L
153.233 120.083 L
154.68 120.083 L
156.127 120.083 L
157.573 120.083 L
159.02 120.083 L
160.467 120.083 L
161.913 120.083 L
163.36 120.083 L
164.807 120.083 L
166.253 120.083 L
167.7 120.083 L
169.147 120.083 L
170.593 120.083 L
172.04 120.083 L
173.487 120.083 L
174.933 120.083 L
176.38 120.083 L
177.827 120.083 L
179.273 120.083 L
180.72 120.083 L
182.167 120.083 L
183.613 120.083 L
185.06 120.083 L
186.507 120.083 L
187.953 120.083 L
189.4 120.083 L
190.847 120.083 L
192.293 120.083 L
193.74 120.083 L
195.187 120.083 L
196.633 120.083 L
198.08 120.083 L
199.527 120.083 L
200.973 120.083 L
202.42 120.083 L
203.867 120.083 L
205.313 120.083 L
206.76 120.083 L
208.207 120.083 L
209.653 120.083 L
211.1 120.083 L
212.547 120.083 L
213.993 120.083 L
215.44 120.083 L
216.887 120.083 L
218.333 120.083 L
219.78 120.083 L
221.227 120.083 L
222.673 120.083 L
224.12 120.083 L
225.567 120.083 L
227.013 120.083 L
228.46 120.083 L
229.907 120.083 L
231.353 120.083 L
232.8 120.083 L
234.247 120.083 L
235.693 120.083 L
237.14 120.083 L
238.587 120.083 L
240.033 120.083 L
241.48 120.083 L
242.927 120.083 L
244.373 120.083 L
245.82 120.083 L
247.267 120.083 L
248.713 120.083 L
250.16 120.083 L
251.607 120.083 L
253.053 120.083 L
254.5 120.083 L
255.947 120.083 L
257.393 120.083 L
258.84 120.083 L
260.287 120.083 L
261.733 120.083 L
263.18 120.083 L
264.627 120.083 L
266.073 120.083 L
267.52 120.083 L
268.967 120.083 L
270.413 120.083 L
271.86 120.083 L
273.307 120.083 L
274.753 120.083 L
276.2 120.083 L
277.647 120.083 L
279.093 120.083 L
280.54 120.083 L
281.987 120.083 L
283.433 120.083 L
284.88 120.083 L
286.327 120.083 L
287.773 120.083 L
289.22 120.083 L
290.667 120.083 L
292.113 120.083 L
293.56 120.083 L
295.007 120.083 L
296.453 120.083 L
297.9 120.083 L
299.347 120.083 L
300.793 120.083 L
302.24 120.083 L
303.687 120.083 L
305.133 120.083 L
306.58 120.083 L
308.027 120.083 L
309.473 120.083 L
310.92 120.083 L
312.367 120.083 L
313.813 120.083 L
315.26 120.083 L
316.707 120.083 L
318.153 120.083 L
319.6 120.083 L
321.047 120.083 L
322.493 120.083 L
323.94 120.083 L
325.387 120.083 L
326.833 120.083 L
328.28 120.083 L
329.727 120.083 L
331.173 120.083 L
332.62 120.083 L
334.067 120.083 L
335.513 120.083 L
336.96 120.083 L
338.407 120.083 L
339.853 120.083 L
341.3 120.083 L
342.747 120.083 L
344.193 120.083 L
345.64 120.083 L
347.087 120.083 L
348.533 120.083 L
349.98 120.083 L
351.427 120.083 L
352.873 120.083 L
354.32 120.083 L
355.767 120.083 L
357.213 120.083 L
358.66 120.083 L
360.107 120.083 L
361.553 120.083 L
363 120.083 L
364.447 120.083 L
365.893 120.083 L
367.34 120.083 L
368.787 120.083 L
370.233 120.083 L
371.68 120.083 L
373.127 120.083 L
374.573 120.083 L
376.02 120.083 L
377.467 120.083 L
378.913 120.083 L
380.36 120.083 L
381.807 120.083 L
383.253 120.083 L
384.7 120.083 L
386.147 120.083 L
387.593 120.083 L
389.04 120.083 L
390.487 120.083 L
391.933 120.083 L
393.38 120.083 L
394.827 120.083 L
396.273 120.083 L
397.72 120.083 L
399.167 120.083 L
400.613 120.083 L
402.06 120.083 L
403.507 120.083 L
404.953 120.083 L
406.4 120.083 L
407.847 120.083 L
409.293 120.083 L
410.74 120.083 L
412.187 120.083 L
413.633 120.083 L
415.08 120.083 L
416.527 120.083 L
417.973 120.083 L
419.42 120.083 L
420.867 120.083 L
422.313 120.083 L
423.76 120.083 L
425.207 120.083 L
426.653 120.083 L
428.1 120.083 L
429.547 120.083 L
430.993 120.083 L
432.44 120.083 L
433.887 120.083 L
435.333 690.917 L
436.78 690.917 L
438.227 690.917 L
439.673 690.917 L
441.12 690.917 L
442.567 690.917 L
444.013 690.917 L
445.46 690.917 L
446.907 120.083 L
448.353 120.083 L
449.8 120.083 L
451.247 120.083 L
452.693 120.083 L
454.14 120.083 L
455.587 120.083 L
457.033 120.083 L
458.48 120.083 L
459.927 120.083 L
461.373 120.083 L
462.82 120.083 L
464.267 120.083 L
465.713 120.083 L
467.16 120.083 L
468.607 120.083 L
470.053 120.083 L
471.5 120.083 L
472.947 120.083 L
474.393 120.083 L
475.84 690.917 L
477.287 690.917 L
478.733 690.917 L
480.18 690.917 L
481.627 690.917 L
483.073 690.917 L
484.52 690.917 L
485.967 690.917 L
487.413 690.917 L
488.86 690.917 L
490.307 690.917 L
491.753 690.917 L
493.2 690.917 L
494.647 690.917 L
496.093 690.917 L
497.54 690.917 L
498.987 690.917 L
500.433 690.917 L
501.88 690.917 L
503.327 690.917 L
504.773 690.917 L
506.22 690.917 L
507.667 690.917 L
509.113 690.917 L
510.56 690.917 L
512.007 690.917 L
513.453 690.917 L
514.9 690.917 L
516.347 690.917 L
517.793 690.917 L
519.24 690.917 L
520.687 690.917 L
522.133 690.917 L
523.58 690.917 L
525.027 690.917 L
526.473 690.917 L
527.92 690.917 L
529.367 690.917 L
530.813 690.917 L
532.26 690.917 L
533.707 690.917 L
535.153 690.917 L
536.6 690.917 L
538.047 690.917 L
539.493 690.917 L
540.94 690.917 L
542.387 690.917 L
543.833 690.917 L
545.28 690.917 L
546.727 690.917 L
548.173 690.917 L
549.62 690.917 L
551.067 690.917 L
552.513 690.917 L
553.96 690.917 L
555.407 690.917 L
556.853 690.917 L
558.3 690.917 L
559.747 690.917 L
561.193 690.917 L
562.64 690.917 L
564.087 690.917 L
565.533 690.917 L
566.98 690.917 L
568.427 690.917 L
569.873 690.917 L
571.32 690.917 L
572.767 690.917 L
574.213 690.917 L
575.66 690.917 L
577.107 690.917 L
578.553 690.917 L
580 690.917 L
581.447 690.917 L
582.893 690.917 L
584.34 690.917 L
585.787 690.917 L
587.233 690.917 L
588.68 690.917 L
590.127 690.917 L
591.573 690.917 L
593.02 690.917 L
594.467 690.917 L
595.913 690.917 L
597.36 690.917 L
598.807 690.917 L
600.253 690.917 L
601.7 690.917 L
603.147 690.917 L
604.593 690.917 L
606.04 690.917 L
607.487 690.917 L
608.933 690.917 L
610.38 690.917 L
611.827 690.917 L
613.273 690.917 L
614.72 690.917 L
616.167 690.917 L
617.613 690.917 L
619.06 690.917 L
620.507 690.917 L
621.953 690.917 L
623.4 690.917 L
624.847 690.917 L
626.293 690.917 L
627.74 690.917 L
629.187 690.917 L
630.633 690.917 L
632.08 690.917 L
633.527 690.917 L
634.973 690.917 L
636.42 690.917 L
637.867 690.917 L
639.313 690.917 L
640.76 690.917 L
642.207 690.917 L
643.653 690.917 L
645.1 690.917 L
646.547 690.917 L
647.993 690.917 L
649.44 690.917 L
650.887 690.917 L
652.333 690.917 L
653.78 690.917 L
655.227 690.917 L
656.673 690.917 L
658.12 690.917 L
659.567 690.917 L
661.013 690.917 L
662.46 690.917 L
663.907 690.917 L
665.353 690.917 L
666.8 690.917 L
668.247 690.917 L
669.693 690.917 L
671.14 690.917 L
672.587 690.917 L
674.033 690.917 L
675.48 690.917 L
676.927 690.917 L
678.373 690.917 L
679.82 120.083 L
681.267 120.083 L
682.713 120.083 L
684.16 120.083 L
685.607 120.083 L
687.053 120.083 L
688.5 120.083 L
689.947 120.083 L
691.393 120.083 L
692.84 120.083 L
694.287 120.083 L
695.733 120.083 L
697.18 120.083 L
698.627 120.083 L
700.073 120.083 L
701.52 120.083 L
702.967 120.083 L
704.413 120.083 L
705.86 120.083 L
707.307 120.083 L
708.753 120.083 L
710.2 120.083 L
711.647 120.083 L
713.093 120.083 L
714.54 120.083 L
715.987 120.083 L
717.433 120.083 L
718.88 120.083 L
720.327 120.083 L
721.773 120.083 L
723.22 120.083 L
724.667 120.083 L
726.113 120.083 L
727.56 120.083 L
729.007 120.083 L
730.453 120.083 L
731.9 120.083 L
733.347 120.083 L
734.793 120.083 L
736.24 120.083 L
737.687 120.083 L
739.133 120.083 L
740.58 120.083 L
742.027 120.083 L
743.473 120.083 L
744.92 120.083 L
746.367 120.083 L
747.813 120.083 L
749.26 120.083 L
750.707 120.083 L
752.153 120.083 L
753.6 120.083 L
755.047 120.083 L
756.493 120.083 L
757.94 120.083 L
759.387 120.083 L
760.833 120.083 L
762.28 120.083 L
763.727 120.083 L
765.173 120.083 L
766.62 120.083 L
768.067 120.083 L
769.513 120.083 L
770.96 120.083 L
772.407 120.083 L
773.853 120.083 L
775.3 120.083 L
776.747 120.083 L
778.193 120.083 L
779.64 120.083 L
781.087 120.083 L
782.533 120.083 L
783.98 120.083 L
785.427 120.083 L
786.873 120.083 L
788.32 120.083 L
789.767 120.083 L
791.213 120.083 L
792.66 120.083 L
794.107 120.083 L
795.553 120.083 L
797 120.083 L
798.447 120.083 L
799.893 120.083 L
801.34 120.083 L
802.787 120.083 L
804.233 120.083 L
805.68 120.083 L
807.127 120.083 L
808.573 120.083 L
810.02 120.083 L
811.467 120.083 L
812.913 120.083 L
814.36 120.083 L
815.807 120.083 L
817.253 120.083 L
818.7 120.083 L
820.147 120.083 L
821.593 120.083 L
823.04 120.083 L
824.487 120.083 L
825.933 120.083 L
827.38 120.083 L
828.827 120.083 L
830.273 120.083 L
831.72 120.083 L
833.167 120.083 L
834.613 120.083 L
836.06 120.083 L
837.507 120.083 L
838.953 120.083 L
840.4 120.083 L
841.847 120.083 L
843.293 120.083 L
844.74 120.083 L
846.187 120.083 L
847.633 120.083 L
849.08 120.083 L
850.527 120.083 L
851.973 120.083 L
853.42 120.083 L
854.867 120.083 L
856.313 120.083 L
857.76 120.083 L
859.207 120.083 L
860.653 120.083 L
862.1 120.083 L
863.547 120.083 L
864.993 120.083 L
866.44 120.083 L
867.887 120.083 L
869.333 120.083 L
870.78 120.083 L
872.227 120.083 L
873.673 120.083 L
875.12 120.083 L
876.567 120.083 L
878.013 120.083 L
879.46 120.083 L
880.907 120.083 L
882.353 120.083 L
883.8 120.083 L
885.247 120.083 L
886.693 120.083 L
888.14 120.083 L
889.587 120.083 L
891.033 120.083 L
892.48 120.083 L
893.927 120.083 L
895.373 120.083 L
896.82 120.083 L
898.267 120.083 L
899.713 120.083 L
901.16 120.083 L
902.607 120.083 L
904.053 120.083 L
905.5 120.083 L
906.947 120.083 L
908.393 120.083 L
909.84 120.083 L
911.287 120.083 L
912.733 120.083 L
914.18 120.083 L
915.627 120.083 L
917.073 120.083 L
918.52 120.083 L
919.967 120.083 L
921.413 120.083 L
922.86 120.083 L
924.307 120.083 L
925.753 120.083 L
927.2 120.083 L
928.647 120.083 L
930.093 120.083 L
931.54 120.083 L
932.987 120.083 L
934.433 120.083 L
S
GR
GS
[0.375 0 0 0.375 0 0] CT
0.851 0.325 0.098 RC
1 LJ
1.333 LW
N
147.447 120.083 M
148.893 120.083 L
150.34 120.083 L
151.787 120.083 L
153.233 120.083 L
154.68 120.083 L
156.127 120.083 L
157.573 120.083 L
159.02 120.083 L
160.467 120.083 L
161.913 120.083 L
163.36 120.083 L
164.807 120.083 L
166.253 120.083 L
167.7 120.083 L
169.147 120.083 L
170.593 120.083 L
172.04 120.083 L
173.487 120.083 L
174.933 120.083 L
176.38 120.083 L
177.827 120.083 L
179.273 120.083 L
180.72 120.083 L
182.167 120.083 L
183.613 120.083 L
185.06 120.083 L
186.507 120.083 L
187.953 120.083 L
189.4 120.083 L
190.847 120.083 L
192.293 120.083 L
193.74 120.083 L
195.187 120.083 L
196.633 120.083 L
198.08 120.083 L
199.527 120.083 L
200.973 120.083 L
202.42 120.083 L
203.867 120.083 L
205.313 120.083 L
206.76 120.083 L
208.207 120.083 L
209.653 120.083 L
211.1 120.083 L
212.547 120.083 L
213.993 120.083 L
215.44 120.083 L
216.887 120.083 L
218.333 120.083 L
219.78 120.083 L
221.227 120.083 L
222.673 120.083 L
224.12 120.083 L
225.567 120.083 L
227.013 120.083 L
228.46 120.083 L
229.907 120.083 L
231.353 120.083 L
232.8 120.083 L
234.247 120.083 L
235.693 120.083 L
237.14 120.083 L
238.587 120.083 L
240.033 120.083 L
241.48 120.083 L
242.927 120.083 L
244.373 120.083 L
245.82 120.083 L
247.267 120.083 L
248.713 120.083 L
250.16 120.083 L
251.607 120.083 L
253.053 120.083 L
254.5 120.083 L
255.947 120.083 L
257.393 120.083 L
258.84 120.083 L
260.287 120.083 L
261.733 120.083 L
263.18 120.083 L
264.627 120.083 L
266.073 120.083 L
267.52 120.083 L
268.967 120.083 L
270.413 120.083 L
271.86 120.083 L
273.307 120.083 L
274.753 120.083 L
276.2 120.083 L
277.647 120.083 L
279.093 120.083 L
280.54 120.083 L
281.987 120.083 L
283.433 120.083 L
284.88 120.083 L
286.327 120.083 L
287.773 120.083 L
289.22 120.083 L
290.667 120.083 L
292.113 120.083 L
293.56 120.083 L
295.007 120.083 L
296.453 120.083 L
297.9 120.083 L
299.347 120.083 L
300.793 120.083 L
302.24 120.083 L
303.687 120.083 L
305.133 120.083 L
306.58 120.083 L
308.027 120.083 L
309.473 120.083 L
310.92 120.083 L
312.367 120.083 L
313.813 120.083 L
315.26 120.083 L
316.707 120.083 L
318.153 120.083 L
319.6 120.083 L
321.047 120.083 L
322.493 120.083 L
323.94 120.083 L
325.387 120.083 L
326.833 120.083 L
328.28 120.083 L
329.727 120.083 L
331.173 120.083 L
332.62 120.083 L
334.067 120.083 L
335.513 120.083 L
336.96 120.083 L
338.407 120.083 L
339.853 120.083 L
341.3 120.083 L
342.747 120.083 L
344.193 120.083 L
345.64 120.083 L
347.087 120.083 L
348.533 120.083 L
349.98 120.083 L
351.427 120.083 L
352.873 120.083 L
354.32 120.083 L
355.767 120.083 L
357.213 120.083 L
358.66 120.083 L
360.107 120.083 L
361.553 120.083 L
363 120.083 L
364.447 120.083 L
365.893 120.083 L
367.34 120.083 L
368.787 120.083 L
370.233 120.083 L
371.68 120.083 L
373.127 120.083 L
374.573 120.083 L
376.02 120.083 L
377.467 120.083 L
378.913 120.083 L
380.36 120.083 L
381.807 120.083 L
383.253 120.083 L
384.7 120.083 L
386.147 120.083 L
387.593 120.083 L
389.04 120.083 L
390.487 120.083 L
391.933 120.083 L
393.38 120.083 L
394.827 120.083 L
396.273 120.083 L
397.72 120.083 L
399.167 120.083 L
400.613 120.083 L
402.06 120.083 L
403.507 120.083 L
404.953 120.083 L
406.4 120.083 L
407.847 120.083 L
409.293 120.083 L
410.74 120.083 L
412.187 120.083 L
413.633 120.083 L
415.08 120.083 L
416.527 120.083 L
417.973 120.083 L
419.42 120.083 L
420.867 120.083 L
422.313 120.083 L
423.76 120.083 L
425.207 120.083 L
426.653 120.083 L
428.1 120.083 L
429.547 120.083 L
430.993 120.083 L
432.44 120.083 L
433.887 120.083 L
435.333 120.083 L
436.78 120.083 L
438.227 120.083 L
439.673 120.083 L
441.12 120.083 L
442.567 120.083 L
444.013 120.083 L
445.46 120.083 L
446.907 120.083 L
448.353 120.083 L
449.8 120.083 L
451.247 120.083 L
452.693 120.083 L
454.14 120.083 L
455.587 120.083 L
457.033 120.083 L
458.48 120.083 L
459.927 120.083 L
461.373 120.083 L
462.82 120.083 L
464.267 120.083 L
465.713 120.083 L
467.16 120.083 L
468.607 120.083 L
470.053 120.083 L
471.5 120.083 L
472.947 120.083 L
474.393 120.083 L
475.84 120.083 L
477.287 120.083 L
478.733 120.083 L
480.18 120.083 L
481.627 120.083 L
483.073 120.083 L
484.52 120.083 L
485.967 120.083 L
487.413 120.083 L
488.86 120.083 L
490.307 120.083 L
491.753 120.083 L
493.2 690.917 L
494.647 690.917 L
496.093 690.917 L
497.54 690.917 L
498.987 690.917 L
500.433 690.917 L
501.88 690.917 L
503.327 690.917 L
504.773 690.917 L
506.22 690.917 L
507.667 690.917 L
509.113 690.917 L
510.56 690.917 L
512.007 690.917 L
513.453 690.917 L
514.9 690.917 L
516.347 690.917 L
517.793 690.917 L
519.24 690.917 L
520.687 690.917 L
522.133 690.917 L
523.58 690.917 L
525.027 690.917 L
526.473 690.917 L
527.92 690.917 L
529.367 690.917 L
530.813 690.917 L
532.26 690.917 L
533.707 690.917 L
535.153 690.917 L
536.6 690.917 L
538.047 690.917 L
539.493 690.917 L
540.94 690.917 L
542.387 690.917 L
543.833 690.917 L
545.28 690.917 L
546.727 690.917 L
548.173 690.917 L
549.62 690.917 L
551.067 690.917 L
552.513 690.917 L
553.96 690.917 L
555.407 690.917 L
556.853 690.917 L
558.3 690.917 L
559.747 690.917 L
561.193 690.917 L
562.64 690.917 L
564.087 690.917 L
565.533 690.917 L
566.98 690.917 L
568.427 690.917 L
569.873 690.917 L
571.32 690.917 L
572.767 690.917 L
574.213 690.917 L
575.66 690.917 L
577.107 690.917 L
578.553 690.917 L
580 690.917 L
581.447 690.917 L
582.893 690.917 L
584.34 690.917 L
585.787 690.917 L
587.233 690.917 L
588.68 690.917 L
590.127 690.917 L
591.573 690.917 L
593.02 690.917 L
594.467 690.917 L
595.913 690.917 L
597.36 690.917 L
598.807 690.917 L
600.253 690.917 L
601.7 690.917 L
603.147 690.917 L
604.593 690.917 L
606.04 690.917 L
607.487 690.917 L
608.933 690.917 L
610.38 690.917 L
611.827 690.917 L
613.273 690.917 L
614.72 690.917 L
616.167 690.917 L
617.613 690.917 L
619.06 690.917 L
620.507 690.917 L
621.953 690.917 L
623.4 690.917 L
624.847 690.917 L
626.293 690.917 L
627.74 690.917 L
629.187 690.917 L
630.633 690.917 L
632.08 690.917 L
633.527 690.917 L
634.973 690.917 L
636.42 690.917 L
637.867 690.917 L
639.313 690.917 L
640.76 690.917 L
642.207 690.917 L
643.653 690.917 L
645.1 690.917 L
646.547 690.917 L
647.993 690.917 L
649.44 690.917 L
650.887 690.917 L
652.333 690.917 L
653.78 690.917 L
655.227 690.917 L
656.673 690.917 L
658.12 690.917 L
659.567 690.917 L
661.013 690.917 L
662.46 690.917 L
663.907 690.917 L
665.353 690.917 L
666.8 690.917 L
668.247 690.917 L
669.693 690.917 L
671.14 690.917 L
672.587 690.917 L
674.033 690.917 L
675.48 690.917 L
676.927 690.917 L
678.373 690.917 L
679.82 690.917 L
681.267 690.917 L
682.713 690.917 L
684.16 690.917 L
685.607 690.917 L
687.053 690.917 L
688.5 120.083 L
689.947 120.083 L
691.393 120.083 L
692.84 120.083 L
694.287 120.083 L
695.733 120.083 L
697.18 120.083 L
698.627 120.083 L
700.073 120.083 L
701.52 120.083 L
702.967 120.083 L
704.413 120.083 L
705.86 120.083 L
707.307 120.083 L
708.753 120.083 L
710.2 120.083 L
711.647 120.083 L
713.093 120.083 L
714.54 120.083 L
715.987 120.083 L
717.433 120.083 L
718.88 120.083 L
720.327 120.083 L
721.773 120.083 L
723.22 120.083 L
724.667 120.083 L
726.113 120.083 L
727.56 120.083 L
729.007 120.083 L
730.453 120.083 L
731.9 120.083 L
733.347 120.083 L
734.793 120.083 L
736.24 120.083 L
737.687 120.083 L
739.133 120.083 L
740.58 120.083 L
742.027 120.083 L
743.473 120.083 L
744.92 120.083 L
746.367 120.083 L
747.813 120.083 L
749.26 120.083 L
750.707 120.083 L
752.153 120.083 L
753.6 120.083 L
755.047 120.083 L
756.493 120.083 L
757.94 120.083 L
759.387 120.083 L
760.833 120.083 L
762.28 120.083 L
763.727 120.083 L
765.173 120.083 L
766.62 120.083 L
768.067 120.083 L
769.513 120.083 L
770.96 120.083 L
772.407 120.083 L
773.853 120.083 L
775.3 120.083 L
776.747 120.083 L
778.193 120.083 L
779.64 120.083 L
781.087 120.083 L
782.533 120.083 L
783.98 120.083 L
785.427 120.083 L
786.873 120.083 L
788.32 120.083 L
789.767 120.083 L
791.213 120.083 L
792.66 120.083 L
794.107 120.083 L
795.553 120.083 L
797 120.083 L
798.447 120.083 L
799.893 120.083 L
801.34 120.083 L
802.787 120.083 L
804.233 120.083 L
805.68 120.083 L
807.127 120.083 L
808.573 120.083 L
810.02 120.083 L
811.467 120.083 L
812.913 120.083 L
814.36 120.083 L
815.807 120.083 L
817.253 120.083 L
818.7 120.083 L
820.147 120.083 L
821.593 120.083 L
823.04 120.083 L
824.487 120.083 L
825.933 120.083 L
827.38 120.083 L
828.827 120.083 L
830.273 120.083 L
831.72 120.083 L
833.167 120.083 L
834.613 120.083 L
836.06 120.083 L
837.507 120.083 L
838.953 120.083 L
840.4 120.083 L
841.847 120.083 L
843.293 120.083 L
844.74 120.083 L
846.187 120.083 L
847.633 120.083 L
849.08 120.083 L
850.527 120.083 L
851.973 120.083 L
853.42 120.083 L
854.867 120.083 L
856.313 120.083 L
857.76 120.083 L
859.207 120.083 L
860.653 120.083 L
862.1 120.083 L
863.547 120.083 L
864.993 120.083 L
866.44 120.083 L
867.887 120.083 L
869.333 120.083 L
870.78 120.083 L
872.227 120.083 L
873.673 120.083 L
875.12 120.083 L
876.567 120.083 L
878.013 120.083 L
879.46 120.083 L
880.907 120.083 L
882.353 120.083 L
883.8 120.083 L
885.247 120.083 L
886.693 120.083 L
888.14 120.083 L
889.587 120.083 L
891.033 120.083 L
892.48 120.083 L
893.927 120.083 L
895.373 120.083 L
896.82 120.083 L
898.267 120.083 L
899.713 120.083 L
901.16 120.083 L
902.607 120.083 L
904.053 120.083 L
905.5 120.083 L
906.947 120.083 L
908.393 120.083 L
909.84 120.083 L
911.287 120.083 L
912.733 120.083 L
914.18 120.083 L
915.627 120.083 L
917.073 120.083 L
918.52 120.083 L
919.967 120.083 L
921.413 120.083 L
922.86 120.083 L
924.307 120.083 L
925.753 120.083 L
927.2 120.083 L
928.647 120.083 L
930.093 120.083 L
931.54 120.083 L
932.987 120.083 L
934.433 120.083 L
S
GR
GS
[0.375 0 0 0.375 0 0] CT
1 GC
N
718 721 M
718 650 L
987 650 L
987 721 L
cp
f
GR
GS
[0.375 0 0 0.375 297 251.0625] CT
N
1.828 9.5 M
1.828 -7.688 L
4.156 -7.688 L
13.188 5.813 L
13.188 -7.688 L
15.359 -7.688 L
15.359 9.5 L
13.031 9.5 L
4.016 -4 L
4.016 9.5 L
1.828 9.5 L
cp
27.441 5.484 M
29.613 5.766 L
29.098 7.672 27.707 8.727 QT
26.316 9.781 24.145 9.781 QT
21.41 9.781 19.809 8.102 QT
18.207 6.422 18.207 3.375 QT
18.207 0.234 19.824 -1.5 QT
21.441 -3.234 24.02 -3.234 QT
26.52 -3.234 28.105 -1.531 QT
29.691 0.172 29.691 3.25 QT
29.691 3.438 29.676 3.813 QT
20.395 3.813 L
20.504 5.859 21.551 6.953 QT
22.598 8.047 24.16 8.047 QT
25.316 8.047 26.137 7.438 QT
26.957 6.828 27.441 5.484 QT
cp
20.504 2.078 M
27.457 2.078 L
27.316 0.516 26.66 -0.281 QT
25.66 -1.5 24.051 -1.5 QT
22.598 -1.5 21.605 -0.523 QT
20.613 0.453 20.504 2.078 QT
cp
40.414 9.5 M
40.414 7.672 L
38.961 9.781 36.477 9.781 QT
35.367 9.781 34.414 9.359 QT
33.461 8.938 33 8.297 QT
32.539 7.656 32.352 6.734 QT
32.211 6.109 32.211 4.766 QT
32.211 -2.953 L
34.32 -2.953 L
34.32 3.953 L
34.32 5.609 34.461 6.188 QT
34.648 7.016 35.297 7.492 QT
35.945 7.969 36.898 7.969 QT
37.836 7.969 38.672 7.477 QT
39.508 6.984 39.852 6.148 QT
40.195 5.313 40.195 3.719 QT
40.195 -2.953 L
42.305 -2.953 L
42.305 9.5 L
40.414 9.5 L
cp
45.59 9.5 M
45.59 -2.953 L
47.48 -2.953 L
47.48 -1.063 L
48.215 -2.391 48.832 -2.813 QT
49.449 -3.234 50.184 -3.234 QT
51.246 -3.234 52.355 -2.547 QT
51.621 -0.594 L
50.855 -1.047 50.074 -1.047 QT
49.387 -1.047 48.832 -0.633 QT
48.277 -0.219 48.043 0.516 QT
47.699 1.641 47.699 2.984 QT
47.699 9.5 L
45.59 9.5 L
cp
52.816 3.281 M
52.816 -0.188 54.738 -1.844 QT
56.348 -3.234 58.66 -3.234 QT
61.223 -3.234 62.848 -1.547 QT
64.473 0.141 64.473 3.094 QT
64.473 5.5 63.754 6.875 QT
63.035 8.25 61.66 9.016 QT
60.285 9.781 58.66 9.781 QT
56.035 9.781 54.426 8.102 QT
52.816 6.422 52.816 3.281 QT
cp
54.988 3.281 M
54.988 5.672 56.027 6.859 QT
57.066 8.047 58.66 8.047 QT
60.223 8.047 61.27 6.852 QT
62.316 5.656 62.316 3.203 QT
62.316 0.891 61.262 -0.297 QT
60.207 -1.484 58.66 -1.484 QT
57.066 -1.484 56.027 -0.297 QT
54.988 0.891 54.988 3.281 QT
cp
66.945 9.5 M
66.945 -2.953 L
68.852 -2.953 L
68.852 -1.172 L
70.227 -3.234 72.805 -3.234 QT
73.93 -3.234 74.875 -2.828 QT
75.82 -2.422 76.289 -1.766 QT
76.758 -1.109 76.945 -0.203 QT
77.07 0.375 77.07 1.844 QT
77.07 9.5 L
74.961 9.5 L
74.961 1.922 L
74.961 0.641 74.711 0 QT
74.461 -0.641 73.836 -1.023 QT
73.211 -1.406 72.367 -1.406 QT
71.023 -1.406 70.039 -0.547 QT
69.055 0.313 69.055 2.703 QT
69.055 9.5 L
66.945 9.5 L
cp
79.512 3.281 M
79.512 -0.188 81.434 -1.844 QT
83.043 -3.234 85.355 -3.234 QT
87.918 -3.234 89.543 -1.547 QT
91.168 0.141 91.168 3.094 QT
91.168 5.5 90.449 6.875 QT
89.73 8.25 88.355 9.016 QT
86.98 9.781 85.355 9.781 QT
82.73 9.781 81.121 8.102 QT
79.512 6.422 79.512 3.281 QT
cp
81.684 3.281 M
81.684 5.672 82.723 6.859 QT
83.762 8.047 85.355 8.047 QT
86.918 8.047 87.965 6.852 QT
89.012 5.656 89.012 3.203 QT
89.012 0.891 87.957 -0.297 QT
86.902 -1.484 85.355 -1.484 QT
83.762 -1.484 82.723 -0.297 QT
81.684 0.891 81.684 3.281 QT
cp
97.109 9.5 M
92.375 -2.953 L
94.594 -2.953 L
97.266 4.5 L
97.703 5.719 98.063 7.016 QT
98.344 6.031 98.844 4.641 QT
101.609 -2.953 L
103.781 -2.953 L
99.078 9.5 L
97.109 9.5 L
cp
113.766 7.969 M
112.594 8.953 111.508 9.367 QT
110.422 9.781 109.188 9.781 QT
107.141 9.781 106.039 8.781 QT
104.938 7.781 104.938 6.219 QT
104.938 5.297 105.352 4.547 QT
105.766 3.797 106.438 3.336 QT
107.109 2.875 107.953 2.641 QT
108.578 2.484 109.828 2.328 QT
112.391 2.016 113.594 1.594 QT
113.609 1.172 113.609 1.047 QT
113.609 -0.234 113 -0.766 QT
112.203 -1.484 110.609 -1.484 QT
109.109 -1.484 108.406 -0.961 QT
107.703 -0.438 107.359 0.891 QT
105.297 0.609 L
105.578 -0.719 106.219 -1.531 QT
106.859 -2.344 108.078 -2.789 QT
109.297 -3.234 110.906 -3.234 QT
112.5 -3.234 113.5 -2.859 QT
114.5 -2.484 114.969 -1.914 QT
115.438 -1.344 115.625 -0.469 QT
115.719 0.063 115.719 1.469 QT
115.719 4.281 L
115.719 7.219 115.859 8 QT
116 8.781 116.391 9.5 QT
114.188 9.5 L
113.859 8.844 113.766 7.969 QT
cp
113.594 3.25 M
112.438 3.719 110.141 4.047 QT
108.844 4.234 108.305 4.469 QT
107.766 4.703 107.477 5.156 QT
107.188 5.609 107.188 6.156 QT
107.188 7 107.82 7.563 QT
108.453 8.125 109.688 8.125 QT
110.906 8.125 111.859 7.594 QT
112.813 7.063 113.25 6.141 QT
113.594 5.422 113.594 4.031 QT
113.594 3.25 L
cp
109.328 -4.5 M
110.875 -7.781 L
113.641 -7.781 L
111.063 -4.5 L
109.328 -4.5 L
cp
124.813 5.781 M
126.906 5.453 L
127.078 6.703 127.883 7.375 QT
128.688 8.047 130.125 8.047 QT
131.578 8.047 132.281 7.453 QT
132.984 6.859 132.984 6.063 QT
132.984 5.344 132.359 4.938 QT
131.938 4.656 130.203 4.219 QT
127.891 3.641 126.992 3.211 QT
126.094 2.781 125.633 2.023 QT
125.172 1.266 125.172 0.359 QT
125.172 -0.469 125.555 -1.18 QT
125.938 -1.891 126.594 -2.359 QT
127.078 -2.719 127.93 -2.977 QT
128.781 -3.234 129.75 -3.234 QT
131.219 -3.234 132.328 -2.813 QT
133.438 -2.391 133.961 -1.664 QT
134.484 -0.938 134.688 0.266 QT
132.625 0.547 L
132.484 -0.422 131.813 -0.961 QT
131.141 -1.5 129.906 -1.5 QT
128.453 -1.5 127.828 -1.016 QT
127.203 -0.531 127.203 0.109 QT
127.203 0.516 127.469 0.844 QT
127.719 1.188 128.281 1.406 QT
128.594 1.531 130.141 1.953 QT
132.375 2.547 133.258 2.93 QT
134.141 3.313 134.648 4.039 QT
135.156 4.766 135.156 5.844 QT
135.156 6.891 134.539 7.828 QT
133.922 8.766 132.766 9.273 QT
131.609 9.781 130.141 9.781 QT
127.719 9.781 126.445 8.773 QT
125.172 7.766 124.813 5.781 QT
cp
138.406 9.5 M
138.406 -2.953 L
140.516 -2.953 L
140.516 9.5 L
138.406 9.5 L
cp
136.344 -4.5 M
137.891 -7.781 L
140.656 -7.781 L
138.078 -4.5 L
136.344 -4.5 L
cp
149.559 -5.516 M
149.559 -7.688 L
151.715 -7.688 L
151.715 -5.516 L
151.715 -4.328 151.293 -3.594 QT
150.871 -2.859 149.949 -2.469 QT
149.434 -3.266 L
150.027 -3.531 150.316 -4.039 QT
150.605 -4.547 150.621 -5.516 QT
149.559 -5.516 L
cp
148.918 7.609 M
149.23 9.469 L
148.34 9.672 147.637 9.672 QT
146.48 9.672 145.848 9.305 QT
145.215 8.938 144.957 8.344 QT
144.699 7.75 144.699 5.859 QT
144.699 -1.313 L
143.152 -1.313 L
143.152 -2.953 L
144.699 -2.953 L
144.699 -6.031 L
146.809 -7.297 L
146.809 -2.953 L
148.918 -2.953 L
148.918 -1.313 L
146.809 -1.313 L
146.809 5.969 L
146.809 6.875 146.918 7.133 QT
147.027 7.391 147.277 7.539 QT
147.527 7.688 147.996 7.688 QT
148.355 7.688 148.918 7.609 QT
cp
f
GR
GS
[0.375 0 0 0.375 0 0] CT
0 0.447 0.741 RC
1 LJ
1.333 LW
N
726 669.5 M
786 669.5 L
S
GR
GS
[0.375 0 0 0.375 297 263.0625] CT
N
1.766 9.5 M
1.766 -7.688 L
4.031 -7.688 L
4.031 0.844 L
12.563 -7.688 L
15.641 -7.688 L
8.438 -0.719 L
15.969 9.5 L
12.969 9.5 L
6.844 0.797 L
4.031 3.547 L
4.031 9.5 L
1.766 9.5 L
cp
16.805 3.281 M
16.805 -0.188 18.727 -1.844 QT
20.336 -3.234 22.648 -3.234 QT
25.211 -3.234 26.836 -1.547 QT
28.461 0.141 28.461 3.094 QT
28.461 5.5 27.742 6.875 QT
27.023 8.25 25.648 9.016 QT
24.273 9.781 22.648 9.781 QT
20.023 9.781 18.414 8.102 QT
16.805 6.422 16.805 3.281 QT
cp
18.977 3.281 M
18.977 5.672 20.016 6.859 QT
21.055 8.047 22.648 8.047 QT
24.211 8.047 25.258 6.852 QT
26.305 5.656 26.305 3.203 QT
26.305 0.891 25.25 -0.297 QT
24.195 -1.484 22.648 -1.484 QT
21.055 -1.484 20.016 -0.297 QT
18.977 0.891 18.977 3.281 QT
cp
30.934 9.5 M
30.934 -2.953 L
32.84 -2.953 L
32.84 -1.172 L
34.215 -3.234 36.793 -3.234 QT
37.918 -3.234 38.863 -2.828 QT
39.809 -2.422 40.277 -1.766 QT
40.746 -1.109 40.934 -0.203 QT
41.059 0.375 41.059 1.844 QT
41.059 9.5 L
38.949 9.5 L
38.949 1.922 L
38.949 0.641 38.699 0 QT
38.449 -0.641 37.824 -1.023 QT
37.199 -1.406 36.355 -1.406 QT
35.012 -1.406 34.027 -0.547 QT
33.043 0.313 33.043 2.703 QT
33.043 9.5 L
30.934 9.5 L
cp
52.813 5.484 M
54.984 5.766 L
54.469 7.672 53.078 8.727 QT
51.688 9.781 49.516 9.781 QT
46.781 9.781 45.18 8.102 QT
43.578 6.422 43.578 3.375 QT
43.578 0.234 45.195 -1.5 QT
46.813 -3.234 49.391 -3.234 QT
51.891 -3.234 53.477 -1.531 QT
55.063 0.172 55.063 3.25 QT
55.063 3.438 55.047 3.813 QT
45.766 3.813 L
45.875 5.859 46.922 6.953 QT
47.969 8.047 49.531 8.047 QT
50.688 8.047 51.508 7.438 QT
52.328 6.828 52.813 5.484 QT
cp
45.875 2.078 M
52.828 2.078 L
52.688 0.516 52.031 -0.281 QT
51.031 -1.5 49.422 -1.5 QT
47.969 -1.5 46.977 -0.523 QT
45.984 0.453 45.875 2.078 QT
cp
65.754 4.938 M
67.832 5.203 L
67.488 7.359 66.09 8.57 QT
64.691 9.781 62.645 9.781 QT
60.098 9.781 58.543 8.109 QT
56.988 6.438 56.988 3.328 QT
56.988 1.313 57.66 -0.203 QT
58.332 -1.719 59.691 -2.477 QT
61.051 -3.234 62.66 -3.234 QT
64.691 -3.234 65.98 -2.203 QT
67.27 -1.172 67.629 0.703 QT
65.582 1.031 L
65.285 -0.234 64.543 -0.867 QT
63.801 -1.5 62.738 -1.5 QT
61.145 -1.5 60.152 -0.352 QT
59.16 0.797 59.16 3.266 QT
59.16 5.766 60.121 6.906 QT
61.082 8.047 62.629 8.047 QT
63.863 8.047 64.699 7.281 QT
65.535 6.516 65.754 4.938 QT
cp
62.254 -5.781 M
63.551 -7.781 L
65.941 -7.781 L
63.301 -4.5 L
61.051 -4.5 L
58.52 -7.781 L
60.941 -7.781 L
62.254 -5.781 L
cp
69.629 9.5 M
69.629 -2.953 L
71.535 -2.953 L
71.535 -1.172 L
72.91 -3.234 75.488 -3.234 QT
76.613 -3.234 77.559 -2.828 QT
78.504 -2.422 78.973 -1.766 QT
79.441 -1.109 79.629 -0.203 QT
79.754 0.375 79.754 1.844 QT
79.754 9.5 L
77.645 9.5 L
77.645 1.922 L
77.645 0.641 77.395 0 QT
77.145 -0.641 76.52 -1.023 QT
75.895 -1.406 75.051 -1.406 QT
73.707 -1.406 72.723 -0.547 QT
71.738 0.313 71.738 2.703 QT
71.738 9.5 L
69.629 9.5 L
cp
82.883 14.297 M
82.648 12.313 L
83.352 12.5 83.867 12.5 QT
84.57 12.5 84.992 12.266 QT
85.414 12.031 85.68 11.609 QT
85.883 11.297 86.32 10.047 QT
86.383 9.859 86.508 9.531 QT
81.789 -2.953 L
84.055 -2.953 L
86.648 4.266 L
87.148 5.625 87.555 7.141 QT
87.914 5.688 88.414 4.313 QT
91.086 -2.953 L
93.195 -2.953 L
88.461 9.719 L
87.695 11.766 87.273 12.531 QT
86.711 13.578 85.984 14.063 QT
85.258 14.547 84.242 14.547 QT
83.633 14.547 82.883 14.297 QT
cp
86.664 -4.5 M
88.211 -7.781 L
90.977 -7.781 L
88.398 -4.5 L
86.664 -4.5 L
cp
109.77 7.969 M
108.598 8.953 107.512 9.367 QT
106.426 9.781 105.191 9.781 QT
103.145 9.781 102.043 8.781 QT
100.941 7.781 100.941 6.219 QT
100.941 5.297 101.355 4.547 QT
101.77 3.797 102.441 3.336 QT
103.113 2.875 103.957 2.641 QT
104.582 2.484 105.832 2.328 QT
108.395 2.016 109.598 1.594 QT
109.613 1.172 109.613 1.047 QT
109.613 -0.234 109.004 -0.766 QT
108.207 -1.484 106.613 -1.484 QT
105.113 -1.484 104.41 -0.961 QT
103.707 -0.438 103.363 0.891 QT
101.301 0.609 L
101.582 -0.719 102.223 -1.531 QT
102.863 -2.344 104.082 -2.789 QT
105.301 -3.234 106.91 -3.234 QT
108.504 -3.234 109.504 -2.859 QT
110.504 -2.484 110.973 -1.914 QT
111.441 -1.344 111.629 -0.469 QT
111.723 0.063 111.723 1.469 QT
111.723 4.281 L
111.723 7.219 111.863 8 QT
112.004 8.781 112.395 9.5 QT
110.191 9.5 L
109.863 8.844 109.77 7.969 QT
cp
109.598 3.25 M
108.441 3.719 106.145 4.047 QT
104.848 4.234 104.309 4.469 QT
103.77 4.703 103.48 5.156 QT
103.191 5.609 103.191 6.156 QT
103.191 7 103.824 7.563 QT
104.457 8.125 105.691 8.125 QT
106.91 8.125 107.863 7.594 QT
108.816 7.063 109.254 6.141 QT
109.598 5.422 109.598 4.031 QT
109.598 3.25 L
cp
123.148 9.5 M
123.148 7.672 L
121.695 9.781 119.211 9.781 QT
118.102 9.781 117.148 9.359 QT
116.195 8.938 115.734 8.297 QT
115.273 7.656 115.086 6.734 QT
114.945 6.109 114.945 4.766 QT
114.945 -2.953 L
117.055 -2.953 L
117.055 3.953 L
117.055 5.609 117.195 6.188 QT
117.383 7.016 118.031 7.492 QT
118.68 7.969 119.633 7.969 QT
120.57 7.969 121.406 7.477 QT
122.242 6.984 122.586 6.148 QT
122.93 5.313 122.93 3.719 QT
122.93 -2.953 L
125.039 -2.953 L
125.039 9.5 L
123.148 9.5 L
cp
132.949 7.609 M
133.262 9.469 L
132.371 9.672 131.668 9.672 QT
130.512 9.672 129.879 9.305 QT
129.246 8.938 128.988 8.344 QT
128.73 7.75 128.73 5.859 QT
128.73 -1.313 L
127.184 -1.313 L
127.184 -2.953 L
128.73 -2.953 L
128.73 -6.031 L
130.824 -7.297 L
130.824 -2.953 L
132.949 -2.953 L
132.949 -1.313 L
130.824 -1.313 L
130.824 5.969 L
130.824 6.875 130.941 7.133 QT
131.059 7.391 131.309 7.539 QT
131.559 7.688 132.027 7.688 QT
132.371 7.688 132.949 7.609 QT
cp
134.227 3.281 M
134.227 -0.188 136.148 -1.844 QT
137.758 -3.234 140.07 -3.234 QT
142.633 -3.234 144.258 -1.547 QT
145.883 0.141 145.883 3.094 QT
145.883 5.5 145.164 6.875 QT
144.445 8.25 143.07 9.016 QT
141.695 9.781 140.07 9.781 QT
137.445 9.781 135.836 8.102 QT
134.227 6.422 134.227 3.281 QT
cp
136.398 3.281 M
136.398 5.672 137.438 6.859 QT
138.477 8.047 140.07 8.047 QT
141.633 8.047 142.68 6.852 QT
143.727 5.656 143.727 3.203 QT
143.727 0.891 142.672 -0.297 QT
141.617 -1.484 140.07 -1.484 QT
138.477 -1.484 137.438 -0.297 QT
136.398 0.891 136.398 3.281 QT
cp
148.355 9.5 M
148.355 -2.953 L
150.246 -2.953 L
150.246 -1.203 L
150.84 -2.109 151.809 -2.672 QT
152.777 -3.234 154.027 -3.234 QT
155.402 -3.234 156.285 -2.656 QT
157.168 -2.078 157.543 -1.047 QT
159.012 -3.234 161.387 -3.234 QT
163.23 -3.234 164.23 -2.203 QT
165.23 -1.172 165.23 0.953 QT
165.23 9.5 L
163.121 9.5 L
163.121 1.656 L
163.121 0.391 162.918 -0.164 QT
162.715 -0.719 162.176 -1.063 QT
161.637 -1.406 160.918 -1.406 QT
159.605 -1.406 158.738 -0.531 QT
157.871 0.344 157.871 2.266 QT
157.871 9.5 L
155.762 9.5 L
155.762 1.406 L
155.762 0 155.246 -0.703 QT
154.73 -1.406 153.559 -1.406 QT
152.668 -1.406 151.91 -0.938 QT
151.152 -0.469 150.809 0.438 QT
150.465 1.344 150.465 3.047 QT
150.465 9.5 L
148.355 9.5 L
cp
176.473 7.969 M
175.301 8.953 174.215 9.367 QT
173.129 9.781 171.895 9.781 QT
169.848 9.781 168.746 8.781 QT
167.645 7.781 167.645 6.219 QT
167.645 5.297 168.059 4.547 QT
168.473 3.797 169.145 3.336 QT
169.816 2.875 170.66 2.641 QT
171.285 2.484 172.535 2.328 QT
175.098 2.016 176.301 1.594 QT
176.316 1.172 176.316 1.047 QT
176.316 -0.234 175.707 -0.766 QT
174.91 -1.484 173.316 -1.484 QT
171.816 -1.484 171.113 -0.961 QT
170.41 -0.438 170.066 0.891 QT
168.004 0.609 L
168.285 -0.719 168.926 -1.531 QT
169.566 -2.344 170.785 -2.789 QT
172.004 -3.234 173.613 -3.234 QT
175.207 -3.234 176.207 -2.859 QT
177.207 -2.484 177.676 -1.914 QT
178.145 -1.344 178.332 -0.469 QT
178.426 0.063 178.426 1.469 QT
178.426 4.281 L
178.426 7.219 178.566 8 QT
178.707 8.781 179.098 9.5 QT
176.895 9.5 L
176.566 8.844 176.473 7.969 QT
cp
176.301 3.25 M
175.145 3.719 172.848 4.047 QT
171.551 4.234 171.012 4.469 QT
170.473 4.703 170.184 5.156 QT
169.895 5.609 169.895 6.156 QT
169.895 7 170.527 7.563 QT
171.16 8.125 172.395 8.125 QT
173.613 8.125 174.566 7.594 QT
175.52 7.063 175.957 6.141 QT
176.301 5.422 176.301 4.031 QT
176.301 3.25 L
cp
186.305 7.609 M
186.617 9.469 L
185.727 9.672 185.023 9.672 QT
183.867 9.672 183.234 9.305 QT
182.602 8.938 182.344 8.344 QT
182.086 7.75 182.086 5.859 QT
182.086 -1.313 L
180.539 -1.313 L
180.539 -2.953 L
182.086 -2.953 L
182.086 -6.031 L
184.18 -7.297 L
184.18 -2.953 L
186.305 -2.953 L
186.305 -1.313 L
184.18 -1.313 L
184.18 5.969 L
184.18 6.875 184.297 7.133 QT
184.414 7.391 184.664 7.539 QT
184.914 7.688 185.383 7.688 QT
185.727 7.688 186.305 7.609 QT
cp
f
GR
GS
[0.375 0 0 0.375 0 0] CT
0.851 0.325 0.098 RC
1 LJ
1.333 LW
N
726 701.5 M
786 701.5 L
S
GR
GS
[0.375 0 0 0.375 0 0] CT
0.149 GC
10.0 ML
1.333 LW
N
718 721 M
718 650 L
987 650 L
987 721 L
cp
S
GR
%%Trailer
%%Pages: 1
%%EOF
