%!PS-Adobe-3.0 EPSF-3.0
%%Creator: (MATLAB, The Mathworks, Inc. Version 9.0.0.341360 \(R2016a\). Operating System: Windows 8)
%%Title: E:/Documents/git/tul_dpdoc_2017-2018/obr/hamming.eps
%%CreationDate: 2018-04-07T09:56:37
%%Pages: (atend)
%%BoundingBox: 0 0 420 315
%%LanguageLevel: 3
%%EndComments
%%BeginProlog
%%BeginResource: procset (Apache XML Graphics Std ProcSet) 1.2 0
%%Version: 1.2 0
%%Copyright: (Copyright 2001-2003,2010 The Apache Software Foundation. License terms: http://www.apache.org/licenses/LICENSE-2.0)
/bd{bind def}bind def
/ld{load def}bd
/GR/grestore ld
/M/moveto ld
/LJ/setlinejoin ld
/C/curveto ld
/f/fill ld
/LW/setlinewidth ld
/GC/setgray ld
/t/show ld
/N/newpath ld
/CT/concat ld
/cp/closepath ld
/S/stroke ld
/L/lineto ld
/CC/setcmykcolor ld
/A/ashow ld
/GS/gsave ld
/RC/setrgbcolor ld
/RM/rmoveto ld
/ML/setmiterlimit ld
/re {4 2 roll M
1 index 0 rlineto
0 exch rlineto
neg 0 rlineto
cp } bd
/_ctm matrix def
/_tm matrix def
/BT { _ctm currentmatrix pop matrix _tm copy pop 0 0 moveto } bd
/ET { _ctm setmatrix } bd
/iTm { _ctm setmatrix _tm concat } bd
/Tm { _tm astore pop iTm 0 0 moveto } bd
/ux 0.0 def
/uy 0.0 def
/F {
  /Tp exch def
  /Tf exch def
  Tf findfont Tp scalefont setfont
  /cf Tf def  /cs Tp def
} bd
/ULS {currentpoint /uy exch def /ux exch def} bd
/ULE {
  /Tcx currentpoint pop def
  gsave
  newpath
  cf findfont cs scalefont dup
  /FontMatrix get 0 get /Ts exch def /FontInfo get dup
  /UnderlinePosition get Ts mul /To exch def
  /UnderlineThickness get Ts mul /Tt exch def
  ux uy To add moveto  Tcx uy To add lineto
  Tt setlinewidth stroke
  grestore
} bd
/OLE {
  /Tcx currentpoint pop def
  gsave
  newpath
  cf findfont cs scalefont dup
  /FontMatrix get 0 get /Ts exch def /FontInfo get dup
  /UnderlinePosition get Ts mul /To exch def
  /UnderlineThickness get Ts mul /Tt exch def
  ux uy To add cs add moveto Tcx uy To add cs add lineto
  Tt setlinewidth stroke
  grestore
} bd
/SOE {
  /Tcx currentpoint pop def
  gsave
  newpath
  cf findfont cs scalefont dup
  /FontMatrix get 0 get /Ts exch def /FontInfo get dup
  /UnderlinePosition get Ts mul /To exch def
  /UnderlineThickness get Ts mul /Tt exch def
  ux uy To add cs 10 mul 26 idiv add moveto Tcx uy To add cs 10 mul 26 idiv add lineto
  Tt setlinewidth stroke
  grestore
} bd
/QT {
/Y22 exch store
/X22 exch store
/Y21 exch store
/X21 exch store
currentpoint
/Y21 load 2 mul add 3 div exch
/X21 load 2 mul add 3 div exch
/X21 load 2 mul /X22 load add 3 div
/Y21 load 2 mul /Y22 load add 3 div
/X22 load /Y22 load curveto
} bd
/SSPD {
dup length /d exch dict def
{
/v exch def
/k exch def
currentpagedevice k known {
/cpdv currentpagedevice k get def
v cpdv ne {
/upd false def
/nullv v type /nulltype eq def
/nullcpdv cpdv type /nulltype eq def
nullv nullcpdv or
{
/upd true def
} {
/sametype v type cpdv type eq def
sametype {
v type /arraytype eq {
/vlen v length def
/cpdvlen cpdv length def
vlen cpdvlen eq {
0 1 vlen 1 sub {
/i exch def
/obj v i get def
/cpdobj cpdv i get def
obj cpdobj ne {
/upd true def
exit
} if
} for
} {
/upd true def
} ifelse
} {
v type /dicttype eq {
v {
/dv exch def
/dk exch def
/cpddv cpdv dk get def
dv cpddv ne {
/upd true def
exit
} if
} forall
} {
/upd true def
} ifelse
} ifelse
} if
} ifelse
upd true eq {
d k v put
} if
} if
} if
} forall
d length 0 gt {
d setpagedevice
} if
} bd
%%EndResource
%%BeginResource: procset (Apache XML Graphics EPS ProcSet) 1.0 0
%%Version: 1.0 0
%%Copyright: (Copyright 2002-2003 The Apache Software Foundation. License terms: http://www.apache.org/licenses/LICENSE-2.0)
/BeginEPSF { %def
/b4_Inc_state save def         % Save state for cleanup
/dict_count countdictstack def % Count objects on dict stack
/op_count count 1 sub def      % Count objects on operand stack
userdict begin                 % Push userdict on dict stack
/showpage { } def              % Redefine showpage, { } = null proc
0 setgray 0 setlinecap         % Prepare graphics state
1 setlinewidth 0 setlinejoin
10 setmiterlimit [ ] 0 setdash newpath
/languagelevel where           % If level not equal to 1 then
{pop languagelevel             % set strokeadjust and
1 ne                           % overprint to their defaults.
{false setstrokeadjust false setoverprint
} if
} if
} bd
/EndEPSF { %def
count op_count sub {pop} repeat            % Clean up stacks
countdictstack dict_count sub {end} repeat
b4_Inc_state restore
} bd
%%EndResource
%FOPBeginFontDict
%%IncludeResource: font Courier-Bold
%%IncludeResource: font Helvetica
%%IncludeResource: font Courier-BoldOblique
%%IncludeResource: font Courier-Oblique
%%IncludeResource: font Times-Roman
%%IncludeResource: font Helvetica-BoldOblique
%%IncludeResource: font Helvetica-Bold
%%IncludeResource: font Helvetica-Oblique
%%IncludeResource: font Times-BoldItalic
%%IncludeResource: font Courier
%%IncludeResource: font Times-Italic
%%IncludeResource: font Times-Bold
%%IncludeResource: font Symbol
%%IncludeResource: font ZapfDingbats
%FOPEndFontDict
%%BeginResource: encoding WinAnsiEncoding
/WinAnsiEncoding [
/.notdef /.notdef /.notdef /.notdef /.notdef
/.notdef /.notdef /.notdef /.notdef /.notdef
/.notdef /.notdef /.notdef /.notdef /.notdef
/.notdef /.notdef /.notdef /.notdef /.notdef
/.notdef /.notdef /.notdef /.notdef /.notdef
/.notdef /.notdef /.notdef /.notdef /.notdef
/.notdef /.notdef /space /exclam /quotedbl
/numbersign /dollar /percent /ampersand /quotesingle
/parenleft /parenright /asterisk /plus /comma
/hyphen /period /slash /zero /one
/two /three /four /five /six
/seven /eight /nine /colon /semicolon
/less /equal /greater /question /at
/A /B /C /D /E
/F /G /H /I /J
/K /L /M /N /O
/P /Q /R /S /T
/U /V /W /X /Y
/Z /bracketleft /backslash /bracketright /asciicircum
/underscore /quoteleft /a /b /c
/d /e /f /g /h
/i /j /k /l /m
/n /o /p /q /r
/s /t /u /v /w
/x /y /z /braceleft /bar
/braceright /asciitilde /bullet /Euro /bullet
/quotesinglbase /florin /quotedblbase /ellipsis /dagger
/daggerdbl /circumflex /perthousand /Scaron /guilsinglleft
/OE /bullet /Zcaron /bullet /bullet
/quoteleft /quoteright /quotedblleft /quotedblright /bullet
/endash /emdash /asciitilde /trademark /scaron
/guilsinglright /oe /bullet /zcaron /Ydieresis
/space /exclamdown /cent /sterling /currency
/yen /brokenbar /section /dieresis /copyright
/ordfeminine /guillemotleft /logicalnot /sfthyphen /registered
/macron /degree /plusminus /twosuperior /threesuperior
/acute /mu /paragraph /middot /cedilla
/onesuperior /ordmasculine /guillemotright /onequarter /onehalf
/threequarters /questiondown /Agrave /Aacute /Acircumflex
/Atilde /Adieresis /Aring /AE /Ccedilla
/Egrave /Eacute /Ecircumflex /Edieresis /Igrave
/Iacute /Icircumflex /Idieresis /Eth /Ntilde
/Ograve /Oacute /Ocircumflex /Otilde /Odieresis
/multiply /Oslash /Ugrave /Uacute /Ucircumflex
/Udieresis /Yacute /Thorn /germandbls /agrave
/aacute /acircumflex /atilde /adieresis /aring
/ae /ccedilla /egrave /eacute /ecircumflex
/edieresis /igrave /iacute /icircumflex /idieresis
/eth /ntilde /ograve /oacute /ocircumflex
/otilde /odieresis /divide /oslash /ugrave
/uacute /ucircumflex /udieresis /yacute /thorn
/ydieresis
] def
%%EndResource
%FOPBeginFontReencode
/Courier-Bold findfont
dup length dict begin
  {1 index /FID ne {def} {pop pop} ifelse} forall
  /Encoding WinAnsiEncoding def
  currentdict
end
/Courier-Bold exch definefont pop
/Helvetica findfont
dup length dict begin
  {1 index /FID ne {def} {pop pop} ifelse} forall
  /Encoding WinAnsiEncoding def
  currentdict
end
/Helvetica exch definefont pop
/Courier-BoldOblique findfont
dup length dict begin
  {1 index /FID ne {def} {pop pop} ifelse} forall
  /Encoding WinAnsiEncoding def
  currentdict
end
/Courier-BoldOblique exch definefont pop
/Courier-Oblique findfont
dup length dict begin
  {1 index /FID ne {def} {pop pop} ifelse} forall
  /Encoding WinAnsiEncoding def
  currentdict
end
/Courier-Oblique exch definefont pop
/Times-Roman findfont
dup length dict begin
  {1 index /FID ne {def} {pop pop} ifelse} forall
  /Encoding WinAnsiEncoding def
  currentdict
end
/Times-Roman exch definefont pop
/Helvetica-BoldOblique findfont
dup length dict begin
  {1 index /FID ne {def} {pop pop} ifelse} forall
  /Encoding WinAnsiEncoding def
  currentdict
end
/Helvetica-BoldOblique exch definefont pop
/Helvetica-Bold findfont
dup length dict begin
  {1 index /FID ne {def} {pop pop} ifelse} forall
  /Encoding WinAnsiEncoding def
  currentdict
end
/Helvetica-Bold exch definefont pop
/Helvetica-Oblique findfont
dup length dict begin
  {1 index /FID ne {def} {pop pop} ifelse} forall
  /Encoding WinAnsiEncoding def
  currentdict
end
/Helvetica-Oblique exch definefont pop
/Times-BoldItalic findfont
dup length dict begin
  {1 index /FID ne {def} {pop pop} ifelse} forall
  /Encoding WinAnsiEncoding def
  currentdict
end
/Times-BoldItalic exch definefont pop
/Courier findfont
dup length dict begin
  {1 index /FID ne {def} {pop pop} ifelse} forall
  /Encoding WinAnsiEncoding def
  currentdict
end
/Courier exch definefont pop
/Times-Italic findfont
dup length dict begin
  {1 index /FID ne {def} {pop pop} ifelse} forall
  /Encoding WinAnsiEncoding def
  currentdict
end
/Times-Italic exch definefont pop
/Times-Bold findfont
dup length dict begin
  {1 index /FID ne {def} {pop pop} ifelse} forall
  /Encoding WinAnsiEncoding def
  currentdict
end
/Times-Bold exch definefont pop
%FOPEndFontReencode
%%EndProlog
%%Page: 1 1
%%PageBoundingBox: 0 0 420 315
%%BeginPageSetup
[1 0 0 -1 0 315] CT
%%EndPageSetup
GS
[0.375 0 0 0.375 0 0] CT
1 GC
N
0 0 1120 840 re
f
GR
GS
[0.375 0 0 0.375 0 0] CT
1 GC
N
0 0 1120 840 re
f
GR
GS
[0.375 0 0 0.375 0 0] CT
1 GC
N
146 748 M
1014 748 L
1014 63 L
146 63 L
cp
f
GR
GS
[0.375 0 0 0.375 0 0] CT
0.149 GC
2 setlinecap
1 LJ
1.333 LW
N
146 748 M
1014 748 L
S
GR
GS
[0.375 0 0 0.375 0 0] CT
0.149 GC
2 setlinecap
1 LJ
1.333 LW
N
146 63 M
1014 63 L
S
GR
GS
[0.375 0 0 0.375 0 0] CT
0.149 GC
2 setlinecap
1 LJ
1.333 LW
N
146 748 M
146 739.32 L
S
GR
GS
[0.375 0 0 0.375 0 0] CT
0.149 GC
2 setlinecap
1 LJ
1.333 LW
N
254.5 748 M
254.5 739.32 L
S
GR
GS
[0.375 0 0 0.375 0 0] CT
0.149 GC
2 setlinecap
1 LJ
1.333 LW
N
363 748 M
363 739.32 L
S
GR
GS
[0.375 0 0 0.375 0 0] CT
0.149 GC
2 setlinecap
1 LJ
1.333 LW
N
471.5 748 M
471.5 739.32 L
S
GR
GS
[0.375 0 0 0.375 0 0] CT
0.149 GC
2 setlinecap
1 LJ
1.333 LW
N
580 748 M
580 739.32 L
S
GR
GS
[0.375 0 0 0.375 0 0] CT
0.149 GC
2 setlinecap
1 LJ
1.333 LW
N
688.5 748 M
688.5 739.32 L
S
GR
GS
[0.375 0 0 0.375 0 0] CT
0.149 GC
2 setlinecap
1 LJ
1.333 LW
N
797 748 M
797 739.32 L
S
GR
GS
[0.375 0 0 0.375 0 0] CT
0.149 GC
2 setlinecap
1 LJ
1.333 LW
N
905.5 748 M
905.5 739.32 L
S
GR
GS
[0.375 0 0 0.375 0 0] CT
0.149 GC
2 setlinecap
1 LJ
1.333 LW
N
1014 748 M
1014 739.32 L
S
GR
GS
[0.375 0 0 0.375 0 0] CT
0.149 GC
2 setlinecap
1 LJ
1.333 LW
N
146 63 M
146 71.68 L
S
GR
GS
[0.375 0 0 0.375 0 0] CT
0.149 GC
2 setlinecap
1 LJ
1.333 LW
N
254.5 63 M
254.5 71.68 L
S
GR
GS
[0.375 0 0 0.375 0 0] CT
0.149 GC
2 setlinecap
1 LJ
1.333 LW
N
363 63 M
363 71.68 L
S
GR
GS
[0.375 0 0 0.375 0 0] CT
0.149 GC
2 setlinecap
1 LJ
1.333 LW
N
471.5 63 M
471.5 71.68 L
S
GR
GS
[0.375 0 0 0.375 0 0] CT
0.149 GC
2 setlinecap
1 LJ
1.333 LW
N
580 63 M
580 71.68 L
S
GR
GS
[0.375 0 0 0.375 0 0] CT
0.149 GC
2 setlinecap
1 LJ
1.333 LW
N
688.5 63 M
688.5 71.68 L
S
GR
GS
[0.375 0 0 0.375 0 0] CT
0.149 GC
2 setlinecap
1 LJ
1.333 LW
N
797 63 M
797 71.68 L
S
GR
GS
[0.375 0 0 0.375 0 0] CT
0.149 GC
2 setlinecap
1 LJ
1.333 LW
N
905.5 63 M
905.5 71.68 L
S
GR
GS
[0.375 0 0 0.375 0 0] CT
0.149 GC
2 setlinecap
1 LJ
1.333 LW
N
1014 63 M
1014 71.68 L
S
GR
GS
[0.375 0 0 0.375 54.75 284.50001] CT
0.149 GC
/Helvetica 26.667 F
GS
[1 0 0 1 0 0] CT
-8 28 moveto 
1 -1 scale
(0) t 
GR
GR
GS
[0.375 0 0 0.375 95.4375 284.50001] CT
0.149 GC
/Helvetica 26.667 F
GS
[1 0 0 1 0 0] CT
-15.5 28 moveto 
1 -1 scale
(50) t 
GR
GR
GS
[0.375 0 0 0.375 136.125 284.50001] CT
0.149 GC
/Helvetica 26.667 F
GS
[1 0 0 1 0 0] CT
-23 28 moveto 
1 -1 scale
(100) t 
GR
GR
GS
[0.375 0 0 0.375 176.8125 284.50001] CT
0.149 GC
/Helvetica 26.667 F
GS
[1 0 0 1 0 0] CT
-23 28 moveto 
1 -1 scale
(150) t 
GR
GR
GS
[0.375 0 0 0.375 217.5 284.50001] CT
0.149 GC
/Helvetica 26.667 F
GS
[1 0 0 1 0 0] CT
-23 28 moveto 
1 -1 scale
(200) t 
GR
GR
GS
[0.375 0 0 0.375 258.1875 284.50001] CT
0.149 GC
/Helvetica 26.667 F
GS
[1 0 0 1 0 0] CT
-23 28 moveto 
1 -1 scale
(250) t 
GR
GR
GS
[0.375 0 0 0.375 298.875 284.50001] CT
0.149 GC
/Helvetica 26.667 F
GS
[1 0 0 1 0 0] CT
-23 28 moveto 
1 -1 scale
(300) t 
GR
GR
GS
[0.375 0 0 0.375 339.5625 284.50001] CT
0.149 GC
/Helvetica 26.667 F
GS
[1 0 0 1 0 0] CT
-23 28 moveto 
1 -1 scale
(350) t 
GR
GR
GS
[0.375 0 0 0.375 380.25 284.50001] CT
0.149 GC
/Helvetica 26.667 F
GS
[1 0 0 1 0 0] CT
-23 28 moveto 
1 -1 scale
(400) t 
GR
GR
GS
[0.375 0 0 0.375 217.50016 298.24999] CT
0.149 GC
/Helvetica 29.333 F
GS
[1 0 0 1 0 0] CT
-59 30 moveto 
1 -1 scale
(vzorky [-]) t 
GR
GR
GS
[0.375 0 0 0.375 0 0] CT
0.149 GC
2 setlinecap
1 LJ
1.333 LW
N
146 748 M
146 63 L
S
GR
GS
[0.375 0 0 0.375 0 0] CT
0.149 GC
2 setlinecap
1 LJ
1.333 LW
N
1014 748 M
1014 63 L
S
GR
GS
[0.375 0 0 0.375 0 0] CT
0.149 GC
2 setlinecap
1 LJ
1.333 LW
N
146 748 M
154.68 748 L
S
GR
GS
[0.375 0 0 0.375 0 0] CT
0.149 GC
2 setlinecap
1 LJ
1.333 LW
N
146 679.5 M
154.68 679.5 L
S
GR
GS
[0.375 0 0 0.375 0 0] CT
0.149 GC
2 setlinecap
1 LJ
1.333 LW
N
146 611 M
154.68 611 L
S
GR
GS
[0.375 0 0 0.375 0 0] CT
0.149 GC
2 setlinecap
1 LJ
1.333 LW
N
146 542.5 M
154.68 542.5 L
S
GR
GS
[0.375 0 0 0.375 0 0] CT
0.149 GC
2 setlinecap
1 LJ
1.333 LW
N
146 474 M
154.68 474 L
S
GR
GS
[0.375 0 0 0.375 0 0] CT
0.149 GC
2 setlinecap
1 LJ
1.333 LW
N
146 405.5 M
154.68 405.5 L
S
GR
GS
[0.375 0 0 0.375 0 0] CT
0.149 GC
2 setlinecap
1 LJ
1.333 LW
N
146 337 M
154.68 337 L
S
GR
GS
[0.375 0 0 0.375 0 0] CT
0.149 GC
2 setlinecap
1 LJ
1.333 LW
N
146 268.5 M
154.68 268.5 L
S
GR
GS
[0.375 0 0 0.375 0 0] CT
0.149 GC
2 setlinecap
1 LJ
1.333 LW
N
146 200 M
154.68 200 L
S
GR
GS
[0.375 0 0 0.375 0 0] CT
0.149 GC
2 setlinecap
1 LJ
1.333 LW
N
146 131.5 M
154.68 131.5 L
S
GR
GS
[0.375 0 0 0.375 0 0] CT
0.149 GC
2 setlinecap
1 LJ
1.333 LW
N
146 63 M
154.68 63 L
S
GR
GS
[0.375 0 0 0.375 0 0] CT
0.149 GC
2 setlinecap
1 LJ
1.333 LW
N
1014 748 M
1005.32 748 L
S
GR
GS
[0.375 0 0 0.375 0 0] CT
0.149 GC
2 setlinecap
1 LJ
1.333 LW
N
1014 679.5 M
1005.32 679.5 L
S
GR
GS
[0.375 0 0 0.375 0 0] CT
0.149 GC
2 setlinecap
1 LJ
1.333 LW
N
1014 611 M
1005.32 611 L
S
GR
GS
[0.375 0 0 0.375 0 0] CT
0.149 GC
2 setlinecap
1 LJ
1.333 LW
N
1014 542.5 M
1005.32 542.5 L
S
GR
GS
[0.375 0 0 0.375 0 0] CT
0.149 GC
2 setlinecap
1 LJ
1.333 LW
N
1014 474 M
1005.32 474 L
S
GR
GS
[0.375 0 0 0.375 0 0] CT
0.149 GC
2 setlinecap
1 LJ
1.333 LW
N
1014 405.5 M
1005.32 405.5 L
S
GR
GS
[0.375 0 0 0.375 0 0] CT
0.149 GC
2 setlinecap
1 LJ
1.333 LW
N
1014 337 M
1005.32 337 L
S
GR
GS
[0.375 0 0 0.375 0 0] CT
0.149 GC
2 setlinecap
1 LJ
1.333 LW
N
1014 268.5 M
1005.32 268.5 L
S
GR
GS
[0.375 0 0 0.375 0 0] CT
0.149 GC
2 setlinecap
1 LJ
1.333 LW
N
1014 200 M
1005.32 200 L
S
GR
GS
[0.375 0 0 0.375 0 0] CT
0.149 GC
2 setlinecap
1 LJ
1.333 LW
N
1014 131.5 M
1005.32 131.5 L
S
GR
GS
[0.375 0 0 0.375 0 0] CT
0.149 GC
2 setlinecap
1 LJ
1.333 LW
N
1014 63 M
1005.32 63 L
S
GR
GS
[0.375 0 0 0.375 50.75 280.5] CT
0.149 GC
/Helvetica 26.667 F
GS
[1 0 0 1 0 0] CT
-16 11 moveto 
1 -1 scale
(0) t 
GR
GR
GS
[0.375 0 0 0.375 50.75 254.8125] CT
0.149 GC
/Helvetica 26.667 F
GS
[1 0 0 1 0 0] CT
-38 11 moveto 
1 -1 scale
(0.1) t 
GR
GR
GS
[0.375 0 0 0.375 50.75 229.125] CT
0.149 GC
/Helvetica 26.667 F
GS
[1 0 0 1 0 0] CT
-38 11 moveto 
1 -1 scale
(0.2) t 
GR
GR
GS
[0.375 0 0 0.375 50.75 203.4375] CT
0.149 GC
/Helvetica 26.667 F
GS
[1 0 0 1 0 0] CT
-38 11 moveto 
1 -1 scale
(0.3) t 
GR
GR
GS
[0.375 0 0 0.375 50.75 177.75] CT
0.149 GC
/Helvetica 26.667 F
GS
[1 0 0 1 0 0] CT
-38 11 moveto 
1 -1 scale
(0.4) t 
GR
GR
GS
[0.375 0 0 0.375 50.75 152.0625] CT
0.149 GC
/Helvetica 26.667 F
GS
[1 0 0 1 0 0] CT
-38 11 moveto 
1 -1 scale
(0.5) t 
GR
GR
GS
[0.375 0 0 0.375 50.75 126.37499] CT
0.149 GC
/Helvetica 26.667 F
GS
[1 0 0 1 0 0] CT
-38 11 moveto 
1 -1 scale
(0.6) t 
GR
GR
GS
[0.375 0 0 0.375 50.75 100.6875] CT
0.149 GC
/Helvetica 26.667 F
GS
[1 0 0 1 0 0] CT
-38 11 moveto 
1 -1 scale
(0.7) t 
GR
GR
GS
[0.375 0 0 0.375 50.75 74.99999] CT
0.149 GC
/Helvetica 26.667 F
GS
[1 0 0 1 0 0] CT
-38 11 moveto 
1 -1 scale
(0.8) t 
GR
GR
GS
[0.375 0 0 0.375 50.75 49.31251] CT
0.149 GC
/Helvetica 26.667 F
GS
[1 0 0 1 0 0] CT
-38 11 moveto 
1 -1 scale
(0.9) t 
GR
GR
GS
[0.375 0 0 0.375 50.75 23.625] CT
0.149 GC
/Helvetica 26.667 F
GS
[1 0 0 1 0 0] CT
-16 11 moveto 
1 -1 scale
(1) t 
GR
GR
GS
[0 -0.375 0.375 0 33.5 152.06237] CT
0.149 GC
/Helvetica 29.333 F
GS
[1 0 0 1 0 0] CT
-81.5 -7 moveto 
1 -1 scale
(Amplituda [-]) t 
GR
GR
GS
[0.375 0 0 0.375 0 0] CT
0 0.447 0.741 RC
1 LJ
1.333 LW
N
148.17 693.2 M
150.34 693.161 L
152.51 693.044 L
154.68 692.848 L
156.85 692.575 L
159.02 692.224 L
161.19 691.795 L
163.36 691.288 L
165.53 690.703 L
167.7 690.041 L
169.87 689.301 L
172.04 688.484 L
174.21 687.591 L
176.38 686.62 L
178.55 685.573 L
180.72 684.45 L
182.89 683.251 L
185.06 681.976 L
187.23 680.626 L
189.4 679.201 L
191.57 677.701 L
193.74 676.127 L
195.91 674.479 L
198.08 672.757 L
200.25 670.963 L
202.42 669.096 L
204.59 667.156 L
206.76 665.145 L
208.93 663.063 L
211.1 660.91 L
213.27 658.687 L
215.44 656.394 L
217.61 654.033 L
219.78 651.603 L
221.95 649.105 L
224.12 646.54 L
226.29 643.908 L
228.46 641.211 L
230.63 638.448 L
232.8 635.62 L
234.97 632.729 L
237.14 629.775 L
239.31 626.758 L
241.48 623.68 L
243.65 620.54 L
245.82 617.341 L
247.99 614.082 L
250.16 610.765 L
252.33 607.39 L
254.5 603.958 L
256.67 600.47 L
258.84 596.927 L
261.01 593.33 L
263.18 589.68 L
265.35 585.976 L
267.52 582.222 L
269.69 578.417 L
271.86 574.562 L
274.03 570.658 L
276.2 566.707 L
278.37 562.708 L
280.54 558.665 L
282.71 554.576 L
284.88 550.443 L
287.05 546.268 L
289.22 542.051 L
291.39 537.794 L
293.56 533.497 L
295.73 529.161 L
297.9 524.788 L
300.07 520.378 L
302.24 515.933 L
304.41 511.454 L
306.58 506.942 L
308.75 502.398 L
310.92 497.823 L
313.09 493.219 L
315.26 488.586 L
317.43 483.925 L
319.6 479.239 L
321.77 474.527 L
323.94 469.791 L
326.11 465.033 L
328.28 460.253 L
330.45 455.452 L
332.62 450.633 L
334.79 445.795 L
336.96 440.941 L
339.13 436.071 L
341.3 431.187 L
343.47 426.289 L
345.64 421.38 L
347.81 416.46 L
349.98 411.53 L
352.15 406.592 L
354.32 401.647 L
356.49 396.697 L
358.66 391.741 L
360.83 386.782 L
363 381.821 L
365.17 376.86 L
367.34 371.898 L
369.51 366.938 L
371.68 361.981 L
373.85 357.027 L
376.02 352.079 L
378.19 347.138 L
380.36 342.204 L
382.53 337.279 L
384.7 332.364 L
386.87 327.46 L
389.04 322.569 L
391.21 317.692 L
393.38 312.83 L
395.55 307.984 L
397.72 303.155 L
399.89 298.345 L
402.06 293.555 L
404.23 288.785 L
406.4 284.038 L
408.57 279.314 L
410.74 274.615 L
412.91 269.941 L
415.08 265.294 L
417.25 260.675 L
419.42 256.085 L
421.59 251.526 L
423.76 246.998 L
425.93 242.502 L
428.1 238.04 L
430.27 233.613 L
432.44 229.221 L
434.61 224.867 L
436.78 220.55 L
438.95 216.273 L
441.12 212.035 L
443.29 207.839 L
445.46 203.685 L
447.63 199.574 L
449.8 195.508 L
451.97 191.487 L
454.14 187.512 L
456.31 183.584 L
458.48 179.705 L
460.65 175.875 L
462.82 172.095 L
464.99 168.366 L
467.16 164.689 L
469.33 161.065 L
471.5 157.494 L
473.67 153.979 L
475.84 150.519 L
478.01 147.115 L
480.18 143.769 L
482.35 140.481 L
484.52 137.252 L
486.69 134.082 L
488.86 130.973 L
491.03 127.926 L
493.2 124.94 L
495.37 122.017 L
497.54 119.158 L
499.71 116.363 L
501.88 113.632 L
504.05 110.968 L
506.22 108.369 L
508.39 105.838 L
510.56 103.374 L
512.73 100.978 L
514.9 98.651 L
517.07 96.393 L
519.24 94.205 L
521.41 92.087 L
523.58 90.04 L
525.75 88.065 L
527.92 86.162 L
530.09 84.331 L
532.26 82.573 L
534.43 80.888 L
536.6 79.277 L
538.77 77.74 L
540.94 76.277 L
543.11 74.889 L
545.28 73.577 L
547.45 72.34 L
549.62 71.179 L
551.79 70.094 L
553.96 69.085 L
556.13 68.153 L
558.3 67.298 L
560.47 66.519 L
562.64 65.819 L
564.81 65.195 L
566.98 64.649 L
569.15 64.181 L
571.32 63.791 L
573.49 63.478 L
575.66 63.244 L
577.83 63.088 L
580 63.01 L
582.17 63.01 L
584.34 63.088 L
586.51 63.244 L
588.68 63.478 L
590.85 63.791 L
593.02 64.181 L
595.19 64.649 L
597.36 65.195 L
599.53 65.819 L
601.7 66.519 L
603.87 67.298 L
606.04 68.153 L
608.21 69.085 L
610.38 70.094 L
612.55 71.179 L
614.72 72.34 L
616.89 73.577 L
619.06 74.889 L
621.23 76.277 L
623.4 77.74 L
625.57 79.277 L
627.74 80.888 L
629.91 82.573 L
632.08 84.331 L
634.25 86.162 L
636.42 88.065 L
638.59 90.04 L
640.76 92.087 L
642.93 94.205 L
645.1 96.393 L
647.27 98.651 L
649.44 100.978 L
651.61 103.374 L
653.78 105.838 L
655.95 108.369 L
658.12 110.968 L
660.29 113.632 L
662.46 116.363 L
664.63 119.158 L
666.8 122.017 L
668.97 124.94 L
671.14 127.926 L
673.31 130.973 L
675.48 134.082 L
677.65 137.252 L
679.82 140.481 L
681.99 143.769 L
684.16 147.115 L
686.33 150.519 L
688.5 153.979 L
690.67 157.494 L
692.84 161.065 L
695.01 164.689 L
697.18 168.366 L
699.35 172.095 L
701.52 175.875 L
703.69 179.705 L
705.86 183.584 L
708.03 187.512 L
710.2 191.487 L
712.37 195.508 L
714.54 199.574 L
716.71 203.685 L
718.88 207.839 L
721.05 212.035 L
723.22 216.273 L
725.39 220.55 L
727.56 224.867 L
729.73 229.221 L
731.9 233.613 L
734.07 238.04 L
736.24 242.502 L
738.41 246.998 L
740.58 251.526 L
742.75 256.085 L
744.92 260.675 L
747.09 265.294 L
749.26 269.941 L
751.43 274.615 L
753.6 279.314 L
755.77 284.038 L
757.94 288.785 L
760.11 293.555 L
762.28 298.345 L
764.45 303.155 L
766.62 307.984 L
768.79 312.83 L
770.96 317.692 L
773.13 322.569 L
775.3 327.46 L
777.47 332.364 L
779.64 337.279 L
781.81 342.204 L
783.98 347.138 L
786.15 352.079 L
788.32 357.027 L
790.49 361.981 L
792.66 366.938 L
794.83 371.898 L
797 376.86 L
799.17 381.821 L
801.34 386.782 L
803.51 391.741 L
805.68 396.697 L
807.85 401.647 L
810.02 406.592 L
812.19 411.53 L
814.36 416.46 L
816.53 421.38 L
818.7 426.289 L
820.87 431.187 L
823.04 436.071 L
825.21 440.941 L
827.38 445.795 L
829.55 450.633 L
831.72 455.452 L
833.89 460.253 L
836.06 465.033 L
838.23 469.791 L
840.4 474.527 L
842.57 479.239 L
844.74 483.925 L
846.91 488.586 L
849.08 493.219 L
851.25 497.823 L
853.42 502.398 L
855.59 506.942 L
857.76 511.454 L
859.93 515.933 L
862.1 520.378 L
864.27 524.788 L
866.44 529.161 L
868.61 533.497 L
870.78 537.794 L
872.95 542.051 L
875.12 546.268 L
877.29 550.443 L
879.46 554.576 L
881.63 558.665 L
883.8 562.708 L
885.97 566.707 L
888.14 570.658 L
890.31 574.562 L
892.48 578.417 L
894.65 582.222 L
896.82 585.976 L
898.99 589.68 L
901.16 593.33 L
903.33 596.927 L
905.5 600.47 L
907.67 603.958 L
909.84 607.39 L
912.01 610.765 L
914.18 614.082 L
916.35 617.341 L
918.52 620.54 L
920.69 623.68 L
922.86 626.758 L
925.03 629.775 L
927.2 632.729 L
929.37 635.62 L
931.54 638.448 L
933.71 641.211 L
935.88 643.908 L
938.05 646.54 L
940.22 649.105 L
942.39 651.603 L
944.56 654.033 L
946.73 656.394 L
948.9 658.687 L
951.07 660.91 L
953.24 663.063 L
955.41 665.145 L
957.58 667.156 L
959.75 669.096 L
961.92 670.963 L
964.09 672.757 L
966.26 674.479 L
968.43 676.127 L
970.6 677.701 L
972.77 679.201 L
974.94 680.626 L
977.11 681.976 L
979.28 683.251 L
981.45 684.45 L
983.62 685.573 L
985.79 686.62 L
987.96 687.591 L
990.13 688.484 L
992.3 689.301 L
994.47 690.041 L
996.64 690.703 L
998.81 691.288 L
1000.98 691.795 L
1003.15 692.224 L
1005.32 692.575 L
1007.49 692.848 L
1009.66 693.044 L
1011.83 693.161 L
1014 693.2 L
S
GR
%%Trailer
%%Pages: 1
%%EOF
