%!PS-Adobe-3.0 EPSF-3.0
%%Creator: (MATLAB, The Mathworks, Inc. Version 9.0.0.341360 \(R2016a\). Operating System: Windows 8)
%%Title: E:/Documents/git/tul_dpdoc_2017-2018/obr/hz2mel.eps
%%CreationDate: 2018-04-07T09:48:23
%%Pages: (atend)
%%BoundingBox: 0 0 420 315
%%LanguageLevel: 3
%%EndComments
%%BeginProlog
%%BeginResource: procset (Apache XML Graphics Std ProcSet) 1.2 0
%%Version: 1.2 0
%%Copyright: (Copyright 2001-2003,2010 The Apache Software Foundation. License terms: http://www.apache.org/licenses/LICENSE-2.0)
/bd{bind def}bind def
/ld{load def}bd
/GR/grestore ld
/M/moveto ld
/LJ/setlinejoin ld
/C/curveto ld
/f/fill ld
/LW/setlinewidth ld
/GC/setgray ld
/t/show ld
/N/newpath ld
/CT/concat ld
/cp/closepath ld
/S/stroke ld
/L/lineto ld
/CC/setcmykcolor ld
/A/ashow ld
/GS/gsave ld
/RC/setrgbcolor ld
/RM/rmoveto ld
/ML/setmiterlimit ld
/re {4 2 roll M
1 index 0 rlineto
0 exch rlineto
neg 0 rlineto
cp } bd
/_ctm matrix def
/_tm matrix def
/BT { _ctm currentmatrix pop matrix _tm copy pop 0 0 moveto } bd
/ET { _ctm setmatrix } bd
/iTm { _ctm setmatrix _tm concat } bd
/Tm { _tm astore pop iTm 0 0 moveto } bd
/ux 0.0 def
/uy 0.0 def
/F {
  /Tp exch def
  /Tf exch def
  Tf findfont Tp scalefont setfont
  /cf Tf def  /cs Tp def
} bd
/ULS {currentpoint /uy exch def /ux exch def} bd
/ULE {
  /Tcx currentpoint pop def
  gsave
  newpath
  cf findfont cs scalefont dup
  /FontMatrix get 0 get /Ts exch def /FontInfo get dup
  /UnderlinePosition get Ts mul /To exch def
  /UnderlineThickness get Ts mul /Tt exch def
  ux uy To add moveto  Tcx uy To add lineto
  Tt setlinewidth stroke
  grestore
} bd
/OLE {
  /Tcx currentpoint pop def
  gsave
  newpath
  cf findfont cs scalefont dup
  /FontMatrix get 0 get /Ts exch def /FontInfo get dup
  /UnderlinePosition get Ts mul /To exch def
  /UnderlineThickness get Ts mul /Tt exch def
  ux uy To add cs add moveto Tcx uy To add cs add lineto
  Tt setlinewidth stroke
  grestore
} bd
/SOE {
  /Tcx currentpoint pop def
  gsave
  newpath
  cf findfont cs scalefont dup
  /FontMatrix get 0 get /Ts exch def /FontInfo get dup
  /UnderlinePosition get Ts mul /To exch def
  /UnderlineThickness get Ts mul /Tt exch def
  ux uy To add cs 10 mul 26 idiv add moveto Tcx uy To add cs 10 mul 26 idiv add lineto
  Tt setlinewidth stroke
  grestore
} bd
/QT {
/Y22 exch store
/X22 exch store
/Y21 exch store
/X21 exch store
currentpoint
/Y21 load 2 mul add 3 div exch
/X21 load 2 mul add 3 div exch
/X21 load 2 mul /X22 load add 3 div
/Y21 load 2 mul /Y22 load add 3 div
/X22 load /Y22 load curveto
} bd
/SSPD {
dup length /d exch dict def
{
/v exch def
/k exch def
currentpagedevice k known {
/cpdv currentpagedevice k get def
v cpdv ne {
/upd false def
/nullv v type /nulltype eq def
/nullcpdv cpdv type /nulltype eq def
nullv nullcpdv or
{
/upd true def
} {
/sametype v type cpdv type eq def
sametype {
v type /arraytype eq {
/vlen v length def
/cpdvlen cpdv length def
vlen cpdvlen eq {
0 1 vlen 1 sub {
/i exch def
/obj v i get def
/cpdobj cpdv i get def
obj cpdobj ne {
/upd true def
exit
} if
} for
} {
/upd true def
} ifelse
} {
v type /dicttype eq {
v {
/dv exch def
/dk exch def
/cpddv cpdv dk get def
dv cpddv ne {
/upd true def
exit
} if
} forall
} {
/upd true def
} ifelse
} ifelse
} if
} ifelse
upd true eq {
d k v put
} if
} if
} if
} forall
d length 0 gt {
d setpagedevice
} if
} bd
%%EndResource
%%BeginResource: procset (Apache XML Graphics EPS ProcSet) 1.0 0
%%Version: 1.0 0
%%Copyright: (Copyright 2002-2003 The Apache Software Foundation. License terms: http://www.apache.org/licenses/LICENSE-2.0)
/BeginEPSF { %def
/b4_Inc_state save def         % Save state for cleanup
/dict_count countdictstack def % Count objects on dict stack
/op_count count 1 sub def      % Count objects on operand stack
userdict begin                 % Push userdict on dict stack
/showpage { } def              % Redefine showpage, { } = null proc
0 setgray 0 setlinecap         % Prepare graphics state
1 setlinewidth 0 setlinejoin
10 setmiterlimit [ ] 0 setdash newpath
/languagelevel where           % If level not equal to 1 then
{pop languagelevel             % set strokeadjust and
1 ne                           % overprint to their defaults.
{false setstrokeadjust false setoverprint
} if
} if
} bd
/EndEPSF { %def
count op_count sub {pop} repeat            % Clean up stacks
countdictstack dict_count sub {end} repeat
b4_Inc_state restore
} bd
%%EndResource
%FOPBeginFontDict
%%IncludeResource: font Courier-Bold
%%IncludeResource: font Helvetica
%%IncludeResource: font Courier-BoldOblique
%%IncludeResource: font Courier-Oblique
%%IncludeResource: font Times-Roman
%%IncludeResource: font Helvetica-BoldOblique
%%IncludeResource: font Helvetica-Bold
%%IncludeResource: font Helvetica-Oblique
%%IncludeResource: font Times-BoldItalic
%%IncludeResource: font Courier
%%IncludeResource: font Times-Italic
%%IncludeResource: font Times-Bold
%%IncludeResource: font Symbol
%%IncludeResource: font ZapfDingbats
%FOPEndFontDict
%%BeginResource: encoding WinAnsiEncoding
/WinAnsiEncoding [
/.notdef /.notdef /.notdef /.notdef /.notdef
/.notdef /.notdef /.notdef /.notdef /.notdef
/.notdef /.notdef /.notdef /.notdef /.notdef
/.notdef /.notdef /.notdef /.notdef /.notdef
/.notdef /.notdef /.notdef /.notdef /.notdef
/.notdef /.notdef /.notdef /.notdef /.notdef
/.notdef /.notdef /space /exclam /quotedbl
/numbersign /dollar /percent /ampersand /quotesingle
/parenleft /parenright /asterisk /plus /comma
/hyphen /period /slash /zero /one
/two /three /four /five /six
/seven /eight /nine /colon /semicolon
/less /equal /greater /question /at
/A /B /C /D /E
/F /G /H /I /J
/K /L /M /N /O
/P /Q /R /S /T
/U /V /W /X /Y
/Z /bracketleft /backslash /bracketright /asciicircum
/underscore /quoteleft /a /b /c
/d /e /f /g /h
/i /j /k /l /m
/n /o /p /q /r
/s /t /u /v /w
/x /y /z /braceleft /bar
/braceright /asciitilde /bullet /Euro /bullet
/quotesinglbase /florin /quotedblbase /ellipsis /dagger
/daggerdbl /circumflex /perthousand /Scaron /guilsinglleft
/OE /bullet /Zcaron /bullet /bullet
/quoteleft /quoteright /quotedblleft /quotedblright /bullet
/endash /emdash /asciitilde /trademark /scaron
/guilsinglright /oe /bullet /zcaron /Ydieresis
/space /exclamdown /cent /sterling /currency
/yen /brokenbar /section /dieresis /copyright
/ordfeminine /guillemotleft /logicalnot /sfthyphen /registered
/macron /degree /plusminus /twosuperior /threesuperior
/acute /mu /paragraph /middot /cedilla
/onesuperior /ordmasculine /guillemotright /onequarter /onehalf
/threequarters /questiondown /Agrave /Aacute /Acircumflex
/Atilde /Adieresis /Aring /AE /Ccedilla
/Egrave /Eacute /Ecircumflex /Edieresis /Igrave
/Iacute /Icircumflex /Idieresis /Eth /Ntilde
/Ograve /Oacute /Ocircumflex /Otilde /Odieresis
/multiply /Oslash /Ugrave /Uacute /Ucircumflex
/Udieresis /Yacute /Thorn /germandbls /agrave
/aacute /acircumflex /atilde /adieresis /aring
/ae /ccedilla /egrave /eacute /ecircumflex
/edieresis /igrave /iacute /icircumflex /idieresis
/eth /ntilde /ograve /oacute /ocircumflex
/otilde /odieresis /divide /oslash /ugrave
/uacute /ucircumflex /udieresis /yacute /thorn
/ydieresis
] def
%%EndResource
%FOPBeginFontReencode
/Courier-Bold findfont
dup length dict begin
  {1 index /FID ne {def} {pop pop} ifelse} forall
  /Encoding WinAnsiEncoding def
  currentdict
end
/Courier-Bold exch definefont pop
/Helvetica findfont
dup length dict begin
  {1 index /FID ne {def} {pop pop} ifelse} forall
  /Encoding WinAnsiEncoding def
  currentdict
end
/Helvetica exch definefont pop
/Courier-BoldOblique findfont
dup length dict begin
  {1 index /FID ne {def} {pop pop} ifelse} forall
  /Encoding WinAnsiEncoding def
  currentdict
end
/Courier-BoldOblique exch definefont pop
/Courier-Oblique findfont
dup length dict begin
  {1 index /FID ne {def} {pop pop} ifelse} forall
  /Encoding WinAnsiEncoding def
  currentdict
end
/Courier-Oblique exch definefont pop
/Times-Roman findfont
dup length dict begin
  {1 index /FID ne {def} {pop pop} ifelse} forall
  /Encoding WinAnsiEncoding def
  currentdict
end
/Times-Roman exch definefont pop
/Helvetica-BoldOblique findfont
dup length dict begin
  {1 index /FID ne {def} {pop pop} ifelse} forall
  /Encoding WinAnsiEncoding def
  currentdict
end
/Helvetica-BoldOblique exch definefont pop
/Helvetica-Bold findfont
dup length dict begin
  {1 index /FID ne {def} {pop pop} ifelse} forall
  /Encoding WinAnsiEncoding def
  currentdict
end
/Helvetica-Bold exch definefont pop
/Helvetica-Oblique findfont
dup length dict begin
  {1 index /FID ne {def} {pop pop} ifelse} forall
  /Encoding WinAnsiEncoding def
  currentdict
end
/Helvetica-Oblique exch definefont pop
/Times-BoldItalic findfont
dup length dict begin
  {1 index /FID ne {def} {pop pop} ifelse} forall
  /Encoding WinAnsiEncoding def
  currentdict
end
/Times-BoldItalic exch definefont pop
/Courier findfont
dup length dict begin
  {1 index /FID ne {def} {pop pop} ifelse} forall
  /Encoding WinAnsiEncoding def
  currentdict
end
/Courier exch definefont pop
/Times-Italic findfont
dup length dict begin
  {1 index /FID ne {def} {pop pop} ifelse} forall
  /Encoding WinAnsiEncoding def
  currentdict
end
/Times-Italic exch definefont pop
/Times-Bold findfont
dup length dict begin
  {1 index /FID ne {def} {pop pop} ifelse} forall
  /Encoding WinAnsiEncoding def
  currentdict
end
/Times-Bold exch definefont pop
%FOPEndFontReencode
%%EndProlog
%%Page: 1 1
%%PageBoundingBox: 0 0 420 315
%%BeginPageSetup
[1 0 0 -1 0 315] CT
%%EndPageSetup
GS
[0.375 0 0 0.375 0 0] CT
1 GC
N
0 0 1120 840 re
f
GR
GS
[0.375 0 0 0.375 0 0] CT
1 GC
N
0 0 1120 840 re
f
GR
GS
[0.375 0 0 0.375 0 0] CT
1 GC
N
117 756 M
1090 756 L
1090 17 L
117 17 L
cp
f
GR
GS
[0.375 0 0 0.375 0 0] CT
0.149 GC
2 setlinecap
1 LJ
1.333 LW
N
117 756 M
1090 756 L
S
GR
GS
[0.375 0 0 0.375 0 0] CT
0.149 GC
2 setlinecap
1 LJ
1.333 LW
N
117 17 M
1090 17 L
S
GR
GS
[0.375 0 0 0.375 0 0] CT
0.149 GC
2 setlinecap
1 LJ
1.333 LW
N
117 756 M
117 746.272 L
S
GR
GS
[0.375 0 0 0.375 0 0] CT
0.149 GC
2 setlinecap
1 LJ
1.333 LW
N
238.625 756 M
238.625 746.272 L
S
GR
GS
[0.375 0 0 0.375 0 0] CT
0.149 GC
2 setlinecap
1 LJ
1.333 LW
N
360.25 756 M
360.25 746.272 L
S
GR
GS
[0.375 0 0 0.375 0 0] CT
0.149 GC
2 setlinecap
1 LJ
1.333 LW
N
481.875 756 M
481.875 746.272 L
S
GR
GS
[0.375 0 0 0.375 0 0] CT
0.149 GC
2 setlinecap
1 LJ
1.333 LW
N
603.5 756 M
603.5 746.272 L
S
GR
GS
[0.375 0 0 0.375 0 0] CT
0.149 GC
2 setlinecap
1 LJ
1.333 LW
N
725.125 756 M
725.125 746.272 L
S
GR
GS
[0.375 0 0 0.375 0 0] CT
0.149 GC
2 setlinecap
1 LJ
1.333 LW
N
846.75 756 M
846.75 746.272 L
S
GR
GS
[0.375 0 0 0.375 0 0] CT
0.149 GC
2 setlinecap
1 LJ
1.333 LW
N
968.375 756 M
968.375 746.272 L
S
GR
GS
[0.375 0 0 0.375 0 0] CT
0.149 GC
2 setlinecap
1 LJ
1.333 LW
N
1090 756 M
1090 746.272 L
S
GR
GS
[0.375 0 0 0.375 0 0] CT
0.149 GC
2 setlinecap
1 LJ
1.333 LW
N
117 17 M
117 26.728 L
S
GR
GS
[0.375 0 0 0.375 0 0] CT
0.149 GC
2 setlinecap
1 LJ
1.333 LW
N
238.625 17 M
238.625 26.728 L
S
GR
GS
[0.375 0 0 0.375 0 0] CT
0.149 GC
2 setlinecap
1 LJ
1.333 LW
N
360.25 17 M
360.25 26.728 L
S
GR
GS
[0.375 0 0 0.375 0 0] CT
0.149 GC
2 setlinecap
1 LJ
1.333 LW
N
481.875 17 M
481.875 26.728 L
S
GR
GS
[0.375 0 0 0.375 0 0] CT
0.149 GC
2 setlinecap
1 LJ
1.333 LW
N
603.5 17 M
603.5 26.728 L
S
GR
GS
[0.375 0 0 0.375 0 0] CT
0.149 GC
2 setlinecap
1 LJ
1.333 LW
N
725.125 17 M
725.125 26.728 L
S
GR
GS
[0.375 0 0 0.375 0 0] CT
0.149 GC
2 setlinecap
1 LJ
1.333 LW
N
846.75 17 M
846.75 26.728 L
S
GR
GS
[0.375 0 0 0.375 0 0] CT
0.149 GC
2 setlinecap
1 LJ
1.333 LW
N
968.375 17 M
968.375 26.728 L
S
GR
GS
[0.375 0 0 0.375 0 0] CT
0.149 GC
2 setlinecap
1 LJ
1.333 LW
N
1090 17 M
1090 26.728 L
S
GR
GS
[0.375 0 0 0.375 43.875 287.50001] CT
0.149 GC
/Helvetica 26.667 F
GS
[1 0 0 1 0 0] CT
-8 28 moveto 
1 -1 scale
(0) t 
GR
GR
GS
[0.375 0 0 0.375 89.48438 287.50001] CT
0.149 GC
/Helvetica 26.667 F
GS
[1 0 0 1 0 0] CT
-23 28 moveto 
1 -1 scale
(500) t 
GR
GR
GS
[0.375 0 0 0.375 135.09375 287.50001] CT
0.149 GC
/Helvetica 26.667 F
GS
[1 0 0 1 0 0] CT
-30.5 28 moveto 
1 -1 scale
(1000) t 
GR
GR
GS
[0.375 0 0 0.375 180.70313 287.50001] CT
0.149 GC
/Helvetica 26.667 F
GS
[1 0 0 1 0 0] CT
-30.5 28 moveto 
1 -1 scale
(1500) t 
GR
GR
GS
[0.375 0 0 0.375 226.3125 287.50001] CT
0.149 GC
/Helvetica 26.667 F
GS
[1 0 0 1 0 0] CT
-30.5 28 moveto 
1 -1 scale
(2000) t 
GR
GR
GS
[0.375 0 0 0.375 271.92188 287.50001] CT
0.149 GC
/Helvetica 26.667 F
GS
[1 0 0 1 0 0] CT
-30.5 28 moveto 
1 -1 scale
(2500) t 
GR
GR
GS
[0.375 0 0 0.375 317.53125 287.50001] CT
0.149 GC
/Helvetica 26.667 F
GS
[1 0 0 1 0 0] CT
-30.5 28 moveto 
1 -1 scale
(3000) t 
GR
GR
GS
[0.375 0 0 0.375 363.14063 287.50001] CT
0.149 GC
/Helvetica 26.667 F
GS
[1 0 0 1 0 0] CT
-30.5 28 moveto 
1 -1 scale
(3500) t 
GR
GR
GS
[0.375 0 0 0.375 408.75 287.50001] CT
0.149 GC
/Helvetica 26.667 F
GS
[1 0 0 1 0 0] CT
-30.5 28 moveto 
1 -1 scale
(4000) t 
GR
GR
GS
[0.375 0 0 0.375 226.31268 301.125] CT
0.149 GC
/Helvetica 29.333 F
GS
[1 0 0 1 0 0] CT
-116.5 30 moveto 
1 -1 scale
(Hertzova stupnice) t 
GR
GR
GS
[0.375 0 0 0.375 0 0] CT
0.149 GC
2 setlinecap
1 LJ
1.333 LW
N
117 756 M
117 17 L
S
GR
GS
[0.375 0 0 0.375 0 0] CT
0.149 GC
2 setlinecap
1 LJ
1.333 LW
N
1090 756 M
1090 17 L
S
GR
GS
[0.375 0 0 0.375 0 0] CT
0.149 GC
2 setlinecap
1 LJ
1.333 LW
N
117 756 M
126.728 756 L
S
GR
GS
[0.375 0 0 0.375 0 0] CT
0.149 GC
2 setlinecap
1 LJ
1.333 LW
N
117 608.2 M
126.728 608.2 L
S
GR
GS
[0.375 0 0 0.375 0 0] CT
0.149 GC
2 setlinecap
1 LJ
1.333 LW
N
117 460.4 M
126.728 460.4 L
S
GR
GS
[0.375 0 0 0.375 0 0] CT
0.149 GC
2 setlinecap
1 LJ
1.333 LW
N
117 312.6 M
126.728 312.6 L
S
GR
GS
[0.375 0 0 0.375 0 0] CT
0.149 GC
2 setlinecap
1 LJ
1.333 LW
N
117 164.8 M
126.728 164.8 L
S
GR
GS
[0.375 0 0 0.375 0 0] CT
0.149 GC
2 setlinecap
1 LJ
1.333 LW
N
117 17 M
126.728 17 L
S
GR
GS
[0.375 0 0 0.375 0 0] CT
0.149 GC
2 setlinecap
1 LJ
1.333 LW
N
1090 756 M
1080.272 756 L
S
GR
GS
[0.375 0 0 0.375 0 0] CT
0.149 GC
2 setlinecap
1 LJ
1.333 LW
N
1090 608.2 M
1080.272 608.2 L
S
GR
GS
[0.375 0 0 0.375 0 0] CT
0.149 GC
2 setlinecap
1 LJ
1.333 LW
N
1090 460.4 M
1080.272 460.4 L
S
GR
GS
[0.375 0 0 0.375 0 0] CT
0.149 GC
2 setlinecap
1 LJ
1.333 LW
N
1090 312.6 M
1080.272 312.6 L
S
GR
GS
[0.375 0 0 0.375 0 0] CT
0.149 GC
2 setlinecap
1 LJ
1.333 LW
N
1090 164.8 M
1080.272 164.8 L
S
GR
GS
[0.375 0 0 0.375 0 0] CT
0.149 GC
2 setlinecap
1 LJ
1.333 LW
N
1090 17 M
1080.272 17 L
S
GR
GS
[0.375 0 0 0.375 39.875 283.5] CT
0.149 GC
/Helvetica 26.667 F
GS
[1 0 0 1 0 0] CT
-16 11 moveto 
1 -1 scale
(0) t 
GR
GR
GS
[0.375 0 0 0.375 39.875 228.075] CT
0.149 GC
/Helvetica 26.667 F
GS
[1 0 0 1 0 0] CT
-46 11 moveto 
1 -1 scale
(500) t 
GR
GR
GS
[0.375 0 0 0.375 39.875 172.65] CT
0.149 GC
/Helvetica 26.667 F
GS
[1 0 0 1 0 0] CT
-61 11 moveto 
1 -1 scale
(1000) t 
GR
GR
GS
[0.375 0 0 0.375 39.875 117.225] CT
0.149 GC
/Helvetica 26.667 F
GS
[1 0 0 1 0 0] CT
-61 11 moveto 
1 -1 scale
(1500) t 
GR
GR
GS
[0.375 0 0 0.375 39.875 61.8] CT
0.149 GC
/Helvetica 26.667 F
GS
[1 0 0 1 0 0] CT
-61 11 moveto 
1 -1 scale
(2000) t 
GR
GR
GS
[0.375 0 0 0.375 39.875 6.375] CT
0.149 GC
/Helvetica 26.667 F
GS
[1 0 0 1 0 0] CT
-61 11 moveto 
1 -1 scale
(2500) t 
GR
GR
GS
[0 -0.375 0.375 0 13.875 144.93736] CT
0.149 GC
/Helvetica 29.333 F
GS
[1 0 0 1 0 0] CT
-105 -7 moveto 
1 -1 scale
(Melova stupnice) t 
GR
GR
GS
[0.375 0 0 0.375 0 0] CT
0 0.447 0.741 RC
1 LJ
1.333 LW
N
117.243 755.524 M
117.487 755.049 L
117.73 754.575 L
117.973 754.102 L
118.216 753.629 L
118.46 753.157 L
118.703 752.685 L
118.946 752.214 L
119.189 751.744 L
119.433 751.275 L
119.676 750.806 L
119.919 750.337 L
120.162 749.87 L
120.406 749.403 L
120.649 748.937 L
120.892 748.471 L
121.135 748.006 L
121.379 747.542 L
121.622 747.078 L
121.865 746.615 L
122.108 746.153 L
122.352 745.691 L
122.595 745.23 L
122.838 744.769 L
123.081 744.31 L
123.325 743.85 L
123.568 743.392 L
123.811 742.934 L
124.054 742.477 L
124.298 742.02 L
124.541 741.564 L
124.784 741.109 L
125.027 740.654 L
125.271 740.2 L
125.514 739.746 L
125.757 739.293 L
126 738.841 L
126.243 738.389 L
126.487 737.938 L
126.73 737.487 L
126.973 737.037 L
127.216 736.588 L
127.46 736.14 L
127.703 735.691 L
127.946 735.244 L
128.189 734.797 L
128.433 734.351 L
128.676 733.905 L
128.919 733.46 L
129.163 733.016 L
129.406 732.572 L
129.649 732.128 L
129.892 731.686 L
130.135 731.244 L
130.379 730.802 L
130.622 730.361 L
130.865 729.921 L
131.109 729.481 L
131.352 729.042 L
131.595 728.603 L
131.838 728.165 L
132.081 727.728 L
132.325 727.291 L
132.568 726.854 L
132.811 726.419 L
133.055 725.983 L
133.298 725.549 L
133.541 725.115 L
133.784 724.681 L
134.027 724.248 L
134.271 723.816 L
134.514 723.384 L
134.757 722.953 L
135.001 722.522 L
135.244 722.092 L
135.487 721.662 L
135.73 721.233 L
135.973 720.805 L
136.217 720.377 L
136.46 719.95 L
136.703 719.523 L
136.947 719.096 L
137.19 718.671 L
137.433 718.246 L
137.676 717.821 L
137.919 717.397 L
138.163 716.973 L
138.406 716.55 L
138.649 716.128 L
138.893 715.706 L
139.136 715.284 L
139.379 714.863 L
139.622 714.443 L
139.865 714.023 L
140.109 713.604 L
140.352 713.185 L
140.595 712.767 L
140.839 712.349 L
141.082 711.932 L
141.325 711.515 L
141.568 711.099 L
141.811 710.683 L
142.055 710.268 L
142.298 709.854 L
142.541 709.44 L
142.785 709.026 L
143.028 708.613 L
143.271 708.2 L
143.514 707.788 L
143.758 707.377 L
144.001 706.966 L
144.244 706.555 L
144.487 706.145 L
144.73 705.736 L
144.974 705.327 L
145.217 704.918 L
145.46 704.51 L
145.704 704.103 L
145.947 703.696 L
146.19 703.289 L
146.433 702.883 L
146.676 702.478 L
146.92 702.073 L
147.163 701.668 L
147.406 701.264 L
147.65 700.86 L
147.893 700.457 L
148.136 700.055 L
148.379 699.653 L
148.622 699.251 L
148.866 698.85 L
149.109 698.449 L
149.352 698.049 L
149.596 697.649 L
149.839 697.25 L
150.082 696.851 L
150.325 696.453 L
150.568 696.055 L
150.812 695.658 L
151.055 695.261 L
151.298 694.865 L
151.542 694.469 L
151.785 694.073 L
152.028 693.679 L
152.271 693.284 L
152.514 692.89 L
152.758 692.497 L
153.001 692.103 L
153.244 691.711 L
153.488 691.319 L
153.731 690.927 L
153.974 690.536 L
154.217 690.145 L
154.46 689.755 L
154.704 689.365 L
154.947 688.975 L
155.19 688.586 L
155.434 688.198 L
155.677 687.81 L
155.92 687.422 L
156.163 687.035 L
156.406 686.648 L
156.65 686.262 L
156.893 685.876 L
157.136 685.491 L
157.38 685.106 L
157.623 684.722 L
157.866 684.338 L
158.109 683.954 L
158.352 683.571 L
158.596 683.188 L
158.839 682.806 L
159.082 682.424 L
159.326 682.043 L
159.569 681.662 L
159.812 681.281 L
160.055 680.901 L
160.298 680.521 L
160.542 680.142 L
160.785 679.763 L
161.028 679.385 L
161.271 679.007 L
161.515 678.63 L
161.758 678.253 L
162.001 677.876 L
162.245 677.5 L
162.488 677.124 L
162.731 676.749 L
162.974 676.374 L
163.217 675.999 L
163.461 675.625 L
163.704 675.251 L
163.947 674.878 L
164.191 674.505 L
164.434 674.133 L
164.677 673.761 L
164.92 673.389 L
165.163 673.018 L
165.407 672.647 L
165.65 672.277 L
165.893 671.907 L
166.137 671.537 L
166.38 671.168 L
166.623 670.799 L
166.866 670.431 L
167.109 670.063 L
167.353 669.696 L
167.596 669.329 L
167.839 668.962 L
168.083 668.596 L
168.326 668.23 L
168.569 667.864 L
168.812 667.499 L
169.055 667.135 L
169.299 666.77 L
169.542 666.406 L
169.785 666.043 L
170.029 665.68 L
170.272 665.317 L
170.515 664.955 L
170.758 664.593 L
171.001 664.231 L
171.245 663.87 L
171.488 663.509 L
171.731 663.149 L
171.975 662.789 L
172.218 662.43 L
172.461 662.07 L
172.704 661.712 L
172.947 661.353 L
173.191 660.995 L
173.434 660.638 L
173.677 660.28 L
173.921 659.923 L
174.164 659.567 L
174.407 659.211 L
174.65 658.855 L
174.893 658.5 L
175.137 658.145 L
175.38 657.79 L
175.623 657.436 L
175.867 657.082 L
176.11 656.729 L
176.353 656.375 L
176.596 656.023 L
176.839 655.67 L
177.083 655.318 L
177.326 654.967 L
177.569 654.616 L
177.813 654.265 L
178.056 653.914 L
178.299 653.564 L
178.542 653.214 L
178.786 652.865 L
179.029 652.516 L
179.272 652.167 L
179.515 651.819 L
179.758 651.471 L
180.002 651.124 L
180.245 650.776 L
180.488 650.43 L
180.732 650.083 L
180.975 649.737 L
181.218 649.391 L
181.461 649.046 L
181.704 648.701 L
181.948 648.356 L
182.191 648.012 L
182.434 647.668 L
182.678 647.324 L
182.921 646.981 L
183.164 646.638 L
183.407 646.295 L
183.65 645.953 L
183.894 645.611 L
184.137 645.27 L
184.38 644.929 L
184.624 644.588 L
184.867 644.247 L
185.11 643.907 L
185.353 643.567 L
185.596 643.228 L
185.84 642.889 L
186.083 642.55 L
186.326 642.212 L
186.57 641.874 L
186.813 641.536 L
187.056 641.199 L
187.299 640.862 L
187.542 640.525 L
187.786 640.189 L
188.029 639.853 L
188.272 639.517 L
188.516 639.182 L
188.759 638.847 L
189.002 638.512 L
189.245 638.178 L
189.488 637.844 L
189.732 637.51 L
189.975 637.177 L
190.218 636.844 L
190.462 636.511 L
190.705 636.179 L
190.948 635.847 L
191.191 635.515 L
191.434 635.184 L
191.678 634.853 L
191.921 634.522 L
192.164 634.192 L
192.408 633.862 L
192.651 633.532 L
192.894 633.203 L
193.137 632.874 L
193.38 632.545 L
193.624 632.217 L
193.867 631.889 L
194.11 631.561 L
194.354 631.234 L
194.597 630.907 L
194.84 630.58 L
195.083 630.253 L
195.327 629.927 L
195.57 629.601 L
195.813 629.276 L
196.056 628.951 L
196.299 628.626 L
196.543 628.301 L
196.786 627.977 L
197.029 627.653 L
197.273 627.33 L
197.516 627.006 L
197.759 626.683 L
198.002 626.361 L
198.245 626.038 L
198.489 625.716 L
198.732 625.395 L
198.975 625.073 L
199.219 624.752 L
199.462 624.431 L
199.705 624.111 L
199.948 623.791 L
200.191 623.471 L
200.435 623.151 L
200.678 622.832 L
200.921 622.513 L
201.165 622.194 L
201.408 621.876 L
201.651 621.558 L
201.894 621.24 L
202.137 620.923 L
202.381 620.606 L
202.624 620.289 L
202.867 619.972 L
203.111 619.656 L
203.354 619.34 L
203.597 619.025 L
203.84 618.709 L
204.083 618.394 L
204.327 618.08 L
204.57 617.765 L
204.813 617.451 L
205.057 617.137 L
205.3 616.824 L
205.543 616.51 L
205.786 616.197 L
206.029 615.885 L
206.273 615.572 L
206.516 615.26 L
206.759 614.948 L
207.003 614.637 L
207.246 614.326 L
207.489 614.015 L
207.732 613.704 L
207.975 613.394 L
208.219 613.084 L
208.462 612.774 L
208.705 612.465 L
208.949 612.156 L
209.192 611.847 L
209.435 611.538 L
209.678 611.23 L
209.921 610.922 L
210.165 610.614 L
210.408 610.306 L
210.651 609.999 L
210.895 609.692 L
211.138 609.386 L
211.381 609.079 L
211.624 608.773 L
211.867 608.468 L
212.111 608.162 L
212.354 607.857 L
212.597 607.552 L
212.84 607.247 L
213.084 606.943 L
213.327 606.639 L
213.57 606.335 L
213.814 606.031 L
214.057 605.728 L
214.3 605.425 L
214.543 605.122 L
214.786 604.82 L
215.03 604.518 L
215.273 604.216 L
215.516 603.914 L
215.76 603.613 L
216.003 603.312 L
216.246 603.011 L
216.489 602.711 L
216.732 602.41 L
216.976 602.11 L
217.219 601.811 L
217.462 601.511 L
217.706 601.212 L
217.949 600.913 L
218.192 600.614 L
218.435 600.316 L
218.678 600.018 L
218.922 599.72 L
219.165 599.422 L
219.408 599.125 L
219.652 598.828 L
219.895 598.531 L
220.138 598.235 L
220.381 597.938 L
220.624 597.643 L
220.868 597.347 L
221.111 597.051 L
221.354 596.756 L
221.598 596.461 L
221.841 596.166 L
222.084 595.872 L
222.327 595.578 L
222.57 595.284 L
222.814 594.99 L
223.057 594.697 L
223.3 594.404 L
223.544 594.111 L
223.787 593.818 L
224.03 593.526 L
224.273 593.234 L
224.516 592.942 L
224.76 592.65 L
225.003 592.359 L
225.246 592.068 L
225.49 591.777 L
225.733 591.487 L
225.976 591.196 L
226.219 590.906 L
226.462 590.616 L
226.706 590.327 L
226.949 590.038 L
227.192 589.748 L
227.436 589.46 L
227.679 589.171 L
227.922 588.883 L
228.165 588.595 L
228.408 588.307 L
228.652 588.019 L
228.895 587.732 L
229.138 587.445 L
229.382 587.158 L
229.625 586.872 L
229.868 586.585 L
230.111 586.299 L
230.355 586.013 L
230.598 585.728 L
230.841 585.442 L
231.084 585.157 L
231.327 584.872 L
231.571 584.588 L
231.814 584.303 L
232.057 584.019 L
232.301 583.735 L
232.544 583.452 L
232.787 583.168 L
233.03 582.885 L
233.273 582.602 L
233.517 582.32 L
233.76 582.037 L
234.003 581.755 L
234.247 581.473 L
234.49 581.191 L
234.733 580.91 L
234.976 580.629 L
235.219 580.348 L
235.463 580.067 L
235.706 579.786 L
235.949 579.506 L
236.193 579.226 L
236.436 578.946 L
236.679 578.666 L
236.922 578.387 L
237.165 578.108 L
237.409 577.829 L
237.652 577.55 L
237.895 577.272 L
238.139 576.994 L
238.382 576.716 L
238.625 576.438 L
238.868 576.161 L
239.111 575.883 L
239.355 575.606 L
239.598 575.329 L
239.841 575.053 L
240.085 574.776 L
240.328 574.5 L
240.571 574.224 L
240.814 573.949 L
241.057 573.673 L
241.301 573.398 L
241.544 573.123 L
241.787 572.848 L
242.031 572.574 L
242.274 572.3 L
242.517 572.026 L
242.76 571.752 L
243.003 571.478 L
243.247 571.205 L
243.49 570.931 L
243.733 570.659 L
243.977 570.386 L
244.22 570.113 L
244.463 569.841 L
244.706 569.569 L
244.949 569.297 L
245.193 569.025 L
245.436 568.754 L
245.679 568.483 L
245.923 568.212 L
246.166 567.941 L
246.409 567.671 L
246.652 567.4 L
246.895 567.13 L
247.139 566.86 L
247.382 566.591 L
247.625 566.321 L
247.868 566.052 L
248.112 565.783 L
248.355 565.514 L
248.598 565.246 L
248.842 564.978 L
249.085 564.709 L
249.328 564.441 L
249.571 564.174 L
249.814 563.906 L
250.058 563.639 L
250.301 563.372 L
250.544 563.105 L
250.788 562.839 L
251.031 562.572 L
251.274 562.306 L
251.517 562.04 L
251.76 561.774 L
252.004 561.509 L
252.247 561.243 L
252.49 560.978 L
252.734 560.713 L
252.977 560.449 L
253.22 560.184 L
253.463 559.92 L
253.706 559.656 L
253.95 559.392 L
254.193 559.128 L
254.436 558.865 L
254.68 558.601 L
254.923 558.338 L
255.166 558.076 L
255.409 557.813 L
255.652 557.55 L
255.896 557.288 L
256.139 557.026 L
256.382 556.764 L
256.625 556.503 L
256.869 556.242 L
257.112 555.98 L
257.355 555.719 L
257.599 555.459 L
257.842 555.198 L
258.085 554.938 L
258.328 554.677 L
258.572 554.417 L
258.815 554.158 L
259.058 553.898 L
259.301 553.639 L
259.544 553.38 L
259.788 553.121 L
260.031 552.862 L
260.274 552.603 L
260.517 552.345 L
260.761 552.087 L
261.004 551.829 L
261.247 551.571 L
261.491 551.314 L
261.734 551.056 L
261.977 550.799 L
262.22 550.542 L
262.464 550.285 L
262.707 550.029 L
262.95 549.773 L
263.193 549.516 L
263.436 549.26 L
263.68 549.005 L
263.923 548.749 L
264.166 548.494 L
264.409 548.239 L
264.653 547.984 L
264.896 547.729 L
265.139 547.474 L
265.383 547.22 L
265.626 546.966 L
265.869 546.711 L
266.112 546.458 L
266.355 546.204 L
266.599 545.951 L
266.842 545.697 L
267.085 545.444 L
267.328 545.191 L
267.572 544.939 L
267.815 544.686 L
268.058 544.434 L
268.302 544.182 L
268.545 543.93 L
268.788 543.678 L
269.031 543.427 L
269.275 543.175 L
269.518 542.924 L
269.761 542.673 L
270.004 542.423 L
270.247 542.172 L
270.491 541.922 L
270.734 541.671 L
270.977 541.421 L
271.22 541.172 L
271.464 540.922 L
271.707 540.673 L
271.95 540.423 L
272.194 540.174 L
272.437 539.925 L
272.68 539.677 L
272.923 539.428 L
273.167 539.18 L
273.41 538.932 L
273.653 538.684 L
273.896 538.436 L
274.139 538.188 L
274.383 537.941 L
274.626 537.694 L
274.869 537.447 L
275.112 537.2 L
275.356 536.953 L
275.599 536.706 L
275.842 536.46 L
276.086 536.214 L
276.329 535.968 L
276.572 535.722 L
276.815 535.477 L
277.059 535.231 L
277.302 534.986 L
277.545 534.741 L
277.788 534.496 L
278.031 534.252 L
278.275 534.007 L
278.518 533.763 L
278.761 533.519 L
279.004 533.275 L
279.248 533.031 L
279.491 532.787 L
279.734 532.544 L
279.978 532.3 L
280.221 532.057 L
280.464 531.814 L
280.707 531.572 L
280.951 531.329 L
281.194 531.087 L
281.437 530.845 L
281.68 530.603 L
281.923 530.361 L
282.167 530.119 L
282.41 529.878 L
282.653 529.636 L
282.897 529.395 L
283.14 529.154 L
283.383 528.913 L
283.626 528.673 L
283.87 528.432 L
284.113 528.192 L
284.356 527.952 L
284.599 527.712 L
284.842 527.472 L
285.086 527.233 L
285.329 526.993 L
285.572 526.754 L
285.815 526.515 L
286.059 526.276 L
286.302 526.037 L
286.545 525.799 L
286.789 525.56 L
287.032 525.322 L
287.275 525.084 L
287.518 524.846 L
287.762 524.609 L
288.005 524.371 L
288.248 524.134 L
288.491 523.896 L
288.734 523.659 L
288.978 523.423 L
289.221 523.186 L
289.464 522.949 L
289.707 522.713 L
289.951 522.477 L
290.194 522.241 L
290.437 522.005 L
290.681 521.769 L
290.924 521.534 L
291.167 521.298 L
291.41 521.063 L
291.654 520.828 L
291.897 520.593 L
292.14 520.359 L
292.383 520.124 L
292.626 519.89 L
292.87 519.656 L
293.113 519.422 L
293.356 519.188 L
293.599 518.954 L
293.843 518.72 L
294.086 518.487 L
294.329 518.254 L
294.573 518.021 L
294.816 517.788 L
295.059 517.555 L
295.302 517.323 L
295.546 517.09 L
295.789 516.858 L
296.032 516.626 L
296.275 516.394 L
296.518 516.162 L
296.762 515.931 L
297.005 515.699 L
297.248 515.468 L
297.491 515.237 L
297.735 515.006 L
297.978 514.775 L
298.221 514.544 L
298.465 514.314 L
298.708 514.084 L
298.951 513.854 L
299.194 513.624 L
299.438 513.394 L
299.681 513.164 L
299.924 512.935 L
300.167 512.705 L
300.41 512.476 L
300.654 512.247 L
300.897 512.018 L
301.14 511.789 L
301.384 511.561 L
301.627 511.332 L
301.87 511.104 L
302.113 510.876 L
302.357 510.648 L
302.6 510.42 L
302.843 510.193 L
303.086 509.965 L
303.329 509.738 L
303.573 509.511 L
303.816 509.284 L
304.059 509.057 L
304.302 508.83 L
304.546 508.604 L
304.789 508.377 L
305.032 508.151 L
305.276 507.925 L
305.519 507.699 L
305.762 507.473 L
306.005 507.247 L
306.249 507.022 L
306.492 506.797 L
306.735 506.572 L
306.978 506.346 L
307.221 506.122 L
307.465 505.897 L
307.708 505.672 L
307.951 505.448 L
308.194 505.224 L
308.438 505 L
308.681 504.776 L
308.924 504.552 L
309.168 504.328 L
309.411 504.105 L
309.654 503.881 L
309.897 503.658 L
310.141 503.435 L
310.384 503.212 L
310.627 502.989 L
310.87 502.767 L
311.113 502.544 L
311.357 502.322 L
311.6 502.1 L
311.843 501.878 L
312.086 501.656 L
312.33 501.434 L
312.573 501.213 L
312.816 500.991 L
313.06 500.77 L
313.303 500.549 L
313.546 500.328 L
313.789 500.107 L
314.033 499.886 L
314.276 499.666 L
314.519 499.445 L
314.762 499.225 L
315.005 499.005 L
315.249 498.785 L
315.492 498.565 L
315.735 498.345 L
315.978 498.126 L
316.222 497.906 L
316.465 497.687 L
316.708 497.468 L
316.952 497.249 L
317.195 497.03 L
317.438 496.812 L
317.681 496.593 L
317.924 496.375 L
318.168 496.157 L
318.411 495.938 L
318.654 495.72 L
318.897 495.503 L
319.141 495.285 L
319.384 495.067 L
319.627 494.85 L
319.871 494.633 L
320.114 494.416 L
320.357 494.199 L
320.6 493.982 L
320.844 493.765 L
321.087 493.549 L
321.33 493.332 L
321.573 493.116 L
321.816 492.9 L
322.06 492.684 L
322.303 492.468 L
322.546 492.253 L
322.789 492.037 L
323.033 491.822 L
323.276 491.606 L
323.519 491.391 L
323.763 491.176 L
324.006 490.961 L
324.249 490.747 L
324.492 490.532 L
324.736 490.318 L
324.979 490.103 L
325.222 489.889 L
325.465 489.675 L
325.708 489.461 L
325.952 489.247 L
326.195 489.034 L
326.438 488.82 L
326.681 488.607 L
326.925 488.394 L
327.168 488.181 L
327.411 487.968 L
327.655 487.755 L
327.898 487.542 L
328.141 487.33 L
328.384 487.117 L
328.628 486.905 L
328.871 486.693 L
329.114 486.481 L
329.357 486.269 L
329.6 486.057 L
329.844 485.846 L
330.087 485.634 L
330.33 485.423 L
330.573 485.212 L
330.817 485.001 L
331.06 484.79 L
331.303 484.579 L
331.547 484.368 L
331.79 484.158 L
332.033 483.947 L
332.276 483.737 L
332.52 483.527 L
332.763 483.317 L
333.006 483.107 L
333.249 482.898 L
333.492 482.688 L
333.736 482.479 L
333.979 482.269 L
334.222 482.06 L
334.466 481.851 L
334.709 481.642 L
334.952 481.433 L
335.195 481.225 L
335.439 481.016 L
335.682 480.808 L
335.925 480.599 L
336.168 480.391 L
336.411 480.183 L
336.655 479.975 L
336.898 479.767 L
337.141 479.56 L
337.384 479.352 L
337.628 479.145 L
337.871 478.938 L
338.114 478.731 L
338.358 478.524 L
338.601 478.317 L
338.844 478.11 L
339.087 477.903 L
339.331 477.697 L
339.574 477.491 L
339.817 477.284 L
340.06 477.078 L
340.303 476.872 L
340.547 476.667 L
340.79 476.461 L
341.033 476.255 L
341.276 476.05 L
341.52 475.845 L
341.763 475.639 L
342.006 475.434 L
342.25 475.229 L
342.493 475.024 L
342.736 474.82 L
342.979 474.615 L
343.223 474.411 L
343.466 474.206 L
343.709 474.002 L
343.952 473.798 L
344.195 473.594 L
344.439 473.39 L
344.682 473.187 L
344.925 472.983 L
345.168 472.78 L
345.412 472.576 L
345.655 472.373 L
345.898 472.17 L
346.142 471.967 L
346.385 471.764 L
346.628 471.562 L
346.871 471.359 L
347.115 471.157 L
347.358 470.954 L
347.601 470.752 L
347.844 470.55 L
348.087 470.348 L
348.331 470.146 L
348.574 469.944 L
348.817 469.743 L
349.06 469.541 L
349.304 469.34 L
349.547 469.139 L
349.79 468.938 L
350.034 468.737 L
350.277 468.536 L
350.52 468.335 L
350.763 468.134 L
351.007 467.934 L
351.25 467.734 L
351.493 467.533 L
351.736 467.333 L
351.979 467.133 L
352.223 466.933 L
352.466 466.733 L
352.709 466.534 L
352.953 466.334 L
353.196 466.135 L
353.439 465.935 L
353.682 465.736 L
353.926 465.537 L
354.169 465.338 L
354.412 465.139 L
354.655 464.941 L
354.898 464.742 L
355.142 464.544 L
355.385 464.345 L
355.628 464.147 L
355.871 463.949 L
356.115 463.751 L
356.358 463.553 L
356.601 463.355 L
356.845 463.158 L
357.088 462.96 L
357.331 462.763 L
357.574 462.565 L
357.818 462.368 L
358.061 462.171 L
358.304 461.974 L
358.547 461.777 L
358.79 461.581 L
359.034 461.384 L
359.277 461.188 L
359.52 460.991 L
359.763 460.795 L
360.007 460.599 L
360.25 460.403 L
360.493 460.207 L
360.737 460.011 L
360.98 459.815 L
361.223 459.62 L
361.466 459.424 L
361.71 459.229 L
361.953 459.034 L
362.196 458.839 L
362.439 458.644 L
362.682 458.449 L
362.926 458.254 L
363.169 458.059 L
363.412 457.865 L
363.655 457.67 L
363.899 457.476 L
364.142 457.282 L
364.385 457.088 L
364.629 456.894 L
364.872 456.7 L
365.115 456.506 L
365.358 456.313 L
365.602 456.119 L
365.845 455.926 L
366.088 455.732 L
366.331 455.539 L
366.574 455.346 L
366.818 455.153 L
367.061 454.96 L
367.304 454.768 L
367.547 454.575 L
367.791 454.383 L
368.034 454.19 L
368.277 453.998 L
368.521 453.806 L
368.764 453.614 L
369.007 453.422 L
369.25 453.23 L
369.493 453.038 L
369.737 452.846 L
369.98 452.655 L
370.223 452.464 L
370.466 452.272 L
370.71 452.081 L
370.953 451.89 L
371.196 451.699 L
371.44 451.508 L
371.683 451.317 L
371.926 451.127 L
372.169 450.936 L
372.413 450.746 L
372.656 450.555 L
372.899 450.365 L
373.142 450.175 L
373.385 449.985 L
373.629 449.795 L
373.872 449.606 L
374.115 449.416 L
374.358 449.226 L
374.602 449.037 L
374.845 448.848 L
375.088 448.658 L
375.332 448.469 L
375.575 448.28 L
375.818 448.091 L
376.061 447.902 L
376.305 447.714 L
376.548 447.525 L
376.791 447.337 L
377.034 447.148 L
377.277 446.96 L
377.521 446.772 L
377.764 446.584 L
378.007 446.396 L
378.25 446.208 L
378.494 446.02 L
378.737 445.833 L
378.98 445.645 L
379.224 445.458 L
379.467 445.27 L
379.71 445.083 L
379.953 444.896 L
380.197 444.709 L
380.44 444.522 L
380.683 444.335 L
380.926 444.149 L
381.169 443.962 L
381.413 443.776 L
381.656 443.589 L
381.899 443.403 L
382.142 443.217 L
382.386 443.031 L
382.629 442.845 L
382.872 442.659 L
383.116 442.473 L
383.359 442.288 L
383.602 442.102 L
383.845 441.917 L
384.089 441.731 L
384.332 441.546 L
384.575 441.361 L
384.818 441.176 L
385.061 440.991 L
385.305 440.806 L
385.548 440.621 L
385.791 440.437 L
386.034 440.252 L
386.278 440.068 L
386.521 439.884 L
386.764 439.699 L
387.008 439.515 L
387.251 439.331 L
387.494 439.147 L
387.737 438.964 L
387.98 438.78 L
388.224 438.596 L
388.467 438.413 L
388.71 438.229 L
388.953 438.046 L
389.197 437.863 L
389.44 437.68 L
389.683 437.497 L
389.927 437.314 L
390.17 437.131 L
390.413 436.948 L
390.656 436.766 L
390.9 436.583 L
391.143 436.401 L
391.386 436.219 L
391.629 436.036 L
391.872 435.854 L
392.116 435.672 L
392.359 435.49 L
392.602 435.309 L
392.845 435.127 L
393.089 434.945 L
393.332 434.764 L
393.575 434.582 L
393.819 434.401 L
394.062 434.22 L
394.305 434.039 L
394.548 433.858 L
394.792 433.677 L
395.035 433.496 L
395.278 433.315 L
395.521 433.135 L
395.764 432.954 L
396.008 432.774 L
396.251 432.594 L
396.494 432.413 L
396.737 432.233 L
396.981 432.053 L
397.224 431.873 L
397.467 431.693 L
397.711 431.514 L
397.954 431.334 L
398.197 431.154 L
398.44 430.975 L
398.684 430.796 L
398.927 430.616 L
399.17 430.437 L
399.413 430.258 L
399.656 430.079 L
399.9 429.9 L
400.143 429.722 L
400.386 429.543 L
400.629 429.364 L
400.873 429.186 L
401.116 429.007 L
401.359 428.829 L
401.603 428.651 L
401.846 428.473 L
402.089 428.295 L
402.332 428.117 L
402.576 427.939 L
402.819 427.761 L
403.062 427.584 L
403.305 427.406 L
403.548 427.229 L
403.792 427.052 L
404.035 426.874 L
404.278 426.697 L
404.522 426.52 L
404.765 426.343 L
405.008 426.166 L
405.251 425.989 L
405.495 425.813 L
405.738 425.636 L
405.981 425.46 L
406.224 425.283 L
406.467 425.107 L
406.711 424.931 L
406.954 424.755 L
407.197 424.579 L
407.44 424.403 L
407.684 424.227 L
407.927 424.051 L
408.17 423.875 L
408.414 423.7 L
408.657 423.524 L
408.9 423.349 L
409.143 423.174 L
409.387 422.998 L
409.63 422.823 L
409.873 422.648 L
410.116 422.473 L
410.359 422.299 L
410.603 422.124 L
410.846 421.949 L
411.089 421.775 L
411.332 421.6 L
411.576 421.426 L
411.819 421.251 L
412.062 421.077 L
412.306 420.903 L
412.549 420.729 L
412.792 420.555 L
413.035 420.381 L
413.279 420.208 L
413.522 420.034 L
413.765 419.86 L
414.008 419.687 L
414.251 419.514 L
414.495 419.34 L
414.738 419.167 L
414.981 418.994 L
415.224 418.821 L
415.468 418.648 L
415.711 418.475 L
415.954 418.303 L
416.198 418.13 L
416.441 417.957 L
416.684 417.785 L
416.927 417.612 L
417.171 417.44 L
417.414 417.268 L
417.657 417.096 L
417.9 416.924 L
418.143 416.752 L
418.387 416.58 L
418.63 416.408 L
418.873 416.237 L
419.116 416.065 L
419.36 415.893 L
419.603 415.722 L
419.846 415.551 L
420.09 415.379 L
420.333 415.208 L
420.576 415.037 L
420.819 414.866 L
421.063 414.695 L
421.306 414.525 L
421.549 414.354 L
421.792 414.183 L
422.035 414.013 L
422.279 413.842 L
422.522 413.672 L
422.765 413.502 L
423.009 413.331 L
423.252 413.161 L
423.495 412.991 L
423.738 412.821 L
423.982 412.652 L
424.225 412.482 L
424.468 412.312 L
424.711 412.143 L
424.954 411.973 L
425.198 411.804 L
425.441 411.634 L
425.684 411.465 L
425.927 411.296 L
426.171 411.127 L
426.414 410.958 L
426.657 410.789 L
426.901 410.62 L
427.144 410.452 L
427.387 410.283 L
427.63 410.114 L
427.874 409.946 L
428.117 409.777 L
428.36 409.609 L
428.603 409.441 L
428.846 409.273 L
429.09 409.105 L
429.333 408.937 L
429.576 408.769 L
429.819 408.601 L
430.063 408.433 L
430.306 408.266 L
430.549 408.098 L
430.793 407.931 L
431.036 407.764 L
431.279 407.596 L
431.522 407.429 L
431.766 407.262 L
432.009 407.095 L
432.252 406.928 L
432.495 406.761 L
432.738 406.594 L
432.982 406.428 L
433.225 406.261 L
433.468 406.094 L
433.711 405.928 L
433.955 405.762 L
434.198 405.595 L
434.441 405.429 L
434.685 405.263 L
434.928 405.097 L
435.171 404.931 L
435.414 404.765 L
435.658 404.599 L
435.901 404.434 L
436.144 404.268 L
436.387 404.103 L
436.63 403.937 L
436.874 403.772 L
437.117 403.606 L
437.36 403.441 L
437.603 403.276 L
437.847 403.111 L
438.09 402.946 L
438.333 402.781 L
438.577 402.616 L
438.82 402.452 L
439.063 402.287 L
439.306 402.123 L
439.549 401.958 L
439.793 401.794 L
440.036 401.629 L
440.279 401.465 L
440.522 401.301 L
440.766 401.137 L
441.009 400.973 L
441.252 400.809 L
441.496 400.645 L
441.739 400.481 L
441.982 400.318 L
442.225 400.154 L
442.469 399.991 L
442.712 399.827 L
442.955 399.664 L
443.198 399.501 L
443.441 399.337 L
443.685 399.174 L
443.928 399.011 L
444.171 398.848 L
444.414 398.686 L
444.658 398.523 L
444.901 398.36 L
445.144 398.197 L
445.388 398.035 L
445.631 397.872 L
445.874 397.71 L
446.117 397.548 L
446.361 397.385 L
446.604 397.223 L
446.847 397.061 L
447.09 396.899 L
447.333 396.737 L
447.577 396.576 L
447.82 396.414 L
448.063 396.252 L
448.306 396.09 L
448.55 395.929 L
448.793 395.767 L
449.036 395.606 L
449.28 395.445 L
449.523 395.284 L
449.766 395.122 L
450.009 394.961 L
450.253 394.8 L
450.496 394.64 L
450.739 394.479 L
450.982 394.318 L
451.225 394.157 L
451.469 393.997 L
451.712 393.836 L
451.955 393.676 L
452.198 393.515 L
452.442 393.355 L
452.685 393.195 L
452.928 393.035 L
453.172 392.875 L
453.415 392.715 L
453.658 392.555 L
453.901 392.395 L
454.145 392.235 L
454.388 392.076 L
454.631 391.916 L
454.874 391.757 L
455.117 391.597 L
455.361 391.438 L
455.604 391.279 L
455.847 391.119 L
456.091 390.96 L
456.334 390.801 L
456.577 390.642 L
456.82 390.483 L
457.064 390.324 L
457.307 390.166 L
457.55 390.007 L
457.793 389.848 L
458.036 389.69 L
458.28 389.531 L
458.523 389.373 L
458.766 389.215 L
459.009 389.057 L
459.253 388.898 L
459.496 388.74 L
459.739 388.582 L
459.983 388.424 L
460.226 388.267 L
460.469 388.109 L
460.712 387.951 L
460.956 387.793 L
461.199 387.636 L
461.442 387.478 L
461.685 387.321 L
461.928 387.164 L
462.172 387.006 L
462.415 386.849 L
462.658 386.692 L
462.901 386.535 L
463.145 386.378 L
463.388 386.221 L
463.631 386.064 L
463.875 385.908 L
464.118 385.751 L
464.361 385.594 L
464.604 385.438 L
464.848 385.281 L
465.091 385.125 L
465.334 384.969 L
465.577 384.813 L
465.82 384.656 L
466.064 384.5 L
466.307 384.344 L
466.55 384.188 L
466.793 384.033 L
467.037 383.877 L
467.28 383.721 L
467.523 383.565 L
467.767 383.41 L
468.01 383.254 L
468.253 383.099 L
468.496 382.944 L
468.74 382.788 L
468.983 382.633 L
469.226 382.478 L
469.469 382.323 L
469.712 382.168 L
469.956 382.013 L
470.199 381.858 L
470.442 381.703 L
470.685 381.549 L
470.929 381.394 L
471.172 381.24 L
471.415 381.085 L
471.659 380.931 L
471.902 380.776 L
472.145 380.622 L
472.388 380.468 L
472.632 380.314 L
472.875 380.16 L
473.118 380.006 L
473.361 379.852 L
473.604 379.698 L
473.848 379.544 L
474.091 379.391 L
474.334 379.237 L
474.578 379.083 L
474.821 378.93 L
475.064 378.776 L
475.307 378.623 L
475.551 378.47 L
475.794 378.317 L
476.037 378.163 L
476.28 378.01 L
476.523 377.857 L
476.767 377.704 L
477.01 377.552 L
477.253 377.399 L
477.496 377.246 L
477.74 377.094 L
477.983 376.941 L
478.226 376.788 L
478.47 376.636 L
478.713 376.484 L
478.956 376.331 L
479.199 376.179 L
479.443 376.027 L
479.686 375.875 L
479.929 375.723 L
480.172 375.571 L
480.415 375.419 L
480.659 375.267 L
480.902 375.116 L
481.145 374.964 L
481.388 374.812 L
481.632 374.661 L
481.875 374.509 L
482.118 374.358 L
482.362 374.207 L
482.605 374.055 L
482.848 373.904 L
483.091 373.753 L
483.335 373.602 L
483.578 373.451 L
483.821 373.3 L
484.064 373.149 L
484.307 372.998 L
484.551 372.848 L
484.794 372.697 L
485.037 372.546 L
485.28 372.396 L
485.524 372.246 L
485.767 372.095 L
486.01 371.945 L
486.254 371.795 L
486.497 371.644 L
486.74 371.494 L
486.983 371.344 L
487.227 371.194 L
487.47 371.044 L
487.713 370.895 L
487.956 370.745 L
488.199 370.595 L
488.443 370.446 L
488.686 370.296 L
488.929 370.147 L
489.172 369.997 L
489.416 369.848 L
489.659 369.698 L
489.902 369.549 L
490.146 369.4 L
490.389 369.251 L
490.632 369.102 L
490.875 368.953 L
491.118 368.804 L
491.362 368.655 L
491.605 368.507 L
491.848 368.358 L
492.091 368.209 L
492.335 368.061 L
492.578 367.912 L
492.821 367.764 L
493.065 367.615 L
493.308 367.467 L
493.551 367.319 L
493.794 367.171 L
494.038 367.023 L
494.281 366.875 L
494.524 366.727 L
494.767 366.579 L
495.01 366.431 L
495.254 366.283 L
495.497 366.135 L
495.74 365.988 L
495.983 365.84 L
496.227 365.693 L
496.47 365.545 L
496.713 365.398 L
496.957 365.251 L
497.2 365.103 L
497.443 364.956 L
497.686 364.809 L
497.93 364.662 L
498.173 364.515 L
498.416 364.368 L
498.659 364.221 L
498.902 364.074 L
499.146 363.928 L
499.389 363.781 L
499.632 363.634 L
499.875 363.488 L
500.119 363.341 L
500.362 363.195 L
500.605 363.049 L
500.849 362.902 L
501.092 362.756 L
501.335 362.61 L
501.578 362.464 L
501.822 362.318 L
502.065 362.172 L
502.308 362.026 L
502.551 361.88 L
502.794 361.735 L
503.038 361.589 L
503.281 361.443 L
503.524 361.298 L
503.767 361.152 L
504.011 361.007 L
504.254 360.861 L
504.497 360.716 L
504.741 360.571 L
504.984 360.426 L
505.227 360.28 L
505.47 360.135 L
505.714 359.99 L
505.957 359.845 L
506.2 359.701 L
506.443 359.556 L
506.686 359.411 L
506.93 359.266 L
507.173 359.122 L
507.416 358.977 L
507.659 358.833 L
507.903 358.688 L
508.146 358.544 L
508.389 358.399 L
508.633 358.255 L
508.876 358.111 L
509.119 357.967 L
509.362 357.823 L
509.605 357.679 L
509.849 357.535 L
510.092 357.391 L
510.335 357.247 L
510.578 357.103 L
510.822 356.96 L
511.065 356.816 L
511.308 356.673 L
511.552 356.529 L
511.795 356.386 L
512.038 356.242 L
512.281 356.099 L
512.524 355.956 L
512.768 355.813 L
513.011 355.669 L
513.254 355.526 L
513.497 355.383 L
513.741 355.24 L
513.984 355.097 L
514.227 354.955 L
514.471 354.812 L
514.714 354.669 L
514.957 354.527 L
515.2 354.384 L
515.443 354.241 L
515.687 354.099 L
515.93 353.957 L
516.173 353.814 L
516.417 353.672 L
516.66 353.53 L
516.903 353.388 L
517.146 353.246 L
517.39 353.103 L
517.633 352.961 L
517.876 352.82 L
518.119 352.678 L
518.362 352.536 L
518.606 352.394 L
518.849 352.253 L
519.092 352.111 L
519.336 351.969 L
519.579 351.828 L
519.822 351.686 L
520.065 351.545 L
520.308 351.404 L
520.552 351.263 L
520.795 351.121 L
521.038 350.98 L
521.281 350.839 L
521.525 350.698 L
521.768 350.557 L
522.011 350.416 L
522.255 350.275 L
522.498 350.135 L
522.741 349.994 L
522.984 349.853 L
523.227 349.713 L
523.471 349.572 L
523.714 349.432 L
523.957 349.291 L
524.201 349.151 L
524.444 349.011 L
524.687 348.87 L
524.93 348.73 L
525.174 348.59 L
525.417 348.45 L
525.66 348.31 L
525.903 348.17 L
526.146 348.03 L
526.39 347.89 L
526.633 347.751 L
526.876 347.611 L
527.12 347.471 L
527.363 347.332 L
527.606 347.192 L
527.849 347.053 L
528.093 346.913 L
528.336 346.774 L
528.579 346.634 L
528.822 346.495 L
529.065 346.356 L
529.309 346.217 L
529.552 346.078 L
529.795 345.939 L
530.039 345.8 L
530.282 345.661 L
530.525 345.522 L
530.768 345.383 L
531.011 345.245 L
531.255 345.106 L
531.498 344.967 L
531.741 344.829 L
531.984 344.69 L
532.228 344.552 L
532.471 344.414 L
532.714 344.275 L
532.958 344.137 L
533.201 343.999 L
533.444 343.861 L
533.687 343.723 L
533.93 343.584 L
534.174 343.447 L
534.417 343.309 L
534.66 343.171 L
534.904 343.033 L
535.147 342.895 L
535.39 342.758 L
535.633 342.62 L
535.877 342.482 L
536.12 342.345 L
536.363 342.207 L
536.606 342.07 L
536.849 341.933 L
537.093 341.795 L
537.336 341.658 L
537.579 341.521 L
537.823 341.384 L
538.066 341.247 L
538.309 341.11 L
538.552 340.973 L
538.795 340.836 L
539.039 340.699 L
539.282 340.562 L
539.525 340.425 L
539.768 340.289 L
540.012 340.152 L
540.255 340.016 L
540.498 339.879 L
540.742 339.743 L
540.985 339.606 L
541.228 339.47 L
541.471 339.334 L
541.714 339.197 L
541.958 339.061 L
542.201 338.925 L
542.444 338.789 L
542.688 338.653 L
542.931 338.517 L
543.174 338.381 L
543.417 338.245 L
543.661 338.11 L
543.904 337.974 L
544.147 337.838 L
544.39 337.703 L
544.633 337.567 L
544.877 337.431 L
545.12 337.296 L
545.363 337.161 L
545.607 337.025 L
545.85 336.89 L
546.093 336.755 L
546.336 336.62 L
546.58 336.484 L
546.823 336.349 L
547.066 336.214 L
547.309 336.079 L
547.552 335.945 L
547.796 335.81 L
548.039 335.675 L
548.282 335.54 L
548.526 335.406 L
548.769 335.271 L
549.012 335.136 L
549.255 335.002 L
549.498 334.867 L
549.742 334.733 L
549.985 334.599 L
550.228 334.464 L
550.471 334.33 L
550.715 334.196 L
550.958 334.062 L
551.201 333.928 L
551.445 333.794 L
551.688 333.66 L
551.931 333.526 L
552.174 333.392 L
552.417 333.258 L
552.661 333.124 L
552.904 332.99 L
553.147 332.857 L
553.391 332.723 L
553.634 332.59 L
553.877 332.456 L
554.12 332.323 L
554.364 332.189 L
554.607 332.056 L
554.85 331.923 L
555.093 331.789 L
555.336 331.656 L
555.58 331.523 L
555.823 331.39 L
556.066 331.257 L
556.31 331.124 L
556.553 330.991 L
556.796 330.858 L
557.039 330.726 L
557.282 330.593 L
557.526 330.46 L
557.769 330.327 L
558.012 330.195 L
558.255 330.062 L
558.499 329.93 L
558.742 329.797 L
558.985 329.665 L
559.229 329.533 L
559.472 329.4 L
559.715 329.268 L
559.958 329.136 L
560.201 329.004 L
560.445 328.872 L
560.688 328.74 L
560.931 328.608 L
561.174 328.476 L
561.418 328.344 L
561.661 328.212 L
561.904 328.081 L
562.148 327.949 L
562.391 327.817 L
562.634 327.686 L
562.877 327.554 L
563.12 327.423 L
563.364 327.291 L
563.607 327.16 L
563.85 327.028 L
564.094 326.897 L
564.337 326.766 L
564.58 326.635 L
564.823 326.503 L
565.067 326.372 L
565.31 326.241 L
565.553 326.11 L
565.796 325.979 L
566.039 325.849 L
566.283 325.718 L
566.526 325.587 L
566.769 325.456 L
567.013 325.326 L
567.256 325.195 L
567.499 325.064 L
567.742 324.934 L
567.985 324.803 L
568.229 324.673 L
568.472 324.543 L
568.715 324.412 L
568.958 324.282 L
569.202 324.152 L
569.445 324.022 L
569.688 323.892 L
569.932 323.762 L
570.175 323.632 L
570.418 323.502 L
570.661 323.372 L
570.904 323.242 L
571.148 323.112 L
571.391 322.982 L
571.634 322.853 L
571.878 322.723 L
572.121 322.593 L
572.364 322.464 L
572.607 322.334 L
572.851 322.205 L
573.094 322.075 L
573.337 321.946 L
573.58 321.817 L
573.823 321.688 L
574.067 321.558 L
574.31 321.429 L
574.553 321.3 L
574.797 321.171 L
575.04 321.042 L
575.283 320.913 L
575.526 320.784 L
575.769 320.655 L
576.013 320.527 L
576.256 320.398 L
576.499 320.269 L
576.742 320.14 L
576.986 320.012 L
577.229 319.883 L
577.472 319.755 L
577.716 319.626 L
577.959 319.498 L
578.202 319.37 L
578.445 319.241 L
578.688 319.113 L
578.932 318.985 L
579.175 318.857 L
579.418 318.729 L
579.661 318.6 L
579.905 318.472 L
580.148 318.345 L
580.391 318.217 L
580.635 318.089 L
580.878 317.961 L
581.121 317.833 L
581.364 317.705 L
581.607 317.578 L
581.851 317.45 L
582.094 317.323 L
582.337 317.195 L
582.581 317.068 L
582.824 316.94 L
583.067 316.813 L
583.31 316.685 L
583.554 316.558 L
583.797 316.431 L
584.04 316.304 L
584.283 316.177 L
584.526 316.05 L
584.77 315.923 L
585.013 315.796 L
585.256 315.669 L
585.5 315.542 L
585.743 315.415 L
585.986 315.288 L
586.229 315.161 L
586.472 315.035 L
586.716 314.908 L
586.959 314.781 L
587.202 314.655 L
587.445 314.528 L
587.689 314.402 L
587.932 314.276 L
588.175 314.149 L
588.419 314.023 L
588.662 313.897 L
588.905 313.77 L
589.148 313.644 L
589.391 313.518 L
589.635 313.392 L
589.878 313.266 L
590.121 313.14 L
590.365 313.014 L
590.608 312.888 L
590.851 312.762 L
591.094 312.637 L
591.338 312.511 L
591.581 312.385 L
591.824 312.26 L
592.067 312.134 L
592.31 312.008 L
592.554 311.883 L
592.797 311.757 L
593.04 311.632 L
593.284 311.507 L
593.527 311.381 L
593.77 311.256 L
594.013 311.131 L
594.256 311.006 L
594.5 310.881 L
594.743 310.756 L
594.986 310.631 L
595.229 310.506 L
595.473 310.381 L
595.716 310.256 L
595.959 310.131 L
596.203 310.006 L
596.446 309.881 L
596.689 309.757 L
596.932 309.632 L
597.175 309.507 L
597.419 309.383 L
597.662 309.258 L
597.905 309.134 L
598.148 309.009 L
598.392 308.885 L
598.635 308.761 L
598.878 308.636 L
599.122 308.512 L
599.365 308.388 L
599.608 308.264 L
599.851 308.14 L
600.094 308.016 L
600.338 307.892 L
600.581 307.768 L
600.824 307.644 L
601.068 307.52 L
601.311 307.396 L
601.554 307.272 L
601.797 307.149 L
602.041 307.025 L
602.284 306.901 L
602.527 306.778 L
602.77 306.654 L
603.013 306.531 L
603.257 306.407 L
603.5 306.284 L
603.743 306.16 L
603.987 306.037 L
604.23 305.914 L
604.473 305.791 L
604.716 305.667 L
604.959 305.544 L
605.203 305.421 L
605.446 305.298 L
605.689 305.175 L
605.932 305.052 L
606.176 304.929 L
606.419 304.806 L
606.662 304.684 L
606.906 304.561 L
607.149 304.438 L
607.392 304.315 L
607.635 304.193 L
607.878 304.07 L
608.122 303.948 L
608.365 303.825 L
608.608 303.703 L
608.852 303.58 L
609.095 303.458 L
609.338 303.336 L
609.581 303.213 L
609.825 303.091 L
610.068 302.969 L
610.311 302.847 L
610.554 302.725 L
610.797 302.603 L
611.041 302.481 L
611.284 302.359 L
611.527 302.237 L
611.771 302.115 L
612.014 301.993 L
612.257 301.871 L
612.5 301.75 L
612.744 301.628 L
612.987 301.506 L
613.23 301.385 L
613.473 301.263 L
613.716 301.141 L
613.96 301.02 L
614.203 300.899 L
614.446 300.777 L
614.69 300.656 L
614.933 300.535 L
615.176 300.413 L
615.419 300.292 L
615.662 300.171 L
615.906 300.05 L
616.149 299.929 L
616.392 299.808 L
616.635 299.687 L
616.879 299.566 L
617.122 299.445 L
617.365 299.324 L
617.609 299.203 L
617.852 299.082 L
618.095 298.962 L
618.338 298.841 L
618.581 298.72 L
618.825 298.6 L
619.068 298.479 L
619.311 298.359 L
619.555 298.238 L
619.798 298.118 L
620.041 297.997 L
620.284 297.877 L
620.528 297.757 L
620.771 297.637 L
621.014 297.516 L
621.257 297.396 L
621.5 297.276 L
621.744 297.156 L
621.987 297.036 L
622.23 296.916 L
622.474 296.796 L
622.717 296.676 L
622.96 296.556 L
623.203 296.437 L
623.446 296.317 L
623.69 296.197 L
623.933 296.077 L
624.176 295.958 L
624.419 295.838 L
624.663 295.719 L
624.906 295.599 L
625.149 295.48 L
625.393 295.36 L
625.636 295.241 L
625.879 295.121 L
626.122 295.002 L
626.365 294.883 L
626.609 294.764 L
626.852 294.645 L
627.095 294.525 L
627.339 294.406 L
627.582 294.287 L
627.825 294.168 L
628.068 294.049 L
628.312 293.93 L
628.555 293.811 L
628.798 293.693 L
629.041 293.574 L
629.284 293.455 L
629.528 293.336 L
629.771 293.218 L
630.014 293.099 L
630.258 292.981 L
630.501 292.862 L
630.744 292.744 L
630.987 292.625 L
631.231 292.507 L
631.474 292.388 L
631.717 292.27 L
631.96 292.152 L
632.203 292.033 L
632.447 291.915 L
632.69 291.797 L
632.933 291.679 L
633.177 291.561 L
633.42 291.443 L
633.663 291.325 L
633.906 291.207 L
634.149 291.089 L
634.393 290.971 L
634.636 290.853 L
634.879 290.736 L
635.122 290.618 L
635.366 290.5 L
635.609 290.383 L
635.852 290.265 L
636.096 290.147 L
636.339 290.03 L
636.582 289.912 L
636.825 289.795 L
637.068 289.677 L
637.312 289.56 L
637.555 289.443 L
637.798 289.325 L
638.042 289.208 L
638.285 289.091 L
638.528 288.974 L
638.771 288.857 L
639.015 288.74 L
639.258 288.623 L
639.501 288.506 L
639.744 288.389 L
639.987 288.272 L
640.231 288.155 L
640.474 288.038 L
640.717 287.921 L
640.961 287.805 L
641.204 287.688 L
641.447 287.571 L
641.69 287.455 L
641.933 287.338 L
642.177 287.221 L
642.42 287.105 L
642.663 286.988 L
642.906 286.872 L
643.15 286.756 L
643.393 286.639 L
643.636 286.523 L
643.88 286.407 L
644.123 286.291 L
644.366 286.174 L
644.609 286.058 L
644.852 285.942 L
645.096 285.826 L
645.339 285.71 L
645.582 285.594 L
645.826 285.478 L
646.069 285.362 L
646.312 285.246 L
646.555 285.131 L
646.799 285.015 L
647.042 284.899 L
647.285 284.783 L
647.528 284.668 L
647.771 284.552 L
648.015 284.437 L
648.258 284.321 L
648.501 284.205 L
648.745 284.09 L
648.988 283.975 L
649.231 283.859 L
649.474 283.744 L
649.718 283.629 L
649.961 283.513 L
650.204 283.398 L
650.447 283.283 L
650.69 283.168 L
650.934 283.053 L
651.177 282.938 L
651.42 282.823 L
651.664 282.708 L
651.907 282.593 L
652.15 282.478 L
652.393 282.363 L
652.636 282.248 L
652.88 282.133 L
653.123 282.019 L
653.366 281.904 L
653.609 281.789 L
653.853 281.675 L
654.096 281.56 L
654.339 281.446 L
654.583 281.331 L
654.826 281.217 L
655.069 281.102 L
655.312 280.988 L
655.555 280.873 L
655.799 280.759 L
656.042 280.645 L
656.285 280.531 L
656.529 280.416 L
656.772 280.302 L
657.015 280.188 L
657.258 280.074 L
657.502 279.96 L
657.745 279.846 L
657.988 279.732 L
658.231 279.618 L
658.474 279.504 L
658.718 279.391 L
658.961 279.277 L
659.204 279.163 L
659.448 279.049 L
659.691 278.936 L
659.934 278.822 L
660.177 278.708 L
660.42 278.595 L
660.664 278.481 L
660.907 278.368 L
661.15 278.254 L
661.393 278.141 L
661.637 278.028 L
661.88 277.914 L
662.123 277.801 L
662.367 277.688 L
662.61 277.574 L
662.853 277.461 L
663.096 277.348 L
663.339 277.235 L
663.583 277.122 L
663.826 277.009 L
664.069 276.896 L
664.313 276.783 L
664.556 276.67 L
664.799 276.557 L
665.042 276.444 L
665.286 276.332 L
665.529 276.219 L
665.772 276.106 L
666.015 275.993 L
666.258 275.881 L
666.502 275.768 L
666.745 275.656 L
666.988 275.543 L
667.232 275.431 L
667.475 275.318 L
667.718 275.206 L
667.961 275.093 L
668.205 274.981 L
668.448 274.869 L
668.691 274.756 L
668.934 274.644 L
669.177 274.532 L
669.421 274.42 L
669.664 274.308 L
669.907 274.196 L
670.151 274.084 L
670.394 273.972 L
670.637 273.86 L
670.88 273.748 L
671.123 273.636 L
671.367 273.524 L
671.61 273.412 L
671.853 273.3 L
672.096 273.189 L
672.34 273.077 L
672.583 272.965 L
672.826 272.854 L
673.07 272.742 L
673.313 272.631 L
673.556 272.519 L
673.799 272.408 L
674.042 272.296 L
674.286 272.185 L
674.529 272.073 L
674.772 271.962 L
675.016 271.851 L
675.259 271.74 L
675.502 271.628 L
675.745 271.517 L
675.989 271.406 L
676.232 271.295 L
676.475 271.184 L
676.718 271.073 L
676.961 270.962 L
677.205 270.851 L
677.448 270.74 L
677.691 270.629 L
677.935 270.518 L
678.178 270.407 L
678.421 270.297 L
678.664 270.186 L
678.907 270.075 L
679.151 269.965 L
679.394 269.854 L
679.637 269.743 L
679.88 269.633 L
680.124 269.522 L
680.367 269.412 L
680.61 269.301 L
680.854 269.191 L
681.097 269.081 L
681.34 268.97 L
681.583 268.86 L
681.826 268.75 L
682.07 268.64 L
682.313 268.529 L
682.556 268.419 L
682.799 268.309 L
683.043 268.199 L
683.286 268.089 L
683.529 267.979 L
683.773 267.869 L
684.016 267.759 L
684.259 267.649 L
684.502 267.539 L
684.745 267.43 L
684.989 267.32 L
685.232 267.21 L
685.475 267.1 L
685.719 266.991 L
685.962 266.881 L
686.205 266.771 L
686.448 266.662 L
686.692 266.552 L
686.935 266.443 L
687.178 266.333 L
687.421 266.224 L
687.664 266.114 L
687.908 266.005 L
688.151 265.896 L
688.394 265.787 L
688.638 265.677 L
688.881 265.568 L
689.124 265.459 L
689.367 265.35 L
689.61 265.241 L
689.854 265.132 L
690.097 265.023 L
690.34 264.914 L
690.583 264.805 L
690.827 264.696 L
691.07 264.587 L
691.313 264.478 L
691.557 264.369 L
691.8 264.26 L
692.043 264.152 L
692.286 264.043 L
692.529 263.934 L
692.773 263.826 L
693.016 263.717 L
693.259 263.608 L
693.503 263.5 L
693.746 263.391 L
693.989 263.283 L
694.232 263.174 L
694.476 263.066 L
694.719 262.958 L
694.962 262.849 L
695.205 262.741 L
695.448 262.633 L
695.692 262.525 L
695.935 262.416 L
696.178 262.308 L
696.422 262.2 L
696.665 262.092 L
696.908 261.984 L
697.151 261.876 L
697.394 261.768 L
697.638 261.66 L
697.881 261.552 L
698.124 261.444 L
698.367 261.337 L
698.611 261.229 L
698.854 261.121 L
699.097 261.013 L
699.341 260.906 L
699.584 260.798 L
699.827 260.69 L
700.07 260.583 L
700.313 260.475 L
700.557 260.368 L
700.8 260.26 L
701.043 260.153 L
701.286 260.045 L
701.53 259.938 L
701.773 259.831 L
702.016 259.723 L
702.26 259.616 L
702.503 259.509 L
702.746 259.402 L
702.989 259.294 L
703.232 259.187 L
703.476 259.08 L
703.719 258.973 L
703.962 258.866 L
704.206 258.759 L
704.449 258.652 L
704.692 258.545 L
704.935 258.438 L
705.179 258.331 L
705.422 258.225 L
705.665 258.118 L
705.908 258.011 L
706.151 257.904 L
706.395 257.798 L
706.638 257.691 L
706.881 257.584 L
707.125 257.478 L
707.368 257.371 L
707.611 257.265 L
707.854 257.158 L
708.097 257.052 L
708.341 256.945 L
708.584 256.839 L
708.827 256.733 L
709.07 256.626 L
709.314 256.52 L
709.557 256.414 L
709.8 256.308 L
710.044 256.201 L
710.287 256.095 L
710.53 255.989 L
710.773 255.883 L
711.016 255.777 L
711.26 255.671 L
711.503 255.565 L
711.746 255.459 L
711.99 255.353 L
712.233 255.247 L
712.476 255.141 L
712.719 255.036 L
712.963 254.93 L
713.206 254.824 L
713.449 254.718 L
713.692 254.613 L
713.935 254.507 L
714.179 254.401 L
714.422 254.296 L
714.665 254.19 L
714.909 254.085 L
715.152 253.979 L
715.395 253.874 L
715.638 253.769 L
715.881 253.663 L
716.125 253.558 L
716.368 253.452 L
716.611 253.347 L
716.854 253.242 L
717.098 253.137 L
717.341 253.032 L
717.584 252.926 L
717.828 252.821 L
718.071 252.716 L
718.314 252.611 L
718.557 252.506 L
718.8 252.401 L
719.044 252.296 L
719.287 252.191 L
719.53 252.087 L
719.773 251.982 L
720.017 251.877 L
720.26 251.772 L
720.503 251.667 L
720.747 251.563 L
720.99 251.458 L
721.233 251.353 L
721.476 251.249 L
721.719 251.144 L
721.963 251.04 L
722.206 250.935 L
722.449 250.831 L
722.693 250.726 L
722.936 250.622 L
723.179 250.517 L
723.422 250.413 L
723.666 250.309 L
723.909 250.204 L
724.152 250.1 L
724.395 249.996 L
724.638 249.892 L
724.882 249.788 L
725.125 249.683 L
725.368 249.579 L
725.612 249.475 L
725.855 249.371 L
726.098 249.267 L
726.341 249.163 L
726.584 249.059 L
726.828 248.955 L
727.071 248.852 L
727.314 248.748 L
727.557 248.644 L
727.801 248.54 L
728.044 248.436 L
728.287 248.333 L
728.531 248.229 L
728.774 248.125 L
729.017 248.022 L
729.26 247.918 L
729.503 247.815 L
729.747 247.711 L
729.99 247.608 L
730.233 247.504 L
730.477 247.401 L
730.72 247.298 L
730.963 247.194 L
731.206 247.091 L
731.45 246.988 L
731.693 246.884 L
731.936 246.781 L
732.179 246.678 L
732.422 246.575 L
732.666 246.472 L
732.909 246.369 L
733.152 246.266 L
733.396 246.162 L
733.639 246.059 L
733.882 245.957 L
734.125 245.854 L
734.369 245.751 L
734.612 245.648 L
734.855 245.545 L
735.098 245.442 L
735.341 245.339 L
735.585 245.237 L
735.828 245.134 L
736.071 245.031 L
736.315 244.929 L
736.558 244.826 L
736.801 244.723 L
737.044 244.621 L
737.287 244.518 L
737.531 244.416 L
737.774 244.313 L
738.017 244.211 L
738.26 244.109 L
738.504 244.006 L
738.747 243.904 L
738.99 243.802 L
739.234 243.699 L
739.477 243.597 L
739.72 243.495 L
739.963 243.393 L
740.206 243.291 L
740.45 243.188 L
740.693 243.086 L
740.936 242.984 L
741.18 242.882 L
741.423 242.78 L
741.666 242.678 L
741.909 242.576 L
742.153 242.475 L
742.396 242.373 L
742.639 242.271 L
742.882 242.169 L
743.125 242.067 L
743.369 241.966 L
743.612 241.864 L
743.855 241.762 L
744.099 241.661 L
744.342 241.559 L
744.585 241.457 L
744.828 241.356 L
745.071 241.254 L
745.315 241.153 L
745.558 241.051 L
745.801 240.95 L
746.044 240.848 L
746.288 240.747 L
746.531 240.646 L
746.774 240.544 L
747.018 240.443 L
747.261 240.342 L
747.504 240.241 L
747.747 240.14 L
747.99 240.038 L
748.234 239.937 L
748.477 239.836 L
748.72 239.735 L
748.964 239.634 L
749.207 239.533 L
749.45 239.432 L
749.693 239.331 L
749.937 239.23 L
750.18 239.129 L
750.423 239.029 L
750.666 238.928 L
750.909 238.827 L
751.153 238.726 L
751.396 238.625 L
751.639 238.525 L
751.883 238.424 L
752.126 238.324 L
752.369 238.223 L
752.612 238.122 L
752.856 238.022 L
753.099 237.921 L
753.342 237.821 L
753.585 237.72 L
753.828 237.62 L
754.072 237.52 L
754.315 237.419 L
754.558 237.319 L
754.802 237.219 L
755.045 237.118 L
755.288 237.018 L
755.531 236.918 L
755.774 236.818 L
756.018 236.718 L
756.261 236.617 L
756.504 236.517 L
756.747 236.417 L
756.991 236.317 L
757.234 236.217 L
757.477 236.117 L
757.721 236.017 L
757.964 235.917 L
758.207 235.818 L
758.45 235.718 L
758.693 235.618 L
758.937 235.518 L
759.18 235.418 L
759.423 235.319 L
759.667 235.219 L
759.91 235.119 L
760.153 235.02 L
760.396 234.92 L
760.64 234.82 L
760.883 234.721 L
761.126 234.621 L
761.369 234.522 L
761.612 234.422 L
761.856 234.323 L
762.099 234.224 L
762.342 234.124 L
762.586 234.025 L
762.829 233.926 L
763.072 233.826 L
763.315 233.727 L
763.558 233.628 L
763.802 233.529 L
764.045 233.429 L
764.288 233.33 L
764.531 233.231 L
764.775 233.132 L
765.018 233.033 L
765.261 232.934 L
765.505 232.835 L
765.748 232.736 L
765.991 232.637 L
766.234 232.538 L
766.477 232.439 L
766.721 232.341 L
766.964 232.242 L
767.207 232.143 L
767.451 232.044 L
767.694 231.945 L
767.937 231.847 L
768.18 231.748 L
768.424 231.649 L
768.667 231.551 L
768.91 231.452 L
769.153 231.354 L
769.396 231.255 L
769.64 231.157 L
769.883 231.058 L
770.126 230.96 L
770.37 230.861 L
770.613 230.763 L
770.856 230.665 L
771.099 230.566 L
771.343 230.468 L
771.586 230.37 L
771.829 230.272 L
772.072 230.173 L
772.315 230.075 L
772.559 229.977 L
772.802 229.879 L
773.045 229.781 L
773.289 229.683 L
773.532 229.585 L
773.775 229.487 L
774.018 229.389 L
774.261 229.291 L
774.505 229.193 L
774.748 229.095 L
774.991 228.997 L
775.234 228.899 L
775.478 228.802 L
775.721 228.704 L
775.964 228.606 L
776.208 228.508 L
776.451 228.411 L
776.694 228.313 L
776.937 228.216 L
777.18 228.118 L
777.424 228.02 L
777.667 227.923 L
777.91 227.825 L
778.154 227.728 L
778.397 227.63 L
778.64 227.533 L
778.883 227.436 L
779.127 227.338 L
779.37 227.241 L
779.613 227.144 L
779.856 227.046 L
780.099 226.949 L
780.343 226.852 L
780.586 226.755 L
780.829 226.657 L
781.073 226.56 L
781.316 226.463 L
781.559 226.366 L
781.802 226.269 L
782.045 226.172 L
782.289 226.075 L
782.532 225.978 L
782.775 225.881 L
783.018 225.784 L
783.262 225.687 L
783.505 225.59 L
783.748 225.494 L
783.992 225.397 L
784.235 225.3 L
784.478 225.203 L
784.721 225.107 L
784.964 225.01 L
785.208 224.913 L
785.451 224.817 L
785.694 224.72 L
785.938 224.623 L
786.181 224.527 L
786.424 224.43 L
786.667 224.334 L
786.911 224.237 L
787.154 224.141 L
787.397 224.045 L
787.64 223.948 L
787.883 223.852 L
788.127 223.755 L
788.37 223.659 L
788.613 223.563 L
788.857 223.467 L
789.1 223.37 L
789.343 223.274 L
789.586 223.178 L
789.83 223.082 L
790.073 222.986 L
790.316 222.89 L
790.559 222.794 L
790.802 222.698 L
791.046 222.602 L
791.289 222.506 L
791.532 222.41 L
791.776 222.314 L
792.019 222.218 L
792.262 222.122 L
792.505 222.026 L
792.748 221.931 L
792.992 221.835 L
793.235 221.739 L
793.478 221.643 L
793.721 221.548 L
793.965 221.452 L
794.208 221.356 L
794.451 221.261 L
794.695 221.165 L
794.938 221.07 L
795.181 220.974 L
795.424 220.879 L
795.667 220.783 L
795.911 220.688 L
796.154 220.592 L
796.397 220.497 L
796.641 220.402 L
796.884 220.306 L
797.127 220.211 L
797.37 220.116 L
797.614 220.02 L
797.857 219.925 L
798.1 219.83 L
798.343 219.735 L
798.586 219.64 L
798.83 219.544 L
799.073 219.449 L
799.316 219.354 L
799.56 219.259 L
799.803 219.164 L
800.046 219.069 L
800.289 218.974 L
800.532 218.879 L
800.776 218.785 L
801.019 218.69 L
801.262 218.595 L
801.505 218.5 L
801.749 218.405 L
801.992 218.31 L
802.235 218.216 L
802.479 218.121 L
802.722 218.026 L
802.965 217.932 L
803.208 217.837 L
803.451 217.742 L
803.695 217.648 L
803.938 217.553 L
804.181 217.459 L
804.424 217.364 L
804.668 217.27 L
804.911 217.175 L
805.154 217.081 L
805.398 216.987 L
805.641 216.892 L
805.884 216.798 L
806.127 216.704 L
806.37 216.609 L
806.614 216.515 L
806.857 216.421 L
807.1 216.327 L
807.344 216.232 L
807.587 216.138 L
807.83 216.044 L
808.073 215.95 L
808.317 215.856 L
808.56 215.762 L
808.803 215.668 L
809.046 215.574 L
809.289 215.48 L
809.533 215.386 L
809.776 215.292 L
810.019 215.198 L
810.263 215.104 L
810.506 215.011 L
810.749 214.917 L
810.992 214.823 L
811.235 214.729 L
811.479 214.636 L
811.722 214.542 L
811.965 214.448 L
812.208 214.355 L
812.452 214.261 L
812.695 214.167 L
812.938 214.074 L
813.182 213.98 L
813.425 213.887 L
813.668 213.793 L
813.911 213.7 L
814.154 213.606 L
814.398 213.513 L
814.641 213.42 L
814.884 213.326 L
815.128 213.233 L
815.371 213.14 L
815.614 213.046 L
815.857 212.953 L
816.101 212.86 L
816.344 212.767 L
816.587 212.673 L
816.83 212.58 L
817.073 212.487 L
817.317 212.394 L
817.56 212.301 L
817.803 212.208 L
818.047 212.115 L
818.29 212.022 L
818.533 211.929 L
818.776 211.836 L
819.019 211.743 L
819.263 211.65 L
819.506 211.557 L
819.749 211.465 L
819.992 211.372 L
820.236 211.279 L
820.479 211.186 L
820.722 211.093 L
820.966 211.001 L
821.209 210.908 L
821.452 210.815 L
821.695 210.723 L
821.938 210.63 L
822.182 210.538 L
822.425 210.445 L
822.668 210.353 L
822.911 210.26 L
823.155 210.168 L
823.398 210.075 L
823.641 209.983 L
823.885 209.89 L
824.128 209.798 L
824.371 209.706 L
824.614 209.613 L
824.857 209.521 L
825.101 209.429 L
825.344 209.336 L
825.587 209.244 L
825.831 209.152 L
826.074 209.06 L
826.317 208.968 L
826.56 208.876 L
826.804 208.783 L
827.047 208.691 L
827.29 208.599 L
827.533 208.507 L
827.776 208.415 L
828.02 208.323 L
828.263 208.231 L
828.506 208.14 L
828.75 208.048 L
828.993 207.956 L
829.236 207.864 L
829.479 207.772 L
829.722 207.68 L
829.966 207.589 L
830.209 207.497 L
830.452 207.405 L
830.695 207.313 L
830.939 207.222 L
831.182 207.13 L
831.425 207.039 L
831.669 206.947 L
831.912 206.855 L
832.155 206.764 L
832.398 206.672 L
832.641 206.581 L
832.885 206.489 L
833.128 206.398 L
833.371 206.307 L
833.615 206.215 L
833.858 206.124 L
834.101 206.033 L
834.344 205.941 L
834.588 205.85 L
834.831 205.759 L
835.074 205.667 L
835.317 205.576 L
835.56 205.485 L
835.804 205.394 L
836.047 205.303 L
836.29 205.212 L
836.534 205.121 L
836.777 205.029 L
837.02 204.938 L
837.263 204.847 L
837.506 204.756 L
837.75 204.666 L
837.993 204.575 L
838.236 204.484 L
838.479 204.393 L
838.723 204.302 L
838.966 204.211 L
839.209 204.12 L
839.453 204.029 L
839.696 203.939 L
839.939 203.848 L
840.182 203.757 L
840.425 203.667 L
840.669 203.576 L
840.912 203.485 L
841.155 203.395 L
841.398 203.304 L
841.642 203.214 L
841.885 203.123 L
842.128 203.032 L
842.372 202.942 L
842.615 202.852 L
842.858 202.761 L
843.101 202.671 L
843.344 202.58 L
843.588 202.49 L
843.831 202.4 L
844.074 202.309 L
844.318 202.219 L
844.561 202.129 L
844.804 202.038 L
845.047 201.948 L
845.291 201.858 L
845.534 201.768 L
845.777 201.678 L
846.02 201.588 L
846.263 201.497 L
846.507 201.407 L
846.75 201.317 L
846.993 201.227 L
847.237 201.137 L
847.48 201.047 L
847.723 200.957 L
847.966 200.867 L
848.209 200.778 L
848.453 200.688 L
848.696 200.598 L
848.939 200.508 L
849.182 200.418 L
849.426 200.328 L
849.669 200.239 L
849.912 200.149 L
850.156 200.059 L
850.399 199.969 L
850.642 199.88 L
850.885 199.79 L
851.128 199.701 L
851.372 199.611 L
851.615 199.521 L
851.858 199.432 L
852.102 199.342 L
852.345 199.253 L
852.588 199.163 L
852.831 199.074 L
853.075 198.985 L
853.318 198.895 L
853.561 198.806 L
853.804 198.716 L
854.047 198.627 L
854.291 198.538 L
854.534 198.449 L
854.777 198.359 L
855.021 198.27 L
855.264 198.181 L
855.507 198.092 L
855.75 198.002 L
855.994 197.913 L
856.237 197.824 L
856.48 197.735 L
856.723 197.646 L
856.966 197.557 L
857.21 197.468 L
857.453 197.379 L
857.696 197.29 L
857.94 197.201 L
858.183 197.112 L
858.426 197.023 L
858.669 196.934 L
858.912 196.846 L
859.156 196.757 L
859.399 196.668 L
859.642 196.579 L
859.885 196.49 L
860.129 196.402 L
860.372 196.313 L
860.615 196.224 L
860.859 196.136 L
861.102 196.047 L
861.345 195.958 L
861.588 195.87 L
861.831 195.781 L
862.075 195.693 L
862.318 195.604 L
862.561 195.516 L
862.805 195.427 L
863.048 195.339 L
863.291 195.25 L
863.534 195.162 L
863.778 195.074 L
864.021 194.985 L
864.264 194.897 L
864.507 194.809 L
864.75 194.72 L
864.994 194.632 L
865.237 194.544 L
865.48 194.456 L
865.724 194.367 L
865.967 194.279 L
866.21 194.191 L
866.453 194.103 L
866.696 194.015 L
866.94 193.927 L
867.183 193.839 L
867.426 193.751 L
867.669 193.663 L
867.913 193.575 L
868.156 193.487 L
868.399 193.399 L
868.643 193.311 L
868.886 193.223 L
869.129 193.135 L
869.372 193.047 L
869.615 192.959 L
869.859 192.872 L
870.102 192.784 L
870.345 192.696 L
870.589 192.608 L
870.832 192.521 L
871.075 192.433 L
871.318 192.345 L
871.562 192.258 L
871.805 192.17 L
872.048 192.083 L
872.291 191.995 L
872.534 191.907 L
872.778 191.82 L
873.021 191.732 L
873.264 191.645 L
873.508 191.557 L
873.751 191.47 L
873.994 191.383 L
874.237 191.295 L
874.481 191.208 L
874.724 191.121 L
874.967 191.033 L
875.21 190.946 L
875.453 190.859 L
875.697 190.771 L
875.94 190.684 L
876.183 190.597 L
876.427 190.51 L
876.67 190.423 L
876.913 190.336 L
877.156 190.248 L
877.399 190.161 L
877.643 190.074 L
877.886 189.987 L
878.129 189.9 L
878.372 189.813 L
878.616 189.726 L
878.859 189.639 L
879.102 189.552 L
879.346 189.466 L
879.589 189.379 L
879.832 189.292 L
880.075 189.205 L
880.318 189.118 L
880.562 189.031 L
880.805 188.945 L
881.048 188.858 L
881.292 188.771 L
881.535 188.684 L
881.778 188.598 L
882.021 188.511 L
882.265 188.424 L
882.508 188.338 L
882.751 188.251 L
882.994 188.165 L
883.237 188.078 L
883.481 187.992 L
883.724 187.905 L
883.967 187.819 L
884.211 187.732 L
884.454 187.646 L
884.697 187.559 L
884.94 187.473 L
885.183 187.387 L
885.427 187.3 L
885.67 187.214 L
885.913 187.128 L
886.156 187.041 L
886.4 186.955 L
886.643 186.869 L
886.886 186.783 L
887.13 186.697 L
887.373 186.61 L
887.616 186.524 L
887.859 186.438 L
888.102 186.352 L
888.346 186.266 L
888.589 186.18 L
888.832 186.094 L
889.076 186.008 L
889.319 185.922 L
889.562 185.836 L
889.805 185.75 L
890.049 185.664 L
890.292 185.578 L
890.535 185.492 L
890.778 185.406 L
891.021 185.321 L
891.265 185.235 L
891.508 185.149 L
891.751 185.063 L
891.995 184.978 L
892.238 184.892 L
892.481 184.806 L
892.724 184.72 L
892.968 184.635 L
893.211 184.549 L
893.454 184.464 L
893.697 184.378 L
893.94 184.292 L
894.184 184.207 L
894.427 184.121 L
894.67 184.036 L
894.914 183.95 L
895.157 183.865 L
895.4 183.78 L
895.643 183.694 L
895.886 183.609 L
896.13 183.523 L
896.373 183.438 L
896.616 183.353 L
896.859 183.267 L
897.103 183.182 L
897.346 183.097 L
897.589 183.012 L
897.833 182.926 L
898.076 182.841 L
898.319 182.756 L
898.562 182.671 L
898.805 182.586 L
899.049 182.501 L
899.292 182.416 L
899.535 182.331 L
899.779 182.245 L
900.022 182.16 L
900.265 182.075 L
900.508 181.99 L
900.752 181.906 L
900.995 181.821 L
901.238 181.736 L
901.481 181.651 L
901.724 181.566 L
901.968 181.481 L
902.211 181.396 L
902.454 181.311 L
902.698 181.227 L
902.941 181.142 L
903.184 181.057 L
903.427 180.972 L
903.67 180.888 L
903.914 180.803 L
904.157 180.718 L
904.4 180.634 L
904.643 180.549 L
904.887 180.465 L
905.13 180.38 L
905.373 180.296 L
905.617 180.211 L
905.86 180.127 L
906.103 180.042 L
906.346 179.958 L
906.589 179.873 L
906.833 179.789 L
907.076 179.704 L
907.319 179.62 L
907.563 179.536 L
907.806 179.451 L
908.049 179.367 L
908.292 179.283 L
908.536 179.198 L
908.779 179.114 L
909.022 179.03 L
909.265 178.946 L
909.508 178.862 L
909.752 178.777 L
909.995 178.693 L
910.238 178.609 L
910.482 178.525 L
910.725 178.441 L
910.968 178.357 L
911.211 178.273 L
911.455 178.189 L
911.698 178.105 L
911.941 178.021 L
912.184 177.937 L
912.427 177.853 L
912.671 177.769 L
912.914 177.685 L
913.157 177.601 L
913.401 177.518 L
913.644 177.434 L
913.887 177.35 L
914.13 177.266 L
914.373 177.182 L
914.617 177.099 L
914.86 177.015 L
915.103 176.931 L
915.346 176.848 L
915.59 176.764 L
915.833 176.68 L
916.076 176.597 L
916.32 176.513 L
916.563 176.43 L
916.806 176.346 L
917.049 176.263 L
917.292 176.179 L
917.536 176.096 L
917.779 176.012 L
918.022 175.929 L
918.266 175.845 L
918.509 175.762 L
918.752 175.678 L
918.995 175.595 L
919.239 175.512 L
919.482 175.428 L
919.725 175.345 L
919.968 175.262 L
920.211 175.179 L
920.455 175.095 L
920.698 175.012 L
920.941 174.929 L
921.185 174.846 L
921.428 174.763 L
921.671 174.68 L
921.914 174.596 L
922.157 174.513 L
922.401 174.43 L
922.644 174.347 L
922.887 174.264 L
923.13 174.181 L
923.374 174.098 L
923.617 174.015 L
923.86 173.932 L
924.104 173.849 L
924.347 173.766 L
924.59 173.684 L
924.833 173.601 L
925.076 173.518 L
925.32 173.435 L
925.563 173.352 L
925.806 173.269 L
926.049 173.187 L
926.293 173.104 L
926.536 173.021 L
926.779 172.939 L
927.023 172.856 L
927.266 172.773 L
927.509 172.691 L
927.752 172.608 L
927.995 172.525 L
928.239 172.443 L
928.482 172.36 L
928.725 172.278 L
928.969 172.195 L
929.212 172.113 L
929.455 172.03 L
929.698 171.948 L
929.942 171.865 L
930.185 171.783 L
930.428 171.701 L
930.671 171.618 L
930.914 171.536 L
931.158 171.454 L
931.401 171.371 L
931.644 171.289 L
931.888 171.207 L
932.131 171.124 L
932.374 171.042 L
932.617 170.96 L
932.86 170.878 L
933.104 170.796 L
933.347 170.713 L
933.59 170.631 L
933.833 170.549 L
934.077 170.467 L
934.32 170.385 L
934.563 170.303 L
934.807 170.221 L
935.05 170.139 L
935.293 170.057 L
935.536 169.975 L
935.779 169.893 L
936.023 169.811 L
936.266 169.729 L
936.509 169.647 L
936.753 169.566 L
936.996 169.484 L
937.239 169.402 L
937.482 169.32 L
937.726 169.238 L
937.969 169.157 L
938.212 169.075 L
938.455 168.993 L
938.698 168.911 L
938.942 168.83 L
939.185 168.748 L
939.428 168.666 L
939.672 168.585 L
939.915 168.503 L
940.158 168.422 L
940.401 168.34 L
940.644 168.258 L
940.888 168.177 L
941.131 168.095 L
941.374 168.014 L
941.617 167.933 L
941.861 167.851 L
942.104 167.77 L
942.347 167.688 L
942.591 167.607 L
942.834 167.525 L
943.077 167.444 L
943.32 167.363 L
943.563 167.282 L
943.807 167.2 L
944.05 167.119 L
944.293 167.038 L
944.536 166.957 L
944.78 166.875 L
945.023 166.794 L
945.266 166.713 L
945.51 166.632 L
945.753 166.551 L
945.996 166.47 L
946.239 166.388 L
946.482 166.307 L
946.726 166.226 L
946.969 166.145 L
947.212 166.064 L
947.456 165.983 L
947.699 165.902 L
947.942 165.821 L
948.185 165.741 L
948.429 165.66 L
948.672 165.579 L
948.915 165.498 L
949.158 165.417 L
949.401 165.336 L
949.645 165.255 L
949.888 165.175 L
950.131 165.094 L
950.375 165.013 L
950.618 164.932 L
950.861 164.852 L
951.104 164.771 L
951.347 164.69 L
951.591 164.61 L
951.834 164.529 L
952.077 164.448 L
952.32 164.368 L
952.564 164.287 L
952.807 164.207 L
953.05 164.126 L
953.294 164.046 L
953.537 163.965 L
953.78 163.885 L
954.023 163.804 L
954.266 163.724 L
954.51 163.643 L
954.753 163.563 L
954.996 163.482 L
955.24 163.402 L
955.483 163.322 L
955.726 163.241 L
955.969 163.161 L
956.213 163.081 L
956.456 163.001 L
956.699 162.92 L
956.942 162.84 L
957.185 162.76 L
957.429 162.68 L
957.672 162.6 L
957.915 162.519 L
958.159 162.439 L
958.402 162.359 L
958.645 162.279 L
958.888 162.199 L
959.131 162.119 L
959.375 162.039 L
959.618 161.959 L
959.861 161.879 L
960.104 161.799 L
960.348 161.719 L
960.591 161.639 L
960.834 161.559 L
961.078 161.479 L
961.321 161.399 L
961.564 161.319 L
961.807 161.24 L
962.05 161.16 L
962.294 161.08 L
962.537 161 L
962.78 160.92 L
963.023 160.841 L
963.267 160.761 L
963.51 160.681 L
963.753 160.602 L
963.997 160.522 L
964.24 160.442 L
964.483 160.363 L
964.726 160.283 L
964.969 160.203 L
965.213 160.124 L
965.456 160.044 L
965.699 159.965 L
965.943 159.885 L
966.186 159.806 L
966.429 159.726 L
966.672 159.647 L
966.916 159.567 L
967.159 159.488 L
967.402 159.409 L
967.645 159.329 L
967.888 159.25 L
968.132 159.17 L
968.375 159.091 L
968.618 159.012 L
968.862 158.932 L
969.105 158.853 L
969.348 158.774 L
969.591 158.695 L
969.834 158.616 L
970.078 158.536 L
970.321 158.457 L
970.564 158.378 L
970.807 158.299 L
971.051 158.22 L
971.294 158.141 L
971.537 158.062 L
971.781 157.982 L
972.024 157.903 L
972.267 157.824 L
972.51 157.745 L
972.753 157.666 L
972.997 157.587 L
973.24 157.508 L
973.483 157.43 L
973.727 157.351 L
973.97 157.272 L
974.213 157.193 L
974.456 157.114 L
974.7 157.035 L
974.943 156.956 L
975.186 156.878 L
975.429 156.799 L
975.672 156.72 L
975.916 156.641 L
976.159 156.563 L
976.402 156.484 L
976.646 156.405 L
976.889 156.326 L
977.132 156.248 L
977.375 156.169 L
977.619 156.091 L
977.862 156.012 L
978.105 155.933 L
978.348 155.855 L
978.591 155.776 L
978.835 155.698 L
979.078 155.619 L
979.321 155.541 L
979.565 155.462 L
979.808 155.384 L
980.051 155.305 L
980.294 155.227 L
980.537 155.149 L
980.781 155.07 L
981.024 154.992 L
981.267 154.913 L
981.51 154.835 L
981.754 154.757 L
981.997 154.679 L
982.24 154.6 L
982.484 154.522 L
982.727 154.444 L
982.97 154.366 L
983.213 154.287 L
983.456 154.209 L
983.7 154.131 L
983.943 154.053 L
984.186 153.975 L
984.43 153.897 L
984.673 153.819 L
984.916 153.741 L
985.159 153.663 L
985.403 153.585 L
985.646 153.507 L
985.889 153.428 L
986.132 153.351 L
986.375 153.273 L
986.619 153.195 L
986.862 153.117 L
987.105 153.039 L
987.349 152.961 L
987.592 152.883 L
987.835 152.805 L
988.078 152.727 L
988.321 152.65 L
988.565 152.572 L
988.808 152.494 L
989.051 152.416 L
989.294 152.339 L
989.538 152.261 L
989.781 152.183 L
990.024 152.105 L
990.268 152.028 L
990.511 151.95 L
990.754 151.872 L
990.997 151.795 L
991.24 151.717 L
991.484 151.64 L
991.727 151.562 L
991.97 151.485 L
992.214 151.407 L
992.457 151.33 L
992.7 151.252 L
992.943 151.175 L
993.187 151.097 L
993.43 151.02 L
993.673 150.942 L
993.916 150.865 L
994.159 150.788 L
994.403 150.71 L
994.646 150.633 L
994.889 150.556 L
995.133 150.478 L
995.376 150.401 L
995.619 150.324 L
995.862 150.246 L
996.106 150.169 L
996.349 150.092 L
996.592 150.015 L
996.835 149.938 L
997.078 149.861 L
997.322 149.783 L
997.565 149.706 L
997.808 149.629 L
998.052 149.552 L
998.295 149.475 L
998.538 149.398 L
998.781 149.321 L
999.024 149.244 L
999.268 149.167 L
999.511 149.09 L
999.754 149.013 L
999.997 148.936 L
1000.241 148.859 L
1000.484 148.782 L
1000.727 148.705 L
1000.971 148.628 L
1001.214 148.551 L
1001.457 148.475 L
1001.7 148.398 L
1001.943 148.321 L
1002.187 148.244 L
1002.43 148.167 L
1002.673 148.091 L
1002.917 148.014 L
1003.16 147.937 L
1003.403 147.861 L
1003.646 147.784 L
1003.89 147.707 L
1004.133 147.631 L
1004.376 147.554 L
1004.619 147.477 L
1004.862 147.401 L
1005.106 147.324 L
1005.349 147.248 L
1005.592 147.171 L
1005.836 147.095 L
1006.079 147.018 L
1006.322 146.942 L
1006.565 146.865 L
1006.808 146.789 L
1007.052 146.712 L
1007.295 146.636 L
1007.538 146.559 L
1007.781 146.483 L
1008.025 146.407 L
1008.268 146.33 L
1008.511 146.254 L
1008.755 146.178 L
1008.998 146.101 L
1009.241 146.025 L
1009.484 145.949 L
1009.727 145.873 L
1009.971 145.796 L
1010.214 145.72 L
1010.457 145.644 L
1010.701 145.568 L
1010.944 145.492 L
1011.187 145.415 L
1011.43 145.339 L
1011.674 145.263 L
1011.917 145.187 L
1012.16 145.111 L
1012.403 145.035 L
1012.646 144.959 L
1012.89 144.883 L
1013.133 144.807 L
1013.376 144.731 L
1013.62 144.655 L
1013.863 144.579 L
1014.106 144.503 L
1014.349 144.427 L
1014.593 144.351 L
1014.836 144.275 L
1015.079 144.2 L
1015.322 144.124 L
1015.565 144.048 L
1015.809 143.972 L
1016.052 143.896 L
1016.295 143.821 L
1016.539 143.745 L
1016.782 143.669 L
1017.025 143.593 L
1017.268 143.518 L
1017.511 143.442 L
1017.755 143.366 L
1017.998 143.291 L
1018.241 143.215 L
1018.484 143.139 L
1018.728 143.064 L
1018.971 142.988 L
1019.214 142.913 L
1019.458 142.837 L
1019.701 142.762 L
1019.944 142.686 L
1020.187 142.611 L
1020.43 142.535 L
1020.674 142.46 L
1020.917 142.384 L
1021.16 142.309 L
1021.404 142.233 L
1021.647 142.158 L
1021.89 142.083 L
1022.133 142.007 L
1022.377 141.932 L
1022.62 141.857 L
1022.863 141.781 L
1023.106 141.706 L
1023.349 141.631 L
1023.593 141.555 L
1023.836 141.48 L
1024.079 141.405 L
1024.323 141.33 L
1024.566 141.254 L
1024.809 141.179 L
1025.052 141.104 L
1025.296 141.029 L
1025.539 140.954 L
1025.782 140.879 L
1026.025 140.804 L
1026.269 140.729 L
1026.512 140.654 L
1026.755 140.578 L
1026.998 140.503 L
1027.241 140.428 L
1027.485 140.353 L
1027.728 140.278 L
1027.971 140.204 L
1028.214 140.129 L
1028.458 140.054 L
1028.701 139.979 L
1028.944 139.904 L
1029.188 139.829 L
1029.431 139.754 L
1029.674 139.679 L
1029.917 139.605 L
1030.161 139.53 L
1030.404 139.455 L
1030.647 139.38 L
1030.89 139.305 L
1031.134 139.231 L
1031.377 139.156 L
1031.62 139.081 L
1031.863 139.007 L
1032.106 138.932 L
1032.35 138.857 L
1032.593 138.783 L
1032.836 138.708 L
1033.079 138.633 L
1033.323 138.559 L
1033.566 138.484 L
1033.809 138.41 L
1034.052 138.335 L
1034.296 138.261 L
1034.539 138.186 L
1034.782 138.112 L
1035.026 138.037 L
1035.269 137.963 L
1035.512 137.888 L
1035.755 137.814 L
1035.999 137.739 L
1036.242 137.665 L
1036.485 137.591 L
1036.728 137.516 L
1036.972 137.442 L
1037.215 137.368 L
1037.458 137.293 L
1037.701 137.219 L
1037.944 137.145 L
1038.188 137.071 L
1038.431 136.996 L
1038.674 136.922 L
1038.917 136.848 L
1039.161 136.774 L
1039.404 136.7 L
1039.647 136.625 L
1039.891 136.551 L
1040.134 136.477 L
1040.377 136.403 L
1040.62 136.329 L
1040.864 136.255 L
1041.107 136.181 L
1041.35 136.107 L
1041.593 136.033 L
1041.837 135.959 L
1042.08 135.885 L
1042.323 135.811 L
1042.566 135.737 L
1042.809 135.663 L
1043.053 135.589 L
1043.296 135.515 L
1043.539 135.441 L
1043.782 135.367 L
1044.026 135.293 L
1044.269 135.219 L
1044.512 135.146 L
1044.755 135.072 L
1044.999 134.998 L
1045.242 134.924 L
1045.485 134.851 L
1045.729 134.777 L
1045.972 134.703 L
1046.215 134.629 L
1046.458 134.556 L
1046.702 134.482 L
1046.945 134.408 L
1047.188 134.335 L
1047.431 134.261 L
1047.675 134.187 L
1047.918 134.114 L
1048.161 134.04 L
1048.404 133.967 L
1048.647 133.893 L
1048.891 133.82 L
1049.134 133.746 L
1049.377 133.673 L
1049.62 133.599 L
1049.864 133.526 L
1050.107 133.452 L
1050.35 133.379 L
1050.594 133.305 L
1050.837 133.232 L
1051.08 133.159 L
1051.323 133.085 L
1051.567 133.012 L
1051.81 132.938 L
1052.053 132.865 L
1052.296 132.792 L
1052.54 132.719 L
1052.783 132.645 L
1053.026 132.572 L
1053.269 132.499 L
1053.512 132.426 L
1053.756 132.352 L
1053.999 132.279 L
1054.242 132.206 L
1054.485 132.133 L
1054.729 132.06 L
1054.972 131.987 L
1055.215 131.913 L
1055.458 131.84 L
1055.702 131.767 L
1055.945 131.694 L
1056.188 131.621 L
1056.432 131.548 L
1056.675 131.475 L
1056.918 131.402 L
1057.161 131.329 L
1057.405 131.256 L
1057.648 131.183 L
1057.891 131.11 L
1058.134 131.037 L
1058.377 130.964 L
1058.621 130.892 L
1058.864 130.819 L
1059.107 130.746 L
1059.35 130.673 L
1059.594 130.6 L
1059.837 130.527 L
1060.08 130.455 L
1060.323 130.382 L
1060.567 130.309 L
1060.81 130.236 L
1061.053 130.163 L
1061.297 130.091 L
1061.54 130.018 L
1061.783 129.945 L
1062.026 129.873 L
1062.27 129.8 L
1062.513 129.727 L
1062.756 129.655 L
1062.999 129.582 L
1063.243 129.51 L
1063.486 129.437 L
1063.729 129.365 L
1063.972 129.292 L
1064.215 129.219 L
1064.459 129.147 L
1064.702 129.074 L
1064.945 129.002 L
1065.188 128.93 L
1065.432 128.857 L
1065.675 128.785 L
1065.918 128.712 L
1066.161 128.64 L
1066.405 128.567 L
1066.648 128.495 L
1066.891 128.423 L
1067.135 128.35 L
1067.378 128.278 L
1067.621 128.206 L
1067.864 128.133 L
1068.108 128.061 L
1068.351 127.989 L
1068.594 127.917 L
1068.837 127.845 L
1069.08 127.772 L
1069.324 127.7 L
1069.567 127.628 L
1069.81 127.556 L
1070.053 127.484 L
1070.297 127.411 L
1070.54 127.339 L
1070.783 127.267 L
1071.026 127.195 L
1071.27 127.123 L
1071.513 127.051 L
1071.756 126.979 L
1072 126.907 L
1072.243 126.835 L
1072.486 126.763 L
1072.729 126.691 L
1072.973 126.619 L
1073.216 126.547 L
1073.459 126.475 L
1073.702 126.403 L
1073.946 126.331 L
1074.189 126.259 L
1074.432 126.188 L
1074.675 126.116 L
1074.918 126.044 L
1075.162 125.972 L
1075.405 125.9 L
1075.648 125.829 L
1075.891 125.757 L
1076.135 125.685 L
1076.378 125.613 L
1076.621 125.541 L
1076.865 125.47 L
1077.108 125.398 L
1077.351 125.326 L
1077.594 125.255 L
1077.838 125.183 L
1078.081 125.111 L
1078.324 125.04 L
1078.567 124.968 L
1078.811 124.897 L
1079.054 124.825 L
1079.297 124.753 L
1079.54 124.682 L
1079.783 124.61 L
1080.027 124.539 L
1080.27 124.467 L
1080.513 124.396 L
1080.756 124.324 L
1081 124.253 L
1081.243 124.182 L
1081.486 124.11 L
1081.729 124.039 L
1081.973 123.967 L
1082.216 123.896 L
1082.459 123.825 L
1082.703 123.753 L
1082.946 123.682 L
1083.189 123.611 L
1083.432 123.539 L
1083.676 123.468 L
1083.919 123.397 L
1084.162 123.326 L
1084.405 123.254 L
1084.649 123.183 L
1084.892 123.112 L
1085.135 123.041 L
1085.378 122.969 L
1085.621 122.898 L
1085.865 122.827 L
1086.108 122.756 L
1086.351 122.685 L
1086.594 122.614 L
1086.838 122.543 L
1087.081 122.472 L
1087.324 122.401 L
1087.568 122.33 L
1087.811 122.259 L
1088.054 122.188 L
1088.297 122.117 L
1088.541 122.046 L
1088.784 121.975 L
1089.027 121.904 L
1089.27 121.833 L
1089.514 121.762 L
1089.757 121.691 L
1090 121.62 L
S
GR
%%Trailer
%%Pages: 1
%%EOF
