74804
164608
183144
189680
210924
219752
226116
225056
231392
234760
240720
247272
253264
259792
266068
272208
278000
284188
293684
297744
304404
311340
318092
323624
329780
336964
343240
350236
356956
362912
369908
376436
382928
389996
395960
403416
408288
415048
421188
429036
435856
442020
448928
454284
460836
468512
473972
481288
487524
493144
500276
507212
514344
521516
527648
532876
539168
547424
552784
559476
567012
573460
580100
586740
593400
599332
606328
612900
620544
625788
632892
640128
645796
652536
659664
665348
672880
679308
686328
692872
699744
707256
712900
719464
726576
716484
721540
726932
731304
735968
741372
747912
753368
759940
765704
770256
776860
782964
789152
794944
802120
808096
814536
820044
826956
834220
840808
846544
853920
860836
867624
877168
884420
890004
895320
987308
1016104
1024532
1033488
1044908
1055788
1068624
1079872
1088128
1099744
1108244
1122260
1134632
1143172
1154080
1166792
1173756
1182520
1189260
1198564
1206156
1214344
1225928
1234984
1249084
1255552
1262988
1271616
